MEDIA_ID,MEDIA_NAME,CNT,TIME(2017/02/20 14:01:33.826),TIMETICK(f=3312871),FPOGX,FPOGY,FPOGS,FPOGD,FPOGID,FPOGV,BPOGX,BPOGY,BPOGV,CX,CY,CS,USER,LPCX,LPCY,LPD,LPS,LPV,RPCX,RPCY,RPD,RPS,RPV,BKID,BKDUR,BKPMIN,
0,NewMedia,2,0.03699,14986935836,0.14600,-0.04689,0.00000,0.03698,1,1,0.29287,0.06124,1,1.52188,0.10352,0,,0.42325,0.95362,17.37671,1.00000,1,0.74280,0.92689,15.98224,0.03879,1,0,0.00000,17,
0,NewMedia,16,0.26257,14987683168,0.29088,0.06704,0.04944,0.21313,2,1,0.28050,0.03690,1,0.77109,0.26367,0,,0.41381,0.95724,17.55407,1.00000,1,0.73281,0.93103,16.43818,0.05818,1,0,0.00000,17,
0,NewMedia,33,0.54199,14988608647,0.28837,0.11013,0.27905,0.26294,3,1,0.43580,0.62616,1,0.55078,0.25879,0,,0.36096,0.97363,17.87345,1.00000,1,0.67899,0.92508,17.36254,0.00000,1,0,0.00000,17,
0,NewMedia,46,0.75549,14989316097,0.44398,0.61038,0.70605,0.04944,4,1,0.45155,0.61360,1,0.55078,0.25879,0,,0.36891,0.98522,17.65651,1.00000,1,0.68902,0.93370,17.89314,-0.03232,1,0,0.00000,17,
0,NewMedia,118,1.93823,14993234357,0.62829,0.80762,0.82117,1.11707,5,1,0.62736,0.80126,0,0.39297,0.96484,0,,0.37620,1.00685,20.02285,1.00000,0,0.67482,0.96619,14.13933,0.07273,0,609,0.00000,17,
0,NewMedia,137,2.25037,14994268150,-0.35105,-0.54665,2.20105,0.04932,6,1,-0.28612,-0.43668,1,0.40312,0.96387,0,,0.35229,0.96385,16.45675,1.00000,1,0.67400,0.91991,16.65668,0.07273,1,0,0.00000,18,
0,NewMedia,147,2.41467,14994812697,-0.20981,-0.31756,2.26685,0.14783,7,1,0.63042,0.81679,1,0.41797,0.96387,0,,0.34891,0.96653,16.85156,1.00000,1,0.66972,0.92099,17.39144,-0.01939,1,0,0.00000,18,
0,NewMedia,167,2.74329,14995901150,0.41857,0.42760,2.57898,0.16431,8,1,0.62745,0.80325,1,0.42109,0.96289,0,,0.35306,0.99420,15.64520,1.00000,1,0.67406,0.95026,17.61277,0.04202,1,0,0.00000,18,
0,NewMedia,202,3.31812,14997805727,0.62714,0.80227,2.80908,0.50903,9,1,0.62932,0.81212,1,0.42031,0.96191,0,,0.35321,0.99761,15.89859,1.00000,0,0.66786,0.93099,16.36739,-0.00808,1,0,0.00000,18,
0,NewMedia,234,3.84412,14999548083,-0.46569,-0.62659,3.48254,0.36157,10,1,-0.41553,-0.56389,1,0.40391,0.96680,0,,0.33508,0.97787,15.79189,1.00000,1,0.65486,0.92204,16.62216,0.00000,1,0,0.00000,17,
0,NewMedia,258,4.23828,15000854109,-0.35610,-0.48865,4.15613,0.08215,11,1,-0.46493,-0.68860,1,0.39063,0.96387,0,,0.33876,0.97539,15.99674,1.00000,1,0.65757,0.91907,16.33232,0.05818,1,0,0.00000,17,
0,NewMedia,275,4.51746,15001779109,-0.34988,-0.54151,4.25500,0.26245,12,1,-0.23194,-0.38402,1,0.39063,0.96387,0,,0.34323,0.96843,16.29535,1.00000,1,0.66197,0.91386,16.02588,0.03394,1,0,0.00000,17,
0,NewMedia,295,4.84607,15002867424,-0.32121,-0.49757,4.63257,0.21350,13,1,-0.38492,-0.59244,1,0.41250,0.41504,0,,0.34610,0.96449,16.07823,1.00000,1,0.66412,0.91191,16.00400,0.03879,1,0,0.00000,17,
0,NewMedia,310,5.09253,15003683917,-0.26762,-0.42743,4.86243,0.23010,14,1,-0.26359,-0.45697,1,0.36562,0.26270,0,,0.35274,0.96371,15.75680,1.00000,1,0.67047,0.91298,15.63877,0.04040,1,0,0.00000,17,
0,NewMedia,324,5.32251,15004445940,-0.25675,-0.40789,5.10889,0.21362,15,1,-0.36724,-0.52286,1,0.36484,0.25977,0,,0.36778,0.95460,15.56923,1.00000,1,0.68698,0.90638,15.31245,-0.02424,1,0,0.00000,17,
0,NewMedia,341,5.60217,15005372270,-0.33754,-0.53111,5.38818,0.21399,16,1,-0.29131,-0.47134,1,0.36484,0.25977,0,,0.38608,0.96058,16.14542,1.00000,1,0.70673,0.91537,16.28301,0.08081,1,0,0.00000,17,
0,NewMedia,357,5.86450,15006241658,-0.30653,-0.48413,5.66748,0.19702,17,1,-0.35143,-0.52261,1,0.36484,0.26855,0,,0.40149,0.96137,16.61416,1.00000,1,0.72185,0.92172,16.46505,0.05818,1,0,0.00000,17,
0,NewMedia,390,6.40698,15008038605,-0.28820,-0.43118,5.88110,0.52588,18,1,-0.00592,-0.24392,1,0.36562,0.27051,0,,0.37645,0.97782,16.66993,1.00000,1,0.69782,0.92946,16.36766,0.00485,1,0,0.00000,17,
0,NewMedia,409,6.71899,15009072501,0.23944,-0.03375,6.47241,0.24658,19,1,0.24720,-0.05658,1,0.36562,0.27051,0,,0.40533,0.97539,17.04973,1.00000,1,0.72739,0.93312,15.44797,0.00000,1,0,0.00000,17,
0,NewMedia,416,6.83411,15009453488,0.28115,0.02429,6.78479,0.04932,20,1,0.22728,-0.03621,1,0.36562,0.27051,0,,0.41093,0.97560,17.22095,1.00000,1,0.73328,0.93557,16.03016,0.00000,1,0,0.00000,17,
0,NewMedia,430,7.06396,15010215094,0.17687,-0.11247,6.85034,0.21362,21,1,-0.16498,-0.48754,1,0.36562,0.27051,0,,0.40979,0.97226,15.96233,1.00000,1,0.73261,0.93471,16.69982,0.08727,1,0,0.00000,17,
0,NewMedia,448,7.35974,15011195019,-0.45205,-0.65751,7.12964,0.23010,22,1,-0.35851,-0.55330,1,0.36875,0.28125,0,,0.38915,0.97137,15.02548,1.00000,1,0.71156,0.92795,16.76272,0.02909,1,0,0.00000,17,
0,NewMedia,477,7.83606,15012772975,-0.40352,-0.64412,7.47461,0.36145,23,1,-0.40712,-0.66577,1,0.37109,0.29102,0,,0.39090,0.97194,15.39667,1.00000,1,0.71253,0.92747,16.21171,0.00000,1,0,0.00000,17,
0,NewMedia,502,8.24670,15014133617,-0.39329,-0.62166,7.90173,0.34497,24,1,-0.36404,-0.57370,1,0.40469,0.30664,0,,0.38813,0.96752,14.86821,1.00000,1,0.70960,0.92138,16.24108,0.07758,1,0,0.00000,17,
0,NewMedia,540,8.87109,15016201884,0.09255,-0.12715,8.65747,0.21362,25,1,-0.02501,-0.25960,1,0.39297,0.30469,0,,0.42097,0.95431,16.91987,1.00000,1,0.74627,0.93145,17.02558,0.00485,1,0,0.00000,17,
0,NewMedia,548,9.00256,15016637437,0.13497,-0.02179,8.88745,0.11511,26,1,0.62534,0.79970,1,0.38906,0.30371,0,,0.40277,0.96659,18.17313,1.00000,1,0.73050,0.93956,17.28838,0.03879,1,0,0.00000,17,
0,NewMedia,561,9.21606,15017344972,0.13203,-0.05666,9.01904,0.19702,27,1,0.01108,-0.22877,1,0.38516,0.30078,0,,0.38709,0.97440,17.92060,1.00000,1,0.71472,0.93987,16.57161,0.00485,1,0,0.00000,17,
0,NewMedia,589,9.67603,15018868440,-0.00544,-0.21877,9.33093,0.34509,28,1,-0.07709,-0.34743,1,0.38281,0.30176,0,,0.40287,0.96557,16.52994,1.00000,1,0.72810,0.94147,16.41882,0.00970,1,0,0.00000,17,
0,NewMedia,611,10.03748,15020065890,0.12844,-0.07283,9.79114,0.24634,29,1,0.23751,0.09870,1,0.38281,0.30176,0,,0.42228,0.95868,15.70645,1.00000,1,0.74613,0.93538,14.99461,0.01293,1,0,0.00000,17,
0,NewMedia,615,10.10315,15020283738,0.19079,0.02158,10.05383,0.04932,30,1,0.31594,0.20290,1,0.38281,0.30176,0,,0.42360,0.95645,15.21286,1.00000,1,0.74748,0.93322,15.11736,0.03394,1,0,0.00000,17,
0,NewMedia,651,10.69458,15022242883,0.07418,-0.12681,10.26746,0.42712,31,1,0.09160,-0.14024,1,0.38047,0.30176,0,,0.42723,0.95475,16.34815,1.00000,1,0.75165,0.93152,15.15816,0.02909,1,0,0.00000,17,
0,NewMedia,665,10.92456,15023004720,0.08499,-0.13730,10.71106,0.21350,32,1,-0.17943,-0.46423,1,0.37656,0.29492,0,,0.42673,0.95115,15.29265,1.00000,1,0.75049,0.92753,15.42467,0.10667,1,0,0.00000,17,
0,NewMedia,678,11.13818,15023712423,-0.33230,-0.55740,11.08875,0.04944,33,1,-0.86168,-1.30736,1,0.36875,0.21191,0,,0.41319,0.94214,15.66931,1.00000,1,0.73696,0.91606,15.62129,0.08727,1,0,0.00000,17,
0,NewMedia,710,11.66406,15025454867,-0.59069,-0.89958,11.45020,0.21387,34,1,-0.48281,-0.77784,1,0.39297,0.07715,0,,0.40329,0.93903,15.99840,1.00000,1,0.72447,0.90351,16.51561,-0.00808,1,0,0.00000,17,
0,NewMedia,746,12.25525,15027413259,-0.63025,-0.97237,12.02527,0.22998,35,1,-0.60626,-0.93795,1,0.39297,0.10254,0,,0.39723,0.94289,16.38945,1.00000,1,0.71860,0.90306,16.43051,0.03394,1,0,0.00000,18,
0,NewMedia,763,12.53455,15028338489,-0.54491,-0.87772,12.27173,0.26282,36,1,-0.44924,-0.75149,1,0.39297,0.10254,0,,0.39834,0.94346,16.04804,1.00000,1,0.72003,0.90381,16.73541,0.01939,1,0,0.00000,18,
0,NewMedia,785,12.89600,15029535787,-0.37718,-0.60902,12.60034,0.29565,37,1,-0.02218,-0.26967,1,0.39297,0.10254,0,,0.40446,0.94928,16.42654,1.00000,1,0.72548,0.91067,17.38832,0.09859,1,0,0.00000,18,
0,NewMedia,804,13.20837,15030570748,0.21451,0.01992,12.96179,0.24658,38,1,0.18663,-0.03432,1,0.39297,0.10254,0,,0.41398,0.95188,16.41221,1.00000,1,0.73627,0.91631,16.09016,0.02909,1,0,0.00000,17,
0,NewMedia,821,13.48743,15031495314,0.17880,-0.02773,13.22485,0.26257,39,1,0.25190,0.05120,1,0.39297,0.10254,0,,0.41775,0.94970,16.32220,1.00000,1,0.74057,0.91589,15.37716,0.06788,1,0,0.00000,17,
0,NewMedia,842,13.83240,15032638096,0.10673,-0.10388,13.50378,0.32861,40,1,0.09399,-0.16951,1,0.39297,0.10254,0,,0.41770,0.94965,15.83731,1.00000,1,0.74059,0.91712,15.60538,0.16916,1,0,0.00000,17,
0,NewMedia,860,14.12805,15033617736,0.08338,-0.12087,13.84912,0.27893,41,1,0.13283,-0.01463,1,0.39297,0.10254,0,,0.41510,0.95052,16.24763,1.00000,1,0.73800,0.91802,16.30170,0.02909,1,0,0.00000,17,
0,NewMedia,874,14.35815,15034379906,0.07479,-0.10669,14.14465,0.21350,42,1,-0.04642,-0.28930,1,0.39297,0.10254,0,,0.41634,0.94983,15.71748,1.00000,1,0.73885,0.91694,16.09569,0.00000,1,0,0.00000,17,
0,NewMedia,888,14.58801,15035141439,0.11053,-0.07342,14.37476,0.21326,43,1,0.26333,0.12056,1,0.39297,0.10254,0,,0.41834,0.95020,15.87357,1.00000,1,0.74049,0.91766,16.26884,0.00000,1,0,0.00000,17,
0,NewMedia,905,14.86755,15036067357,0.12977,-0.06141,14.60449,0.26306,44,1,0.05236,-0.17591,1,0.39297,0.10254,0,,0.41912,0.94915,16.03346,1.00000,1,0.74210,0.91677,15.19738,-0.02424,1,0,0.00000,17,
0,NewMedia,926,15.21252,15037210453,0.11185,-0.11236,14.93298,0.27954,45,1,0.14285,-0.04239,1,0.39297,0.10254,0,,0.41852,0.94854,16.15738,1.00000,1,0.74085,0.91591,15.26784,0.00970,1,0,0.00000,17,
0,NewMedia,937,15.39331,15037809034,0.19672,0.01860,15.22876,0.16455,46,1,0.36548,0.25653,0,0.39297,0.10254,0,,0.41695,0.95675,6.61566,1.00000,0,0.73994,0.92112,9.48877,0.21549,0,612,0.00000,17,
0,NewMedia,978,16.06677,15040040256,-0.59685,-0.89862,15.75452,0.31226,47,1,-0.63217,-0.87161,1,0.39297,0.10254,0,,0.40191,0.94221,16.36231,1.00000,1,0.72422,0.90670,16.25801,0.06303,1,0,0.00000,18,
0,NewMedia,994,16.32947,15040910694,-0.62829,-0.91874,16.08313,0.24634,48,1,-0.31430,-0.57628,1,0.39297,0.10254,0,,0.40949,0.94448,15.50576,1.00000,1,0.73149,0.90993,16.49850,0.12768,1,0,0.00000,18,
0,NewMedia,1014,16.65808,15041999412,0.08461,-0.13027,16.39551,0.26257,49,1,0.04927,-0.14498,1,0.39297,0.10254,0,,0.41242,0.94844,16.31890,1.00000,1,0.73459,0.91418,16.18915,0.08727,1,0,0.00000,18,
0,NewMedia,1035,17.00330,15043142848,-0.44258,-0.74283,16.77307,0.23022,50,1,-0.36484,-0.62607,1,0.39297,0.10254,0,,0.41245,0.94197,15.85289,1.00000,1,0.73368,0.90706,15.73631,0.00000,1,0,0.00000,18,
0,NewMedia,1056,17.35095,15044294610,-0.42961,-0.70084,17.06921,0.28174,51,1,-0.47446,-0.78213,1,0.39297,0.10254,0,,0.41637,0.94749,16.00061,1.00000,1,0.73284,0.90321,15.70035,0.08727,1,0,0.00000,17,
0,NewMedia,1074,17.64380,15045264978,-0.43510,-0.69590,17.41382,0.22998,52,1,-0.49206,-0.77946,1,0.39297,0.10254,0,,0.40166,0.94975,17.20237,1.00000,1,0.71837,0.90019,16.56973,0.03394,1,0,0.00000,17,
0,NewMedia,1088,17.87378,15046026734,-0.51999,-0.80279,17.66028,0.21350,53,1,-0.52460,-0.77340,1,0.39063,0.10254,0,,0.39192,0.94741,15.75430,1.00000,1,0.70993,0.89689,16.82250,0.07758,1,0,0.00000,17,
0,NewMedia,1110,18.23511,15047223902,-0.57372,-0.85621,17.89050,0.34460,54,1,-0.64949,-0.96965,1,0.35625,0.10938,0,,0.36439,0.95475,15.90007,1.00000,1,0.68348,0.89809,16.51594,0.00000,1,0,0.00000,17,
0,NewMedia,1129,18.54749,15048258623,-0.53382,-0.80869,18.35010,0.19739,55,1,-0.32127,-0.53197,1,0.35859,0.10352,0,,0.37023,0.95182,16.27154,1.00000,1,0.68992,0.89766,17.42351,0.10667,1,0,0.00000,17,
0,NewMedia,1153,18.94165,15049564518,-0.40023,-0.63451,18.66223,0.27942,56,1,-0.31157,-0.52097,1,0.35859,0.10352,0,,0.37036,0.95106,17.02857,1.00000,1,0.68962,0.89662,16.70952,0.06949,1,0,0.00000,17,
0,NewMedia,1170,19.22083,15050489459,-0.39544,-0.69498,18.95813,0.26270,57,1,-0.46475,-0.75313,1,0.37969,0.12500,0,,0.37639,0.94873,16.03265,1.00000,1,0.69586,0.89640,16.99588,-0.04848,1,0,0.00000,17,
0,NewMedia,1189,19.53308,15051523716,-0.42862,-0.71458,19.23730,0.29578,58,1,-0.32525,-0.55583,1,0.47969,0.15234,0,,0.37977,0.94721,16.67326,1.00000,1,0.69883,0.89613,17.19465,0.02586,1,0,0.00000,17,
0,NewMedia,1218,20.00952,15053102092,-0.28173,-0.56910,19.59912,0.41040,59,1,-0.23592,-0.54569,1,0.52891,0.15723,0,,0.38586,0.94701,16.07460,1.00000,1,0.70540,0.89782,17.21996,0.00000,1,0,0.00000,17,
0,NewMedia,1242,20.40393,15054408726,-0.30122,-0.58504,20.02588,0.37805,60,1,-0.38986,-0.60740,1,0.54609,0.18164,0,,0.38317,0.94895,15.53263,1.00000,1,0.70232,0.90077,16.44613,0.02909,1,0,0.00000,17,
0,NewMedia,1257,20.65015,15055224605,-0.32069,-0.52164,20.42017,0.22998,61,1,-0.38020,-0.62655,1,0.54609,0.18164,0,,0.38279,0.94941,14.91584,1.00000,1,0.70216,0.90092,16.36981,0.11636,1,0,0.00000,17,
0,NewMedia,1304,21.42236,15057782531,-0.28070,-0.53425,21.20898,0.21338,62,1,-0.41585,-0.66370,1,0.54609,0.18164,0,,0.41300,0.94985,16.15903,1.00000,1,0.73239,0.90863,15.84884,0.10667,1,0,0.00000,18,
0,NewMedia,1329,21.83313,15059143467,-0.44021,-0.70355,21.48804,0.34509,63,1,-0.55951,-0.84140,1,0.54609,0.18164,0,,0.41129,0.94862,16.55014,1.00000,1,0.73023,0.90764,16.52898,0.05818,1,0,0.00000,18,
0,NewMedia,1347,22.12878,15060123152,-0.34978,-0.54068,21.89880,0.22998,64,1,-0.35817,-0.56166,1,0.54609,0.18164,0,,0.40839,0.94802,15.78804,1.00000,1,0.72822,0.90755,16.47578,0.00970,1,0,0.00000,18,
0,NewMedia,1352,22.21106,15060395474,-0.36099,-0.57136,22.14514,0.06592,65,1,-0.43359,-0.66556,1,0.54609,0.18164,0,,0.40872,0.94760,15.30549,1.00000,1,0.72891,0.90686,16.49176,0.05010,1,0,0.00000,18,
0,NewMedia,1363,22.39160,15060993583,-0.30707,-0.52284,22.32593,0.06567,66,1,-0.19759,-0.36983,1,0.54609,0.18164,0,,0.40906,0.94818,16.14655,1.00000,1,0.72832,0.90670,16.44812,0.12283,1,0,0.00000,18,
0,NewMedia,1382,22.70374,15062027779,-0.22316,-0.37662,22.50659,0.19714,67,1,1.35265,2.03961,1,0.50625,0.18848,0,,0.34766,0.86691,7.12847,1.00000,1,0.72518,0.90520,16.27653,0.02909,1,0,0.00000,18,
0,NewMedia,1394,22.90112,15062681539,-0.36232,-0.60231,22.76941,0.13171,68,1,-0.37162,-0.59866,1,0.47656,0.19336,0,,0.40590,0.94825,16.12224,1.00000,1,0.72465,0.90548,16.50656,0.00000,1,0,0.00000,18,
0,NewMedia,1411,23.18018,15063606105,-0.37157,-0.64061,23.06519,0.11499,69,1,-0.40629,-0.67320,1,0.43906,0.19141,0,,0.40805,0.94812,16.42519,1.00000,1,0.72664,0.90586,16.76251,0.14545,1,0,0.00000,18,
0,NewMedia,1427,23.44312,15064477358,-0.28918,-0.51058,23.39380,0.04932,70,1,-0.15162,-0.30178,1,0.43437,0.18945,0,,0.40768,0.94963,13.98998,1.00000,1,0.72657,0.90632,15.99784,-0.06788,1,0,0.00000,18,
0,NewMedia,1451,23.83728,15065782907,-0.40474,-0.59758,23.75513,0.08215,71,1,-0.27056,-0.47118,1,0.44609,0.18945,0,,0.40797,0.95037,17.21681,1.00000,1,0.72755,0.90652,15.89456,0.00000,1,0,0.00000,19,
0,NewMedia,1476,24.24792,15067143558,-0.29977,-0.57799,24.00159,0.24634,72,1,-0.12035,-0.32418,1,0.55156,0.18555,0,,0.41105,0.94985,17.29169,1.00000,1,0.73002,0.90667,16.51018,0.02909,1,0,0.00000,18,
0,NewMedia,1493,24.52734,15068069066,-0.26484,-0.52359,24.26453,0.26282,73,1,-0.32625,-0.56427,1,0.55156,0.18457,0,,0.41853,0.94732,16.63594,1.00000,1,0.73774,0.90729,16.27882,0.02909,1,0,0.00000,18,
0,NewMedia,1511,24.82300,15069048411,-0.28591,-0.56096,24.54370,0.27930,74,1,-0.33378,-0.68240,1,0.57109,0.18262,0,,0.42624,0.94467,15.73525,1.00000,1,0.74519,0.90810,16.34188,0.05818,1,0,0.00000,18,
0,NewMedia,1551,25.48022,15071225712,-0.25632,-0.55249,24.88879,0.59143,75,1,-0.23857,-0.50315,1,0.57109,0.18262,0,,0.42530,0.94734,16.23529,1.00000,1,0.74470,0.90989,16.39180,-0.02424,1,0,0.00000,18,
0,NewMedia,1566,25.72705,15072043607,-0.33104,-0.57549,25.49670,0.23035,76,1,-0.40421,-0.65777,1,0.56953,0.18164,0,,0.41921,0.94535,16.10869,1.00000,1,0.73849,0.90711,15.16566,0.00485,1,0,0.00000,18,
0,NewMedia,1584,26.02234,15073021613,-0.45583,-0.69260,25.79236,0.22998,77,1,-0.38668,-0.59212,1,0.43437,0.19434,0,,0.41359,0.94801,16.79696,1.00000,1,0.73304,0.90671,16.38030,0.00485,1,0,0.00000,18,
0,NewMedia,1589,26.10449,15073293799,-0.46808,-0.70242,26.03870,0.06580,78,1,-0.47642,-0.69495,1,0.41875,0.19336,0,,0.41287,0.94822,16.92640,1.00000,1,0.73252,0.90667,16.32487,0.01455,1,0,0.00000,18,
0,NewMedia,1644,27.00818,15076287684,-0.24849,-0.37692,26.81079,0.19739,79,1,-0.15976,-0.23746,1,0.34609,0.41504,0,,0.39696,0.95881,18.28278,1.00000,1,0.71713,0.91251,17.96803,0.02909,1,0,0.00000,19,
0,NewMedia,1671,27.45166,15077756916,-0.15168,-0.25059,27.12305,0.32861,80,1,-0.03322,-0.09865,1,0.34609,0.41504,0,,0.40280,0.95690,18.19459,1.00000,1,0.72401,0.91327,17.98971,-0.04364,1,0,0.00000,19,
0,NewMedia,1689,27.74731,15078736338,-0.12930,-0.23332,27.46814,0.27917,81,1,-0.25859,-0.43933,1,0.34609,0.41504,0,,0.40403,0.94816,16.09381,1.00000,1,0.72403,0.91005,16.78562,0.14545,1,0,0.00000,18,
0,NewMedia,1703,27.97717,15079498122,-0.10825,-0.21595,27.76392,0.21326,82,1,0.62111,0.77672,0,0.34609,0.41504,0,,0.40864,0.94610,15.65670,1.00000,0,0.72846,0.91081,10.88988,0.14545,0,616,0.00000,18,
0,NewMedia,1779,29.22583,15083634659,-0.25079,-0.39837,29.02881,0.19702,83,1,-0.19552,-0.32259,1,0.34609,0.41602,0,,0.46216,0.96003,17.56851,1.00000,1,0.78387,0.93155,18.46686,-0.01455,1,0,0.00000,19,
0,NewMedia,1801,29.58716,15084831630,-0.33866,-0.53337,29.34094,0.24622,84,1,-0.35264,-0.52719,1,0.34609,0.41602,0,,0.45541,0.96738,17.57067,1.00000,1,0.77754,0.93349,17.50162,0.11313,1,0,0.00000,19,
0,NewMedia,1825,29.98157,15086138102,-0.61514,-0.80443,29.65295,0.32861,85,1,-0.53344,-0.70233,1,0.34609,0.41602,0,,0.44456,0.96675,16.99935,1.00000,1,0.76652,0.93374,17.19449,0.09104,1,0,0.00000,19,
0,NewMedia,1842,30.26074,15087063222,-0.35629,-0.55423,30.04932,0.21143,86,1,-0.27576,-0.40508,1,0.34609,0.41602,0,,0.44825,0.96474,17.11110,1.00000,1,0.76967,0.93066,17.41913,0.14545,1,0,0.00000,18,
0,NewMedia,1873,30.77014,15088750773,-0.30469,-0.47192,30.42505,0.34509,87,1,-0.21521,-0.34781,1,0.34609,0.41602,0,,0.44943,0.96465,16.96754,1.00000,1,0.77184,0.92779,16.94588,0.06788,1,0,0.00000,18,
0,NewMedia,1890,31.04956,15089676291,-0.12489,-0.24281,30.88513,0.16443,88,1,0.62741,0.80427,1,0.37969,0.25781,0,,0.45178,0.96339,17.63813,1.00000,1,0.77299,0.92705,17.18703,0.00970,1,0,0.00000,18,
0,NewMedia,1910,31.37793,15090764142,-0.44784,-0.69325,31.11536,0.26257,89,1,-0.38474,-0.55065,1,0.38047,0.24609,0,,0.44200,0.96354,17.46299,1.00000,1,0.76371,0.92689,17.96061,0.09697,1,0,0.00000,18,
0,NewMedia,1928,31.67371,15091743968,-0.40974,-0.60020,31.39453,0.27917,90,1,-0.49339,-0.74562,1,0.37109,0.25781,0,,0.44648,0.96491,17.73420,1.00000,1,0.76838,0.92858,17.95156,0.01293,1,0,0.00000,18,
0,NewMedia,1933,31.75586,15092016219,-0.37864,-0.56549,31.69019,0.06567,91,1,-0.29393,-0.46828,1,0.37031,0.25879,0,,0.44762,0.96445,17.21509,1.00000,1,0.76916,0.92858,17.58292,0.03394,1,0,0.00000,18,
0,NewMedia,1966,32.29797,15093812104,0.24609,0.16786,32.06799,0.22998,92,1,0.21334,0.11910,1,0.37031,0.25977,0,,0.45593,0.97075,17.91744,1.00000,1,0.77857,0.93656,18.01885,0.03394,1,0,0.00000,19,
0,NewMedia,1991,32.70874,15095173137,-0.42392,-0.64037,32.36365,0.34509,93,1,-0.41431,-0.63421,1,0.37031,0.25977,0,,0.45233,0.96356,15.33754,1.00000,1,0.77370,0.92782,15.49963,0.05064,1,0,0.00000,19,
0,NewMedia,2007,32.97144,15096043368,-0.42846,-0.55032,32.72510,0.24634,94,1,-0.67306,-0.83727,1,0.37031,0.25977,0,,0.44559,0.96403,14.88987,1.00000,1,0.76689,0.92856,16.29877,0.11636,1,0,0.00000,19,
0,NewMedia,2021,33.20154,15096805729,-0.53845,-0.68125,32.98792,0.21362,95,1,-0.63471,-0.80515,1,0.36562,0.25586,0,,0.44229,0.96475,15.87404,1.00000,1,0.76332,0.92776,16.66947,0.05818,1,0,0.00000,19,
0,NewMedia,2043,33.56299,15098002956,-0.36169,-0.57123,33.36597,0.19702,96,1,-0.47088,-0.70231,1,0.36562,0.25586,0,,0.44179,0.96829,16.58889,1.00000,1,0.76192,0.92727,17.03296,0.11636,1,0,0.00000,19,
0,NewMedia,2049,33.66138,15098329072,-0.30218,-0.48671,33.57935,0.08203,97,1,-0.04427,-0.12565,1,0.36562,0.25586,0,,0.44072,0.97046,12.51860,1.00000,1,0.76075,0.92811,14.28673,0.08727,1,0,0.00000,19,
0,NewMedia,2081,34.18713,15100070834,-0.36029,-0.53937,33.97375,0.21338,98,1,-0.38464,-0.62804,1,0.36562,0.25586,0,,0.44403,0.95717,16.09098,1.00000,1,0.76414,0.91616,17.11068,0.13414,1,0,0.00000,19,
0,NewMedia,2095,34.41711,15100832793,-0.29267,-0.45337,34.20386,0.21326,99,1,0.10091,0.14667,1,0.36562,0.25586,0,,0.43872,0.96741,17.28599,1.00000,1,0.76038,0.92201,18.87432,0.05818,1,0,0.00000,19,
0,NewMedia,2105,34.58167,15101377597,0.63333,0.78881,34.53223,0.04944,100,1,0.62968,0.76196,1,0.36484,0.26367,0,,0.42924,1.00614,20.92597,1.00000,0,0.73640,0.99431,11.79001,0.13576,1,0,0.00000,19,
0,NewMedia,2168,35.61658,15104806120,-0.31605,-0.49200,35.23865,0.37793,101,1,-0.31747,-0.51787,1,0.37187,0.29102,0,,0.40029,0.95368,18.26338,1.00000,1,0.72124,0.89715,18.47615,0.00485,1,0,0.00000,20,
0,NewMedia,2183,35.86267,15105621680,-0.35055,-0.54457,35.63293,0.22974,102,1,-0.58133,-0.80571,1,0.36797,0.28027,0,,0.40253,0.94565,17.00435,1.00000,1,0.72211,0.89124,17.46297,-0.06465,1,0,0.00000,20,
0,NewMedia,2204,36.20789,15106765064,-0.55494,-0.76873,35.92859,0.27930,103,1,-0.69912,-0.95868,1,0.31094,0.09473,0,,0.41028,0.93048,16.77993,1.00000,1,0.73322,0.89148,17.11104,-0.12121,1,0,0.00000,20,
0,NewMedia,2221,36.48718,15107690690,-0.62612,-0.91133,36.27356,0.21362,104,1,-0.70840,-1.06777,1,0.34766,0.09766,0,,0.39804,0.92944,16.73388,1.00000,1,0.71818,0.87971,16.67022,-0.03071,1,0,0.00000,19,
0,NewMedia,2241,36.81567,15108778798,-0.58942,-0.88742,36.50354,0.31213,105,1,-0.47416,-0.74131,1,0.35313,0.09473,0,,0.38949,0.93622,17.62906,1.00000,1,0.71226,0.88591,17.24647,-0.01939,1,0,0.00000,19,
0,NewMedia,2255,37.04578,15109540978,-0.31243,-0.49746,36.88159,0.16418,106,1,0.62006,0.77827,1,0.36719,0.19336,0,,0.37710,0.94720,16.99528,1.00000,1,0.69869,0.88351,17.15202,0.07919,1,0,0.00000,19,
0,NewMedia,2287,37.57141,15111282390,-0.31480,-0.49710,37.25928,0.31213,107,1,-0.42979,-0.72229,1,0.37109,0.17773,0,,0.38045,0.94812,16.76712,1.00000,1,0.70118,0.88254,16.48546,0.00485,1,0,0.00000,19,
0,NewMedia,2305,37.86719,15112262329,-0.33379,-0.54020,37.63721,0.22998,108,1,-0.18689,-0.28321,1,0.37344,0.18359,0,,0.39505,0.95150,17.09475,1.00000,1,0.71612,0.89122,17.33904,0.00000,1,0,0.00000,19,
0,NewMedia,2326,38.21228,15113405614,-0.27929,-0.44083,37.98218,0.23010,109,1,-0.44580,-0.67064,1,0.37813,0.19434,0,,0.40080,0.94790,16.99356,1.00000,1,0.72157,0.89010,16.75718,-0.05333,1,0,0.00000,18,
0,NewMedia,2341,38.45874,15114221809,-0.28200,-0.46172,38.22852,0.23022,110,1,-0.27325,-0.46015,1,0.37969,0.19727,0,,0.40751,0.94792,15.58783,1.00000,1,0.72809,0.89306,15.99618,0.09374,1,0,0.00000,18,
0,NewMedia,2368,38.90234,15115691420,-0.26433,-0.45424,38.57349,0.32886,111,1,-0.22990,-0.38291,1,0.43203,0.35840,0,,0.42354,0.94693,15.35100,1.00000,1,0.74476,0.89924,15.93288,0.05818,1,0,0.00000,18,
0,NewMedia,2383,39.14880,15116507900,-0.17608,-0.36080,38.91870,0.23010,112,1,-0.02879,-0.22439,1,0.43203,0.35840,0,,0.42781,0.94765,14.94410,1.00000,1,0.74846,0.90082,15.81230,0.02909,1,0,0.00000,18,
0,NewMedia,2400,39.42786,15117432517,-0.10969,-0.30054,39.21423,0.21362,113,1,-0.14849,-0.35469,1,0.43203,0.35840,0,,0.42206,0.94908,14.66192,1.00000,1,0.74275,0.90083,15.29017,0.15192,1,0,0.00000,18,
0,NewMedia,2404,39.49365,15117650358,-0.13519,-0.32961,39.44421,0.04944,114,1,-0.13536,-0.31614,1,0.43203,0.35840,0,,0.42122,0.95022,14.38565,1.00000,1,0.74205,0.90053,15.26925,0.15192,1,0,0.00000,18,
0,NewMedia,2420,39.75659,15118521662,-0.23954,-0.41768,39.51001,0.24658,115,1,-0.23376,-0.38404,1,0.41953,0.32129,0,,0.41617,0.95011,14.86783,1.00000,1,0.73640,0.89944,15.34953,-0.00162,1,0,0.00000,18,
0,NewMedia,2434,39.98645,15119283297,-0.29353,-0.45832,39.77295,0.21350,116,1,-0.46821,-0.70624,1,0.41953,0.31934,0,,0.41563,0.95140,15.64602,1.00000,1,0.73639,0.89910,14.80277,-0.07919,1,0,0.00000,18,
0,NewMedia,2451,40.26575,15120208327,-0.35166,-0.56377,40.00293,0.26282,117,1,-0.51861,-0.79110,1,0.41953,0.31934,0,,0.41459,0.95067,15.43612,1.00000,1,0.73521,0.89736,15.32323,0.08727,1,0,0.00000,18,
0,NewMedia,2465,40.49573,15120970151,-0.34270,-0.54762,40.28223,0.21350,118,1,-0.41376,-0.65511,1,0.41953,0.31934,0,,0.41234,0.95353,14.98679,1.00000,1,0.73323,0.90069,16.34216,-0.05333,1,0,0.00000,18,
0,NewMedia,2500,41.07068,15122875096,-0.13855,-0.30456,40.85718,0.21350,119,1,-0.11466,-0.30476,1,0.41953,0.31934,0,,0.41538,0.95848,15.94197,1.00000,1,0.73605,0.90558,16.06930,-0.00539,1,0,0.00000,18,
0,NewMedia,2525,41.48157,15124236254,-0.06128,-0.17456,41.08728,0.39429,120,1,0.00685,-0.04950,1,0.41953,0.31934,0,,0.41136,0.95985,15.80351,1.00000,1,0.73241,0.90690,16.29611,0.12929,1,0,0.00000,18,
0,NewMedia,2539,41.71143,15124997625,-0.07748,-0.19081,41.49780,0.21362,121,1,-0.15715,-0.28798,1,0.41953,0.31934,0,,0.41194,0.95841,14.72737,1.00000,1,0.73280,0.90550,15.94002,-0.00970,1,0,0.00000,18,
0,NewMedia,2548,41.85925,15125487589,-0.16187,-0.28820,41.77783,0.08142,122,1,-0.13710,-0.24077,1,0.41953,0.31934,0,,0.41346,0.95847,13.88953,1.00000,1,0.73396,0.90527,15.50592,0.04202,1,0,0.00000,18,
0,NewMedia,2587,42.50012,15127610756,-0.10517,-0.25262,42.22083,0.27930,123,1,-0.18086,-0.35691,1,0.41953,0.31934,0,,0.41969,0.95683,15.19583,1.00000,1,0.74113,0.90769,15.70200,0.12283,1,0,0.00000,19,
0,NewMedia,2608,42.84497,15128753104,-0.35494,-0.56387,42.61499,0.22998,124,1,-0.40579,-0.64505,1,0.41953,0.31934,0,,0.42136,0.95469,15.44075,1.00000,1,0.74300,0.90571,14.90205,0.00000,1,0,0.00000,19,
0,NewMedia,2627,43.15710,15129787117,-0.28958,-0.50272,42.96008,0.19702,125,1,0.03736,-0.07922,1,0.41953,0.31934,0,,0.42457,0.95612,12.08451,1.00000,1,0.74618,0.90777,14.41897,-0.02424,1,0,0.00000,19,
0,NewMedia,2665,43.78125,15131854748,-0.34383,-0.57997,43.56787,0.21338,126,1,-0.41521,-0.65293,1,0.41484,0.22070,0,,0.43488,0.95356,16.13281,1.00000,1,0.75656,0.91304,16.11588,0.00970,1,0,0.00000,19,
0,NewMedia,2684,44.09363,15132889483,-0.29064,-0.54548,43.89636,0.19727,127,1,-0.07692,-0.21660,1,0.41484,0.22070,0,,0.43137,0.95325,16.84506,1.00000,1,0.75243,0.91004,16.65132,-0.07919,1,0,0.00000,19,
0,NewMedia,2710,44.52075,15134304607,-0.06309,-0.20887,44.30725,0.21350,128,1,-0.15026,-0.36425,1,0.41484,0.22070,0,,0.42813,0.95734,15.91825,1.00000,1,0.74842,0.91272,17.34170,0.01455,1,0,0.00000,19,
0,NewMedia,2728,44.81653,15135284705,-0.03688,-0.21201,44.53711,0.27942,129,1,0.08792,0.02358,1,0.41484,0.22070,0,,0.42935,0.95884,15.36125,1.00000,1,0.74971,0.91444,15.73416,-0.04040,1,0,0.00000,19,
0,NewMedia,2748,45.14490,15136372553,0.14304,0.06112,44.88208,0.26282,130,1,0.00145,-0.15781,1,0.41484,0.22070,0,,0.43027,0.95719,15.14327,1.00000,1,0.75037,0.91239,15.95822,0.00485,1,0,0.00000,19,
0,NewMedia,2782,45.70361,15138223325,-0.03684,-0.21199,45.26001,0.44360,131,1,-0.09674,-0.28879,1,0.42031,0.22070,0,,0.43828,0.95390,15.12823,1.00000,1,0.75833,0.91294,15.42155,0.03394,1,0,0.00000,19,
0,NewMedia,2805,46.08142,15139475024,0.03710,-0.13570,45.81860,0.26282,132,1,0.29813,0.13549,1,0.42734,0.22070,0,,0.45083,0.95597,15.79337,1.00000,1,0.77154,0.91774,14.83527,-0.02424,1,0,0.00000,19,
0,NewMedia,2829,46.47595,15140782110,0.34875,0.26308,46.24573,0.23022,133,1,0.33550,0.26220,1,0.42734,0.22070,0,,0.45120,0.95543,15.63529,1.00000,1,0.77192,0.91803,15.15772,0.06303,1,0,0.00000,19,
0,NewMedia,2843,46.70569,15141542986,0.24765,0.11922,46.54138,0.16431,134,1,0.62389,0.80418,0,0.42734,0.22070,0,,0.45230,0.95466,15.26330,1.00000,0,0.77355,0.92223,8.37568,0.24673,0,623,0.00000,19,
0,NewMedia,2866,47.08350,15142794728,-0.41310,-0.67543,47.01782,0.06567,135,1,-0.41072,-0.68286,1,0.42734,0.22070,0,,0.44303,0.94865,14.90478,1.00000,1,0.76460,0.91116,15.03220,0.14653,1,0,0.00000,20,
0,NewMedia,2886,47.41223,15143883970,-0.43707,-0.58309,47.14929,0.26294,136,1,-0.48232,-0.60137,1,0.42734,0.22070,0,,0.43363,0.95159,16.46520,1.00000,1,0.75496,0.91092,17.15616,0.00485,1,0,0.00000,20,
0,NewMedia,2913,47.85559,15145352567,-0.55950,-0.69305,47.57629,0.27930,137,1,-0.48532,-0.61642,1,0.22656,0.25098,0,,0.42728,0.95244,16.61147,1.00000,1,0.74884,0.90807,17.46147,0.06303,1,0,0.00000,20,
0,NewMedia,2934,48.20056,15146495543,-0.56254,-0.69461,47.92151,0.27905,138,1,-0.52925,-0.67948,1,0.22656,0.25098,0,,0.42786,0.94801,16.61315,1.00000,1,0.74846,0.90325,17.40844,0.09212,1,0,0.00000,20,
0,NewMedia,2944,48.36499,15147040028,-0.45626,-0.58312,48.26636,0.09863,139,1,-0.31953,-0.42121,0,0.22656,0.25098,0,,0.43027,0.95015,14.56709,1.00000,0,0.75066,0.90421,16.39327,0.11636,0,624,0.00000,20,
0,NewMedia,2976,48.89111,15148782963,-0.22587,-0.40514,48.67700,0.21411,140,1,-0.32641,-0.51655,1,0.22656,0.25098,0,,0.41786,0.95382,17.34212,1.00000,1,0.73871,0.89735,17.63070,-0.01939,1,0,0.00000,20,
0,NewMedia,3000,49.28491,15150087830,-0.21391,-0.37014,49.05505,0.22986,141,1,-0.31918,-0.49035,1,0.25469,0.25391,0,,0.41834,0.95814,17.83403,1.00000,1,0.73958,0.90237,17.82501,0.11636,1,0,0.00000,20,
0,NewMedia,3017,49.56421,15151012899,-0.28831,-0.46595,49.30127,0.26294,142,1,-0.45242,-0.68893,1,0.39375,0.25781,0,,0.42122,0.95378,16.26737,1.00000,1,0.74185,0.90030,17.08224,0.04364,1,0,0.00000,20,
0,NewMedia,3035,49.85974,15151992179,-0.36971,-0.55159,49.58069,0.27905,143,1,-0.54951,-0.73461,1,0.32734,0.28613,0,,0.41996,0.95209,15.88758,1.00000,1,0.74052,0.89988,16.51607,0.04848,1,0,0.00000,20,
0,NewMedia,3043,49.99146,15152428446,-0.37788,-0.52786,49.87622,0.11523,144,1,-0.24880,-0.34953,0,0.29531,0.29004,0,,0.42054,0.95646,12.73837,1.00000,0,0.74143,0.90091,15.27267,0.12606,0,625,0.00000,20,
0,NewMedia,3072,50.46777,15154006368,-0.12151,-0.24020,50.25427,0.21350,145,1,0.00464,-0.04865,1,0.48438,0.26660,0,,0.42285,0.96033,17.88046,1.00000,1,0.74209,0.90399,17.68859,0.14545,1,0,0.00000,21,
0,NewMedia,3087,50.71411,15154822428,-0.06982,-0.15857,50.48413,0.22998,146,1,-0.10014,-0.17086,1,0.46641,0.25488,0,,0.41978,0.96547,18.31297,1.00000,1,0.73974,0.90788,18.15669,0.00000,1,0,0.00000,21,
0,NewMedia,3111,51.10852,15156129021,-0.03485,-0.10583,50.73059,0.37793,147,1,0.01556,-0.04110,1,0.32500,0.29980,0,,0.40811,0.97327,16.53469,1.00000,1,0.72676,0.90706,16.34208,0.05818,1,0,0.00000,21,
0,NewMedia,3130,51.42053,15157162914,-0.00046,-0.06034,51.12488,0.29565,148,1,-0.12857,-0.18198,1,0.30000,0.30371,0,,0.40169,0.97596,16.17720,1.00000,1,0.72084,0.90753,16.77746,0.00000,1,0,0.00000,21,
0,NewMedia,3165,51.99561,15159067789,-0.37150,-0.54871,51.78198,0.21362,149,1,-0.51925,-0.74032,1,0.30781,0.29297,0,,0.40821,0.97044,17.13427,1.00000,1,0.72732,0.90486,16.74728,0.00000,1,0,0.00000,20,
0,NewMedia,3185,52.32422,15160156551,-0.28524,-0.46216,52.06128,0.26294,150,1,-0.24043,-0.41777,1,0.40234,0.28711,0,,0.40171,0.97038,16.65718,1.00000,1,0.72044,0.90307,17.12975,0.05818,1,0,0.00000,20,
0,NewMedia,3206,52.66919,15161299476,-0.28724,-0.47343,52.34058,0.32861,151,1,-0.21959,-0.41788,1,0.33906,0.28906,0,,0.40669,0.97065,17.10678,1.00000,1,0.72558,0.90430,17.18048,0.00000,1,0,0.00000,20,
0,NewMedia,3223,52.94873,15162225349,-0.27697,-0.47579,52.68579,0.26294,152,1,-0.32396,-0.53214,1,0.42422,0.27637,0,,0.40909,0.96215,16.58955,1.00000,1,0.72686,0.89676,16.41807,0.02155,1,0,0.00000,20,
0,NewMedia,3229,53.04712,15162551474,-0.32305,-0.50696,52.96497,0.08215,153,1,-0.30430,-0.47989,1,0.40391,0.27344,0,,0.41224,0.96183,16.43787,1.00000,1,0.72945,0.89707,16.47320,0.10343,1,0,0.00000,20,
0,NewMedia,3273,53.77014,15164946514,-0.31657,-0.48643,53.50732,0.26282,154,1,-0.29967,-0.45133,1,0.33828,0.28809,0,,0.42359,0.95894,17.52080,1.00000,1,0.73985,0.89894,17.37243,0.14545,1,0,0.00000,21,
0,NewMedia,3288,54.01636,15165762516,-0.29713,-0.48187,53.78625,0.23010,155,1,-0.26074,-0.44736,1,0.40547,0.35156,0,,0.41999,0.95923,17.28951,1.00000,1,0.73601,0.89902,17.16429,0.14545,1,0,0.00000,20,
0,NewMedia,3317,54.49280,15167340602,-0.40561,-0.62873,54.18115,0.31165,156,1,-0.31689,-0.50868,1,0.42500,0.39941,0,,0.43054,0.95636,16.36227,1.00000,1,0.74689,0.90111,16.31564,0.14545,1,0,0.00000,20,
0,NewMedia,3325,54.62415,15167776064,-0.40502,-0.63816,54.50916,0.11499,157,1,-0.46444,-0.71709,1,0.42500,0.39941,0,,0.43065,0.95521,16.58169,1.00000,1,0.74731,0.90086,16.73632,0.14545,1,0,0.00000,20,
0,NewMedia,3372,55.39648,15170334655,-0.26141,-0.43052,55.08411,0.31238,158,1,-0.24473,-0.39044,1,0.37500,0.25391,0,,0.35082,0.96850,17.44690,1.00000,1,0.66438,0.90196,17.03585,0.14545,1,0,0.00000,21,
0,NewMedia,3386,55.62646,15171096313,-0.27636,-0.44880,55.41284,0.21362,159,1,-0.29906,-0.46221,1,0.37500,0.25391,0,,0.32809,0.97001,17.65502,1.00000,1,0.64205,0.89420,17.22597,0.14545,1,0,0.00000,21,
0,NewMedia,3405,55.93835,15172129707,-0.25088,-0.40901,55.64282,0.29553,160,1,-0.26977,-0.44420,1,0.36250,0.32715,0,,0.33818,0.97126,16.31331,1.00000,1,0.65338,0.89768,17.05109,0.14545,1,0,0.00000,21,
0,NewMedia,3421,56.20129,15173000831,-0.35885,-0.49099,56.00415,0.19714,161,1,-0.45737,-0.55470,1,0.36250,0.33984,0,,0.35342,0.96672,16.39086,1.00000,1,0.66892,0.89860,16.70314,0.14545,1,0,0.00000,20,
0,NewMedia,3438,56.48059,15173925904,-0.37272,-0.45705,56.21777,0.26282,162,1,-0.42483,-0.56143,1,0.35859,0.35156,0,,0.36295,0.96183,16.07430,1.00000,1,0.67838,0.89802,16.43510,0.14545,1,0,0.00000,20,
0,NewMedia,3475,57.08838,15175939713,-0.55294,-0.82085,56.89136,0.19702,163,1,-0.56784,-0.83272,1,0.35000,0.38086,0,,0.36521,0.95725,17.34791,1.00000,1,0.68086,0.89356,16.31177,0.10667,1,0,0.00000,21,
0,NewMedia,3492,57.36768,15176864821,-0.60875,-0.86077,57.10474,0.26294,164,1,-0.52227,-0.73851,1,0.34531,0.37988,0,,0.37121,0.95391,16.44684,1.00000,1,0.68682,0.89261,16.90468,0.05818,1,0,0.00000,21,
0,NewMedia,3519,57.81128,15178334440,-0.59064,-0.88351,57.48267,0.32861,165,1,-0.71307,-1.06011,1,0.36719,0.17285,0,,0.37916,0.95454,17.38521,1.00000,1,0.69449,0.89545,16.29242,0.12283,1,0,0.00000,21,
0,NewMedia,3544,58.22205,15179695252,-0.55050,-0.87081,57.92627,0.29578,166,1,-0.51623,-0.84375,1,0.35781,0.11914,0,,0.38153,0.95385,16.96279,1.00000,1,0.69667,0.89545,17.09518,0.30168,1,0,0.00000,21,
0,NewMedia,3569,58.63281,15181055995,-0.39157,-0.60334,58.33704,0.29578,167,1,-0.53728,-0.83353,1,0.36953,0.15723,0,,0.37782,0.95963,17.14326,1.00000,1,0.69376,0.89918,17.45508,0.00000,1,0,0.00000,21,
0,NewMedia,3582,58.84619,15181763147,-0.35546,-0.56963,58.64917,0.19702,168,1,-0.26377,-0.44794,1,0.37187,0.16797,0,,0.38198,0.96450,18.18781,1.00000,1,0.69746,0.90387,18.00105,0.08727,1,0,0.00000,21,
0,NewMedia,3604,59.20789,15182961165,-0.27598,-0.47629,58.96143,0.24646,169,1,-0.26394,-0.47850,1,0.37187,0.16797,0,,0.37834,0.96369,17.08629,1.00000,1,0.69215,0.90249,17.35902,0.16162,1,0,0.00000,20,
0,NewMedia,3619,59.45410,15183776911,-0.32044,-0.53881,59.22424,0.22986,170,1,-0.29190,-0.47792,1,0.41016,0.22070,0,,0.38112,0.96389,16.76365,1.00000,1,0.69667,0.90592,16.99809,0.14545,1,0,0.00000,20,
0,NewMedia,3637,59.75110,15184760829,-0.34535,-0.57498,59.52087,0.23022,171,1,-0.39688,-0.64915,1,0.41797,0.22559,0,,0.38981,0.96329,16.83666,1.00000,1,0.70555,0.90810,16.78387,0.14545,1,0,0.00000,20,
0,NewMedia,3646,59.89783,15185246995,-0.34678,-0.59951,59.76624,0.13159,172,1,-0.32838,-0.56667,0,0.41797,0.22559,0,,0.39201,0.96596,15.45891,1.00000,0,0.70803,0.91042,15.71553,0.14545,0,629,0.00000,20,
0,NewMedia,3685,60.53833,15187368904,-0.20854,-0.45129,60.11121,0.42712,173,1,-0.13352,-0.32193,1,0.61016,0.23145,0,,0.40017,0.95851,16.95367,1.00000,1,0.71577,0.90622,17.46117,0.00000,1,0,0.00000,21,
0,NewMedia,3706,60.88342,15188512250,-0.08577,-0.27748,60.60400,0.27942,174,1,-0.10652,-0.29978,1,0.61719,0.22461,0,,0.40326,0.94733,15.69599,1.00000,1,0.71803,0.89733,16.52486,0.04364,1,0,0.00000,21,
0,NewMedia,3722,61.14636,15189383195,-0.09081,-0.29386,60.94922,0.19714,175,1,-0.02185,-0.19100,1,0.57891,0.22949,0,,0.40686,0.94684,15.12760,1.00000,1,0.72169,0.89913,15.41672,0.16916,1,0,0.00000,21,
0,NewMedia,3741,61.45862,15190417534,-0.02670,-0.20300,61.26111,0.19751,176,1,-0.01098,-0.17671,1,0.57891,0.23047,0,,0.40621,0.95057,14.44098,1.00000,1,0.72089,0.90229,15.33218,0.14545,1,0,0.00000,21,
0,NewMedia,3761,61.78699,15191505510,-0.01468,-0.20316,61.47473,0.31226,177,1,0.00601,-0.14100,1,0.56875,0.35547,0,,0.40703,0.95241,14.49756,1.00000,1,0.72216,0.90499,14.78411,0.09212,1,0,0.00000,21,
0,NewMedia,3779,62.08276,15192485525,0.00336,-0.17418,61.80347,0.27930,178,1,0.03963,-0.15155,1,0.57891,0.39160,0,,0.40933,0.95082,14.28773,1.00000,1,0.72498,0.90426,15.17206,0.13576,1,0,0.00000,21,
0,NewMedia,3799,62.41125,15193573754,0.02377,-0.14049,62.09912,0.31213,179,1,0.25692,0.17507,0,0.57891,0.39160,0,,0.41312,0.95620,7.60397,1.00000,0,0.72815,0.90547,12.35709,0.01939,0,630,0.00000,20,
0,NewMedia,3827,62.87122,15195097438,0.25577,0.07642,62.62476,0.24646,180,1,0.09217,-0.14133,1,0.57891,0.39160,0,,0.41874,0.95252,15.62152,1.00000,1,0.73548,0.90797,15.24731,0.13576,1,0,0.00000,21,
0,NewMedia,3849,63.23254,15196294573,0.08990,-0.02239,62.98621,0.24634,181,1,-0.04567,-0.20809,1,0.57891,0.39160,0,,0.41391,0.95517,15.30450,1.00000,1,0.73020,0.91050,15.89271,0.12283,1,0,0.00000,21,
0,NewMedia,3865,63.49548,15197165612,0.08503,-0.03173,63.24915,0.24634,182,1,0.17140,0.10518,1,0.57891,0.39160,0,,0.41274,0.95599,15.54841,1.00000,1,0.72928,0.91119,15.46374,0.06788,1,0,0.00000,21,
0,NewMedia,3878,63.70911,15197873204,-0.04395,-0.22298,63.51196,0.19714,183,1,-0.20511,-0.43394,1,0.57891,0.39160,0,,0.41160,0.95036,14.16628,1.00000,1,0.72765,0.90498,14.64125,0.06788,1,0,0.00000,21,
0,NewMedia,3899,64.05518,15199019787,-0.17225,-0.39648,63.77478,0.28040,184,1,0.01910,-0.11882,1,0.57344,0.36914,0,,0.40991,0.95216,14.27164,1.00000,1,0.72592,0.90713,15.13816,0.04848,1,0,0.00000,21,
0,NewMedia,3920,64.39905,15200158932,-0.11233,-0.31901,64.12000,0.27905,185,1,-0.20689,-0.42405,1,0.56250,0.30273,0,,0.40912,0.95359,15.56623,1.00000,1,0.72573,0.90743,16.46762,0.14545,1,0,0.00000,21,
0,NewMedia,3927,64.51416,15200540231,-0.04760,-0.25834,64.41541,0.09875,186,1,0.27918,0.10687,1,0.56250,0.30273,0,,0.41633,0.95671,16.24726,1.00000,1,0.73291,0.91093,15.53420,0.14545,1,0,0.00000,21,
0,NewMedia,3949,64.87561,15201737795,0.23270,0.06596,64.62903,0.24658,187,1,0.18004,-0.02781,1,0.56250,0.30273,0,,0.41880,0.95476,15.76211,1.00000,1,0.73541,0.91015,14.70336,0.15731,1,0,0.00000,21,
0,NewMedia,3969,65.20398,15202825691,0.19951,-0.06458,64.99036,0.21362,188,1,0.23549,-0.06777,1,0.56250,0.30273,0,,0.42347,0.95183,15.08207,1.00000,1,0.74022,0.90838,14.47463,0.21657,1,0,0.00000,21,
0,NewMedia,3984,65.45056,15203642437,0.21159,0.00110,65.22046,0.23010,189,1,0.25705,0.14469,1,0.56250,0.30273,0,,0.42226,0.95187,15.86457,1.00000,1,0.73871,0.90903,15.45303,0.08727,1,0,0.00000,21,
0,NewMedia,3999,65.69690,15204458702,0.14845,-0.03699,65.46716,0.22974,190,1,0.05075,-0.14851,1,0.56250,0.30273,0,,0.42242,0.95114,16.07071,1.00000,1,0.73880,0.90907,15.55272,0.14545,1,0,0.00000,21,
0,NewMedia,4018,66.00903,15205492419,0.11653,-0.04871,65.71338,0.29565,191,1,0.07220,-0.03220,1,0.56250,0.30273,0,,0.41996,0.95407,14.66881,1.00000,1,0.73682,0.91154,14.32801,0.01939,1,0,0.00000,21,
0,NewMedia,4041,66.38684,15206744238,0.16884,0.31543,66.17322,0.21362,192,1,0.13171,0.27137,1,0.29688,0.66992,0,,0.38087,0.98106,12.77645,1.00000,1,0.69886,0.92502,15.35476,0.00485,1,0,0.00000,21,
0,NewMedia,4061,66.71545,15207832878,-0.00899,0.12241,66.50183,0.21362,193,1,0.03334,0.19100,1,0.17969,0.67480,0,,0.36427,0.98538,10.48217,1.00000,1,0.68200,0.92462,15.75931,0.00000,1,0,0.00000,21,
0,NewMedia,4078,66.99475,15208758175,-0.10552,0.00394,66.73193,0.26282,194,1,-0.05423,0.04697,1,0.15547,0.66406,0,,0.36265,0.98485,10.81372,1.00000,1,0.68075,0.92409,15.98797,0.04202,1,0,0.00000,21,
0,NewMedia,4134,67.91467,15211805790,-0.24154,-0.30075,67.55334,0.36133,195,1,-0.41485,-0.51877,1,0.22344,0.37012,0,,0.37367,0.98054,17.42787,1.00000,1,0.69244,0.91918,17.77726,0.00000,1,0,0.00000,22,
0,NewMedia,4148,68.14465,15212567632,-0.36099,-0.44673,67.93115,0.21350,196,1,-0.50627,-0.62799,1,0.22344,0.37012,0,,0.37758,0.97855,16.49023,1.00000,1,0.69694,0.91921,17.62550,0.00000,1,0,0.00000,22,
0,NewMedia,4157,68.29260,15213057575,-0.29617,-0.36437,68.21069,0.08191,197,1,-0.35396,-0.46696,1,0.22344,0.37012,0,,0.38016,0.97775,17.38762,1.00000,1,0.69883,0.91858,17.60855,0.00000,1,0,0.00000,22,
0,NewMedia,4201,69.01855,15215462597,-0.05705,0.05887,68.94983,0.06873,198,1,-0.13642,-0.05073,1,0.20000,0.49023,0,,0.37050,0.98330,13.16652,1.00000,1,0.68945,0.92567,17.72039,-0.04848,1,0,0.00000,22,
0,NewMedia,4208,69.13037,15215833193,0.13136,0.31000,69.08118,0.04919,199,1,0.20696,0.37668,1,0.18750,0.53516,0,,0.37055,0.98533,15.80976,1.00000,1,0.68963,0.92607,17.86358,0.01616,1,0,0.00000,22,
0,NewMedia,4223,69.37683,15216649830,0.01129,0.05137,69.14697,0.22986,200,1,-0.00416,0.00572,1,0.18828,0.51367,0,,0.37406,0.98033,18.27681,1.00000,1,0.69307,0.92052,18.18974,0.11636,1,0,0.00000,22,
0,NewMedia,4268,70.11633,15219099465,-0.16942,-0.28654,69.83691,0.27942,201,1,-0.06553,-0.21407,1,0.20547,0.42480,0,,0.38692,0.97397,17.25679,1.00000,1,0.70613,0.91856,18.49206,0.12606,1,0,0.00000,23,
0,NewMedia,4286,70.41187,15220078696,-0.00441,-0.15982,70.18213,0.22974,202,1,0.08256,-0.15278,1,0.20547,0.42480,0,,0.39366,0.97666,18.31685,1.00000,1,0.71296,0.92143,18.08306,0.10828,1,0,0.00000,23,
0,NewMedia,4311,70.82263,15221439448,0.20645,0.06414,70.47754,0.34509,203,1,0.10005,-0.05762,1,0.20547,0.42480,0,,0.38853,0.97667,16.52290,1.00000,1,0.70777,0.92043,17.39817,0.05818,1,0,0.00000,23,
0,NewMedia,4325,71.05249,15222200836,0.06974,0.07417,70.83911,0.21338,204,1,0.06835,0.21691,1,0.20547,0.42480,0,,0.37629,0.98227,16.13113,1.00000,1,0.69539,0.92470,17.81051,-0.01455,1,0,0.00000,23,
0,NewMedia,4351,71.47986,15223616557,-0.07223,-0.01031,71.21680,0.26306,205,1,0.04930,0.14612,1,0.20547,0.42480,0,,0.37589,0.98192,15.00760,1.00000,1,0.69537,0.92482,16.65083,0.00970,1,0,0.00000,23,
0,NewMedia,4376,71.89050,15224977185,-0.36223,-0.44576,71.84106,0.04944,206,1,-0.30754,-0.38685,1,0.20547,0.42480,0,,0.38003,0.97664,16.08616,1.00000,1,0.69987,0.92098,17.42595,0.12606,1,0,0.00000,24,
0,NewMedia,4386,72.05469,15225521100,0.37792,0.50398,72.00537,0.04932,207,1,-0.13527,-0.10555,1,0.20547,0.42480,0,,0.37994,0.97829,16.80045,1.00000,1,0.69871,0.92157,17.60606,-0.01939,1,0,0.00000,23,
0,NewMedia,4424,72.67896,15227588972,-0.02860,0.03855,72.51465,0.16431,208,1,-0.28798,-0.35144,1,0.22187,0.39941,0,,0.37843,0.96929,16.43259,1.00000,1,0.69663,0.91220,17.36964,0.10128,1,0,0.00000,23,
0,NewMedia,4468,73.40186,15229984074,-0.01034,-0.20996,73.13892,0.26294,209,1,0.05706,-0.13976,1,0.22187,0.39941,0,,0.39323,0.96828,18.34269,1.00000,1,0.71151,0.91166,18.06464,0.13576,1,0,0.00000,24,
0,NewMedia,4482,73.63196,15230746242,0.10499,-0.04743,73.41821,0.21375,210,1,0.05414,-0.16624,1,0.22187,0.39941,0,,0.39129,0.97208,18.95853,1.00000,1,0.70953,0.91523,18.39059,0.02909,1,0,0.00000,24,
0,NewMedia,4502,73.96033,15231834257,0.18363,0.06512,73.74683,0.21350,211,1,0.15244,0.00112,1,0.22422,0.39941,0,,0.39106,0.97219,18.62422,1.00000,1,0.70976,0.91538,18.00278,0.08189,1,0,0.00000,24,
0,NewMedia,4516,74.19043,15232596447,0.17339,0.18354,73.97681,0.21362,212,1,0.07682,0.19371,1,0.19219,0.47266,0,,0.37599,0.98057,17.36703,1.00000,1,0.69392,0.92158,17.77884,0.10128,1,0,0.00000,24,
0,NewMedia,4527,74.37109,15233195070,0.15035,0.25388,74.25610,0.11499,213,1,0.62168,0.77410,1,0.14063,0.64648,0,,0.37153,0.98274,15.96030,1.00000,1,0.68987,0.92297,17.13748,0.08727,1,0,0.00000,24,
0,NewMedia,4558,74.88037,15234882235,0.00541,0.09441,74.53540,0.34497,214,1,0.10459,0.23086,1,0.12734,0.66504,0,,0.37244,0.98324,14.88465,1.00000,1,0.69131,0.92511,17.26361,0.06788,1,0,0.00000,24,
0,NewMedia,4578,75.20911,15235971192,0.03333,0.15631,74.89685,0.31226,215,1,-0.17823,-0.08486,1,0.12031,0.66797,0,,0.37371,0.98451,14.99844,1.00000,1,0.69332,0.92774,17.57668,-0.01939,1,0,0.00000,24,
0,NewMedia,4592,75.43896,15236732852,-0.11536,-0.01855,75.22534,0.21362,216,1,-0.16633,-0.10014,1,0.12031,0.67090,0,,0.36977,0.98682,15.25397,1.00000,1,0.68921,0.92739,17.36349,0.00485,1,0,0.00000,24,
0,NewMedia,4598,75.53748,15237059102,-0.11779,-0.04556,75.45532,0.08215,217,1,-0.03101,0.03524,1,0.12031,0.67090,0,,0.36909,0.98609,10.36253,1.00000,1,0.68851,0.92812,17.33405,0.03879,1,0,0.00000,24,
0,NewMedia,4653,76.44104,15240052450,0.09078,0.17091,76.19482,0.24622,218,1,0.18387,-0.03341,1,0.11875,0.66992,0,,0.35647,0.94910,18.48013,1.00000,1,0.68748,0.87619,17.85387,-0.02424,1,0,0.00000,24,
0,NewMedia,4691,77.06567,15242121611,0.18538,-0.10668,76.60547,0.46021,219,1,0.20376,-0.16474,1,0.11797,0.66797,0,,0.47440,0.93449,17.07293,1.00000,1,0.80686,0.89834,16.24261,-0.10381,1,0,0.00000,24,
0,NewMedia,4711,77.39404,15243209657,0.19588,-0.13040,77.08191,0.31213,220,1,0.26263,-0.01834,1,0.11797,0.66797,0,,0.47474,0.94047,16.94132,1.00000,1,0.80548,0.90723,16.25671,-0.06465,1,0,0.00000,24,
0,NewMedia,4743,77.91968,15244950896,-0.00211,0.11725,77.85388,0.06580,221,1,0.17157,0.35108,1,0.11797,0.66992,0,,0.33856,0.98463,16.18788,1.00000,1,0.66733,0.91391,18.58181,0.00000,1,0,0.00000,24,
0,NewMedia,4756,78.13367,15245660102,0.63108,0.82566,78.08398,0.04968,222,1,0.63175,0.83123,1,0.11953,0.67090,0,,0.31954,0.99169,17.73231,1.00000,1,0.64627,0.91188,18.85934,-0.05657,1,0,0.00000,24,
0,NewMedia,4801,78.87256,15248107574,0.63280,0.84054,78.19897,0.67358,223,1,0.62869,0.80975,1,0.21016,0.66992,0,,0.30868,0.99770,17.57374,1.00000,1,0.63405,0.91257,17.29140,-0.00323,1,0,0.00000,24,
0,NewMedia,4874,80.07190,15252080978,0.63349,0.84343,78.88879,1.18311,224,1,0.63246,0.83656,1,0.17656,0.66992,0,,0.31573,0.99009,16.30867,1.00000,1,0.64143,0.90928,17.61936,-0.08081,1,0,0.00000,24,
0,NewMedia,4885,80.25256,15252679475,0.00687,0.14118,80.13745,0.11511,225,1,0.06515,0.23533,0,0.17891,0.67480,0,,0.32009,0.98742,10.48236,1.00000,0,0.64669,0.91032,16.33273,-0.07273,0,637,0.00000,24,
0,NewMedia,4915,80.74536,15254311985,0.19564,-0.09991,80.46606,0.27930,226,1,0.32983,0.13246,1,0.17578,0.67188,0,,0.37699,0.97096,17.46983,1.00000,1,0.70469,0.90358,16.23562,-0.00808,1,0,0.00000,25,
0,NewMedia,4922,80.86047,15254693457,0.27591,0.05145,80.76196,0.09851,227,1,0.63172,0.81397,1,0.17578,0.67188,0,,0.37817,0.96936,16.09595,1.00000,1,0.70537,0.90302,16.89348,-0.04040,1,0,0.00000,25,
0,NewMedia,4935,81.07397,15255400638,0.18942,0.11473,80.87683,0.19714,228,1,0.63380,0.84250,1,0.17578,0.67188,0,,0.34539,0.99125,17.09760,1.00000,1,0.67226,0.91615,18.20750,-0.09324,1,0,0.00000,24,
0,NewMedia,5048,82.93042,15261550813,0.63200,0.83334,81.13965,1.79077,229,1,0.63060,0.82398,0,0.16563,0.64063,0,,0.33604,0.99654,16.23101,1.00000,0,0.65276,0.94038,12.92286,-0.05657,0,638,0.00000,24,
0,NewMedia,5141,84.45801,15266611656,0.62758,0.80331,83.83374,0.62427,230,1,0.62848,0.80863,1,0.16563,0.64063,0,,0.30228,1.00312,20.90652,1.00000,0,0.70538,0.88472,17.15588,0.00000,1,0,0.00000,24,
0,NewMedia,5171,84.95129,15268245977,0.26018,0.04873,84.67163,0.27966,231,1,0.18471,-0.11079,1,0.16563,0.64063,0,,0.37881,0.94376,18.17875,1.00000,1,0.70176,0.88310,16.88836,-0.06465,1,0,0.00000,24,
0,NewMedia,5191,85.27954,15269333447,0.25787,0.06184,85.11548,0.16406,232,1,0.63948,0.82420,1,0.16563,0.64063,0,,0.30379,0.99322,18.79937,1.00000,1,0.62955,0.89547,16.82687,-0.12121,1,0,0.00000,24,
0,NewMedia,5255,86.33105,15272816613,0.63191,0.83251,85.34534,0.98572,233,1,0.63151,0.82600,0,0.20937,0.70898,0,,0.30379,0.99322,18.79937,1.00000,0,0.61288,0.85965,6.65706,-0.03232,1,0,0.00000,24,
0,NewMedia,5284,86.80750,15274395099,0.63101,0.82153,86.34753,0.45996,234,1,0.63499,0.82241,1,0.21875,0.68457,0,,0.30379,0.99322,18.79937,1.00000,0,0.69463,0.91720,16.33763,-0.08081,1,0,0.00000,23,
0,NewMedia,5318,87.36597,15276245166,0.25674,-0.00604,86.92249,0.44348,235,1,0.09343,-0.03252,1,0.21875,0.68457,0,,0.40820,0.95866,16.99695,1.00000,1,0.73296,0.91244,17.52810,-0.06141,1,0,0.00000,23,
0,NewMedia,5342,87.76038,15277551852,0.23075,0.36514,87.53052,0.22986,236,1,0.28020,0.43932,1,0.19375,0.67676,0,,0.35389,0.98982,16.08634,1.00000,1,0.67398,0.91453,18.35305,-0.03879,1,0,0.00000,23,
0,NewMedia,5371,88.23669,15279129922,0.62687,0.80067,87.82605,0.41064,237,1,0.62420,0.78666,1,0.17812,0.67773,0,,0.35395,0.99669,16.99108,1.00000,0,0.68686,0.90178,17.21273,0.06303,1,0,0.00000,23,
0,NewMedia,5386,88.48413,15279949589,0.31387,0.45602,88.35168,0.13245,238,1,0.62839,0.80807,1,0.14844,0.67383,0,,0.37089,0.99714,15.16388,1.00000,1,0.69244,0.92174,17.57474,0.00162,1,0,0.00000,22,
0,NewMedia,5398,88.68030,15280599423,0.62868,0.81016,88.59814,0.08215,239,1,0.62871,0.81031,0,0.14453,0.67383,0,,0.56482,0.90967,16.66239,1.00000,0,0.70723,0.95335,9.27851,-0.00485,0,639,0.00000,22,
0,NewMedia,5450,89.53479,15283430219,0.29198,0.40617,89.38672,0.14807,240,1,0.61572,0.75698,1,0.15000,0.65527,0,,0.28958,0.99998,16.21307,1.00000,1,0.61171,0.90550,17.41262,0.14545,1,0,0.00000,23,
0,NewMedia,5479,90.01099,15285007967,0.62144,0.77763,89.60022,0.41077,241,1,0.62848,0.80863,0,0.16406,0.66406,0,,0.28958,0.99998,16.21307,1.00000,0,0.61004,0.90396,13.12310,0.00000,0,640,0.00000,23,
0,NewMedia,5495,90.27380,15285878718,-0.43398,-0.63258,90.22449,0.04932,242,1,-0.30546,-0.44209,1,0.20781,0.70996,0,,0.32860,0.97743,15.64784,1.00000,1,0.64831,0.89734,15.02991,0.00000,1,0,0.00000,24,
0,NewMedia,5508,90.48730,15286585959,-0.20994,-0.32355,90.29016,0.19714,243,1,0.48144,0.68734,1,0.23516,0.71582,0,,0.33389,0.99129,16.60404,1.00000,1,0.65402,0.91455,17.67328,0.03394,1,0,0.00000,24,
0,NewMedia,5516,90.61890,15287021855,0.55890,0.73924,90.55310,0.06580,244,1,0.28300,0.47497,1,0.24375,0.72363,0,,0.34040,0.99288,18.21167,1.00000,1,0.66162,0.91723,18.27250,0.00970,1,0,0.00000,24,
0,NewMedia,5526,90.78308,15287565875,0.43823,0.57932,90.73376,0.04932,245,1,0.05274,0.13555,1,0.24375,0.72363,0,,0.34884,0.98418,12.12944,1.00000,1,0.67053,0.91803,17.92392,0.08727,1,0,0.00000,24,
0,NewMedia,5546,91.11169,15288654543,0.01496,0.04912,90.89807,0.21362,246,1,0.09678,0.16028,1,0.24375,0.70996,0,,0.35457,0.98782,16.47023,1.00000,1,0.67699,0.91956,16.27302,0.08242,1,0,0.00000,24,
0,NewMedia,5562,91.37439,15289524882,0.04367,0.07025,91.12805,0.24634,247,1,-0.04763,-0.05192,1,0.29063,0.67969,0,,0.35935,0.98625,16.48997,1.00000,1,0.68254,0.92155,17.26725,0.00485,1,0,0.00000,24,
0,NewMedia,5619,92.31104,15292627757,-0.33842,-0.53101,91.98230,0.32874,248,1,-0.25947,-0.40611,1,0.41094,0.67090,0,,0.37403,0.96586,15.21554,1.00000,1,0.69688,0.90837,16.96953,-0.02424,1,0,0.00000,24,
0,NewMedia,5629,92.47522,15293171794,-0.33468,-0.52861,92.42590,0.04932,249,1,-0.32606,-0.51251,1,0.41094,0.67090,0,,0.37500,0.96531,16.26730,1.00000,1,0.69762,0.90786,16.94039,0.00000,1,0,0.00000,24,
0,NewMedia,5643,92.70532,15293934027,-0.20429,-0.33108,92.49182,0.21350,250,1,-0.23651,-0.38774,1,0.41094,0.67090,0,,0.37636,0.96385,15.78946,1.00000,1,0.69894,0.90689,16.97874,0.02909,1,0,0.00000,24,
0,NewMedia,5663,93.03406,15295023174,-0.10297,-0.19235,92.82043,0.21362,251,1,0.36483,0.46740,1,0.41094,0.67090,0,,0.37774,0.97622,16.81266,1.00000,1,0.70072,0.91881,17.62782,0.02424,1,0,0.00000,24,
0,NewMedia,5685,93.39514,15296219071,0.23761,0.30842,93.09949,0.29565,252,1,0.18911,0.28141,1,0.41094,0.67090,0,,0.37435,0.97997,15.46680,1.00000,1,0.69910,0.92187,16.62300,0.03394,1,0,0.00000,24,
0,NewMedia,5699,93.62537,15296981926,0.13580,0.19369,93.41162,0.21375,253,1,0.14661,0.19186,1,0.40938,0.66992,0,,0.37448,0.97992,14.51302,1.00000,1,0.69956,0.92187,16.20691,-0.09697,1,0,0.00000,24,
0,NewMedia,5717,93.92078,15297960769,0.15531,0.22237,93.64172,0.27905,254,1,0.25468,0.36051,1,0.40938,0.66992,0,,0.37777,0.97729,14.39262,1.00000,1,0.70299,0.92081,15.21319,0.03879,1,0,0.00000,24,
0,NewMedia,5749,94.44653,15299702493,0.16404,-0.07625,94.23315,0.21338,255,1,0.15361,-0.04377,1,0.40938,0.66992,0,,0.46006,0.94827,15.30612,1.00000,1,0.78267,0.91226,13.79121,0.02909,1,0,0.00000,24,
0,NewMedia,5764,94.69324,15300519700,0.10885,-0.11971,94.46313,0.23010,256,1,0.02637,-0.27546,1,0.40938,0.66992,0,,0.46509,0.95035,16.07385,1.00000,1,0.78989,0.91516,15.43715,0.15838,1,0,0.00000,24,
0,NewMedia,5784,95.02161,15301607456,0.01257,-0.20626,94.75879,0.26282,257,1,0.18600,0.23326,1,0.40938,0.66992,0,,0.45085,0.95915,16.27457,1.00000,1,0.77681,0.92009,16.36559,0.06949,1,0,0.00000,24,
0,NewMedia,5802,95.31726,15302587031,0.31619,0.43902,95.08752,0.22974,258,1,0.23380,0.35742,1,0.40938,0.66992,0,,0.40603,0.98498,16.09611,1.00000,1,0.73691,0.93010,16.94107,0.00000,1,0,0.00000,23,
0,NewMedia,5815,95.53088,15303294509,0.44328,0.60504,95.33386,0.19702,259,1,0.62848,0.80863,1,0.40938,0.66992,0,,0.38231,1.00118,17.78819,1.00000,0,0.71338,0.93636,17.31441,0.00000,1,0,0.00000,23,
0,NewMedia,5903,96.97668,15308084238,0.63109,0.82392,95.59900,1.37769,260,1,0.61966,0.77494,1,0.32969,0.70996,0,,0.36193,0.98675,16.03923,1.00000,1,0.68935,0.91653,15.22084,0.07919,1,0,0.00000,23,
0,NewMedia,5923,97.30505,15309172073,-0.36596,-0.54539,97.09180,0.21326,261,1,-0.41856,-0.64694,1,0.32969,0.70996,0,,0.37335,0.97517,15.19154,1.00000,1,0.69983,0.90875,15.16235,-0.05657,1,0,0.00000,23,
0,NewMedia,5939,97.56799,15310043467,0.51100,0.64809,97.42017,0.14783,262,1,-0.54446,-0.79009,1,0.32969,0.70996,0,,0.38294,0.96534,15.27792,1.00000,1,0.70796,0.90481,15.67393,0.02101,1,0,0.00000,23,
0,NewMedia,5947,97.69958,15310479139,-0.39040,-0.62627,97.63416,0.06543,263,1,-0.29596,-0.51694,1,0.32969,0.70996,0,,0.38364,0.96308,15.36264,1.00000,1,0.70798,0.90258,16.15480,0.00000,1,0,0.00000,23,
0,NewMedia,5975,98.15942,15312002726,-0.12797,-0.23875,97.96228,0.19714,264,1,-0.16320,-0.30030,1,0.29531,0.54395,0,,0.39371,0.95715,16.46457,1.00000,1,0.71801,0.89929,15.37740,-0.02424,1,0,0.00000,24,
0,NewMedia,5996,98.50452,15313145798,-0.14916,-0.28105,98.27441,0.23010,265,1,-0.22439,-0.38878,1,0.91016,0.33496,0,,0.41073,0.94679,15.47106,1.00000,1,0.73200,0.89894,16.13119,-0.02424,1,0,0.00000,24,
0,NewMedia,6024,98.96448,15314669638,-0.25962,-0.43389,98.57007,0.39441,266,1,-0.32090,-0.50489,1,0.47188,0.00293,0,,0.42443,0.94086,16.26695,1.00000,1,0.74565,0.89834,16.43590,0.09374,1,0,0.00000,24,
0,NewMedia,6046,99.32581,15315866812,-0.27185,-0.43896,98.98083,0.34497,267,1,-0.17261,-0.36029,1,1.47187,0.11719,0,,0.42681,0.93748,14.72503,1.00000,1,0.74763,0.89673,16.44664,-0.05495,1,0,0.00000,24,
0,NewMedia,6065,99.63916,15316904740,0.10928,-0.10898,99.49011,0.14905,268,1,0.12033,-0.06875,1,1.52109,0.09570,0,,0.42937,0.94168,15.46562,1.00000,1,0.74972,0.90072,16.47233,0.11636,1,0,0.00000,24,