MEDIA_ID,MEDIA_NAME,CNT,TIME(2017/04/13 16:06:00.441),TIMETICK(f=3312841),FPOGX,FPOGY,FPOGS,FPOGD,FPOGID,FPOGV,BPOGX,BPOGY,BPOGV,CX,CY,CS,USER,LPCX,LPCY,LPD,LPS,LPV,RPCX,RPCY,RPD,RPS,RPV,BKID,BKDUR,BKPMIN,EEG_FR,EEG_EN,EEG_MED,EEG_EX,
0,screen,20,0.33057,151566928834,0.26218,0.44476,0.00000,0.33057,1,1,0.30639,0.55905,1,0.39922,0.16309,0,,0.16684,0.17799,21.10417,1.00000,1,0.54692,0.23288,19.47005,0.95846,1,0,0.00000,8,0.00000,0.00000,0.00000,0.00000,
0,screen,48,0.78857,151568446264,0.32418,0.86418,0.39429,0.39429,2,1,0.39872,0.92889,1,0.27734,0.61816,0,,0.15466,0.19338,23.97972,1.00000,1,0.54287,0.24641,22.21475,0.91556,1,0,0.00000,8,0.00000,0.00000,0.00000,0.00000,
0,screen,195,3.20361,151576447087,0.38122,0.94911,0.80493,2.39868,3,1,0.28959,0.85985,1,0.31172,0.96484,0,,0.13573,0.21759,26.23203,1.00000,1,0.52529,0.26444,24.06941,0.87104,1,0,0.00000,8,0.00000,0.00000,0.00000,0.00000,
0,screen,221,3.63086,151577862358,0.10730,0.36428,3.26929,0.36157,4,1,0.14622,0.34425,1,0.21016,0.66113,0,,0.07118,0.20511,22.53090,1.00000,1,0.45795,0.22746,20.94616,0.83346,1,0,0.00000,8,0.00000,0.00000,0.00000,0.00000,
0,screen,270,4.43579,151580528808,0.25139,0.33783,3.69653,0.73926,5,1,0.24101,0.07997,1,0.20625,0.32227,0,,0.04963,0.18545,22.11355,1.00000,1,0.43001,0.19524,19.61936,0.85568,1,0,0.00000,8,0.00000,0.00000,0.00000,0.00000,
0,screen,294,4.82983,151581834717,0.17697,0.10329,4.50146,0.32837,6,1,0.13556,0.08466,1,0.15469,0.09473,0,,0.05315,0.17520,22.53303,1.00000,1,0.43363,0.18479,21.32811,0.91189,1,0,0.00000,8,0.00000,0.00000,0.00000,0.00000,
0,screen,308,5.05981,151582596694,0.18849,0.21971,4.84668,0.21313,7,1,0.24380,0.36845,1,0.17812,0.21777,0,,0.04512,0.18934,23.44177,1.00000,1,0.42589,0.19879,21.17428,0.92659,1,0,0.00000,8,0.00000,0.00000,0.00000,0.00000,
0,screen,364,5.97998,151585644494,0.22553,0.30746,5.07642,0.90356,8,1,0.21445,0.11622,1,0.20859,0.31738,0,,0.03390,0.18179,22.79301,1.00000,1,0.41454,0.18813,20.96494,0.93762,1,0,0.00000,8,0.00000,0.00000,0.00000,0.00000,
0,screen,391,6.42529,151587120065,0.13644,0.07737,6.04565,0.37964,9,1,0.18685,0.07047,1,0.10703,0.00293,0,,0.05102,0.18399,23.53176,1.00000,1,0.42975,0.18927,20.85370,0.92806,1,0,0.00000,8,0.00000,0.00000,0.00000,0.00000,
0,screen,412,6.76855,151588256904,0.10018,0.06797,6.43994,0.32861,10,1,0.06556,0.08186,1,0.08516,0.02246,0,,0.04022,0.17911,24.09392,1.00000,1,0.42018,0.18649,21.65466,0.89351,1,0,0.00000,8,0.00000,0.00000,0.00000,0.00000,
0,screen,445,7.31055,151590052947,0.10983,0.11016,6.78516,0.52539,11,1,0.14939,0.12322,1,0.07344,0.03613,0,,0.05128,0.17884,25.05356,1.00000,1,0.43019,0.18910,22.72095,0.91556,1,0,0.00000,8,0.00000,0.00000,0.00000,0.00000,
0,screen,469,7.70508,151591359816,0.17530,0.14424,7.32739,0.37769,12,1,0.34961,0.10209,1,0.07969,0.03711,0,,0.04192,0.17141,23.60153,1.00000,1,0.41977,0.17433,21.79313,0.89473,1,0,0.00000,8,0.00000,0.00000,0.00000,0.00000,
0,screen,523,8.59204,151594298259,0.31032,0.10499,7.77075,0.82129,13,1,0.19552,0.12831,1,0.27344,0.06543,0,,0.04079,0.15779,24.01423,1.00000,1,0.41844,0.16140,22.09785,0.93762,1,0,0.00000,8,0.00000,0.00000,0.00000,0.00000,
0,screen,544,8.93726,151595441481,0.15940,0.14894,8.65796,0.27930,14,1,0.29913,0.16609,1,0.21484,0.07617,0,,0.03119,0.15824,23.56425,1.00000,1,0.40814,0.15752,22.16323,0.88248,1,0,0.00000,8,0.00000,0.00000,0.00000,0.00000,
0,screen,590,9.69287,151597944778,0.34078,0.10857,9.00293,0.68994,15,1,0.29931,0.12116,1,0.28516,0.08887,0,,0.03446,0.15721,22.51487,1.00000,1,0.41187,0.15918,22.59721,0.93909,1,0,0.00000,8,0.00000,0.00000,0.00000,0.00000,
0,screen,611,10.03784,151599087591,0.28134,0.11639,9.70923,0.32861,16,1,0.09775,0.09010,1,0.28828,0.09180,0,,0.03521,0.15683,24.08565,1.00000,1,0.41330,0.16282,23.27251,0.95895,1,0,0.00000,8,0.00000,0.00000,0.00000,0.00000,
0,screen,636,10.44873,151600449024,0.08636,0.15126,10.10376,0.34497,17,1,0.34490,0.14112,1,0.28828,0.09180,0,,0.07597,0.14854,22.94538,1.00000,1,0.45683,0.17195,21.27647,0.91872,1,0,0.00000,7,0.00000,0.00000,0.00000,0.00000,
0,screen,660,10.84302,151601754791,0.34111,0.13989,10.51440,0.32861,18,1,0.51365,0.28036,1,0.28828,0.09180,0,,0.20587,0.13714,21.61467,1.00000,1,0.58996,0.21069,20.72123,0.93542,1,0,0.00000,7,0.00000,0.00000,0.00000,0.00000,
0,screen,685,11.25366,151603115539,0.73762,0.53138,10.90845,0.34521,19,1,0.76556,0.57680,1,0.28828,0.09180,0,,0.26933,0.16034,20.53457,1.00000,1,0.65504,0.24894,19.56371,0.92659,1,0,0.00000,7,0.00000,0.00000,0.00000,0.00000,
0,screen,714,11.72998,151604693351,0.78504,0.57854,11.27002,0.45996,20,1,0.55562,0.42944,1,0.28828,0.09180,0,,0.21205,0.14318,17.39595,1.00000,1,0.59912,0.21471,16.59840,0.88615,1,0,0.00000,7,0.00000,0.00000,0.00000,0.00000,
0,screen,745,12.23926,151606380655,0.29940,0.12348,11.79565,0.44360,21,1,0.29821,0.09461,1,0.30469,0.09766,0,,0.11373,0.12407,21.90964,1.00000,1,0.49559,0.15806,19.70960,0.91556,1,0,0.00000,7,0.00000,0.00000,0.00000,0.00000,
0,screen,792,13.01147,151608938511,0.31759,0.10725,12.25562,0.75586,22,1,0.37185,0.08703,1,0.33281,0.13574,0,,0.09124,0.12198,22.31032,1.00000,1,0.47060,0.14547,21.13625,0.92806,1,0,0.00000,7,0.00000,0.00000,0.00000,0.00000,
0,screen,813,13.35645,151610081419,0.39148,0.10640,13.02783,0.32861,23,1,0.46096,0.09790,1,0.34375,0.13281,0,,0.09047,0.12387,22.46743,1.00000,1,0.47032,0.14597,21.97833,0.93762,1,0,0.00000,7,0.00000,0.00000,0.00000,0.00000,
0,screen,831,13.65210,151611061395,0.39433,0.11595,13.37280,0.27930,24,1,0.10190,0.17177,1,0.38828,0.12109,0,,0.07301,0.12835,23.44142,1.00000,1,0.45192,0.14900,21.93246,0.93762,1,0,0.00000,7,0.00000,0.00000,0.00000,0.00000,
0,screen,856,14.06299,151612422429,0.16668,0.14445,13.71826,0.34473,25,1,0.39271,0.07846,1,0.38828,0.12109,0,,0.05748,0.13223,23.67417,1.00000,1,0.43530,0.14749,21.81853,0.90454,1,0,0.00000,7,0.00000,0.00000,0.00000,0.00000,
0,screen,878,14.42432,151613619171,0.36326,0.08728,14.12842,0.29590,26,1,0.10277,0.13833,1,0.38516,0.11523,0,,0.03922,0.13634,22.93421,1.00000,1,0.41746,0.14978,22.70728,0.96679,1,0,0.00000,7,0.00000,0.00000,0.00000,0.00000,
0,screen,918,15.08154,151615796527,0.12309,0.11428,14.48999,0.59155,27,1,0.06357,0.14633,1,0.39766,0.11426,0,,0.01054,0.14915,23.42703,1.00000,1,0.38613,0.15109,22.17455,0.90454,1,0,0.00000,7,0.00000,0.00000,0.00000,0.00000,
0,screen,944,15.50854,151617211350,0.07648,0.17878,15.09790,0.41064,28,1,0.22074,0.18157,1,0.38047,0.12109,0,,0.01717,0.14875,24.48079,1.00000,1,0.39436,0.15130,22.25143,0.87635,1,0,0.00000,7,0.00000,0.00000,0.00000,0.00000,
0,screen,961,15.78784,151618136512,0.21133,0.15707,15.52490,0.26294,29,1,0.30869,0.10338,1,0.40703,0.11035,0,,0.02307,0.14497,23.07589,1.00000,1,0.40039,0.14925,21.90471,0.93909,1,0,0.00000,7,0.00000,0.00000,0.00000,0.00000,
0,screen,981,16.11670,151619226178,0.29112,0.08097,15.81006,0.30664,30,1,0.31978,0.07179,1,0.41250,0.10938,0,,0.03922,0.14122,21.89920,1.00000,1,0.41742,0.14936,21.34440,0.95608,1,0,0.00000,7,0.00000,0.00000,0.00000,0.00000,
0,screen,997,16.37939,151620095957,0.23497,0.07954,16.13354,0.24585,31,1,0.07336,0.05961,1,0.41250,0.10938,0,,0.04094,0.13785,23.02574,1.00000,1,0.41939,0.15008,22.76390,0.90454,1,0,0.00000,7,0.00000,0.00000,0.00000,0.00000,
0,screen,1042,17.11987,151622549494,0.13145,0.12077,16.44507,0.67480,32,1,0.44689,0.17249,1,0.41250,0.10938,0,,0.05456,0.14322,22.68348,1.00000,1,0.43408,0.15764,20.05657,0.95159,1,0,0.00000,7,0.00000,0.00000,0.00000,0.00000,
0,screen,1065,17.49658,151623797537,0.71513,0.44565,17.18433,0.31226,33,1,0.69870,0.33888,1,0.41250,0.10938,0,,0.20925,0.13770,20.46565,1.00000,1,0.59276,0.20457,18.89970,0.92292,1,0,0.00000,7,0.00000,0.00000,0.00000,0.00000,
0,screen,1092,17.93994,151625266259,0.70688,0.35862,17.51294,0.42700,34,1,0.75089,0.36648,1,0.41250,0.10938,0,,0.23424,0.13508,19.53477,1.00000,1,0.61671,0.21101,19.68851,0.93762,1,0,0.00000,7,0.00000,0.00000,0.00000,0.00000,
0,screen,1107,18.18628,151626082301,0.74440,0.45205,17.95630,0.22998,35,1,0.74435,0.53600,1,0.41250,0.10938,0,,0.23632,0.14396,20.72727,1.00000,1,0.61956,0.21964,19.88441,0.93909,1,0,0.00000,6,0.00000,0.00000,0.00000,0.00000,
0,screen,1140,18.72852,151627878539,0.73300,0.57261,18.20313,0.52539,36,1,0.56238,0.45991,1,0.41250,0.10938,0,,0.19627,0.12199,18.92930,1.00000,1,0.57947,0.18438,16.24568,0.94592,1,0,0.00000,6,0.00000,0.00000,0.00000,0.00000,
0,screen,1183,19.43506,151630219509,0.10912,0.16719,18.79443,0.64063,37,1,0.06120,0.16128,1,0.18359,0.06738,0,,0.01261,0.13469,23.71070,1.00000,1,0.38688,0.13151,21.38766,0.86409,1,0,0.00000,6,0.00000,0.00000,0.00000,0.00000,
0,screen,1200,19.71411,151631144017,0.03998,0.17086,19.45142,0.26270,38,1,-0.08456,0.04536,1,0.16953,0.08008,0,,0.02020,0.12803,23.58351,1.00000,1,0.39649,0.13119,21.51254,1.24735,1,0,0.00000,6,0.00000,0.00000,0.00000,0.00000,
0,screen,1216,19.97705,151632014845,0.13977,0.05182,19.78003,0.19702,39,1,0.34691,0.07918,1,0.19297,0.08594,0,,0.03644,0.12308,23.22900,1.00000,1,0.41343,0.12978,21.68684,0.93762,1,0,0.00000,6,0.00000,0.00000,0.00000,0.00000,
0,screen,1240,20.37183,151633322283,0.30931,0.09029,20.04297,0.32886,40,1,0.27627,0.07234,1,0.27344,0.07520,0,,0.03832,0.12247,21.76779,1.00000,1,0.41586,0.13016,21.50878,0.96409,1,0,0.00000,6,0.00000,0.00000,0.00000,0.00000,
0,screen,1276,20.96289,151635280328,0.33469,0.09871,20.38794,0.57495,41,1,0.35734,0.13763,1,0.34062,0.08301,0,,0.04897,0.12218,22.57752,1.00000,1,0.42774,0.13407,22.17073,0.88370,1,0,0.00000,6,0.00000,0.00000,0.00000,0.00000,
0,screen,1305,21.43921,151636858875,0.32658,0.13391,20.97925,0.45996,42,1,0.38701,0.07266,1,0.34766,0.08789,0,,0.05707,0.12302,23.78179,1.00000,1,0.43652,0.13651,21.86382,0.99109,1,0,0.00000,6,0.00000,0.00000,0.00000,0.00000,
0,screen,1323,21.73511,151637838920,0.36522,0.10436,21.45581,0.27930,43,1,0.32128,0.18548,1,0.34766,0.08789,0,,0.05641,0.12394,23.05943,1.00000,1,0.43621,0.13910,21.84819,0.87651,1,0,0.00000,6,0.00000,0.00000,0.00000,0.00000,
0,screen,1337,21.96484,151638600125,0.29283,0.01182,21.75146,0.21338,44,1,0.21546,-0.25449,1,0.34766,0.08789,0,,0.05921,0.12449,22.76816,1.00000,1,0.43963,0.14179,21.87338,1.68762,1,0,0.00000,6,0.00000,0.00000,0.00000,0.00000,
0,screen,1359,22.32642,151639797912,0.27614,-0.15383,22.12939,0.19702,45,1,0.43866,0.01292,1,0.34766,0.08789,0,,0.06583,0.12516,23.45408,1.00000,1,0.44643,0.14224,22.08791,1.00369,1,0,0.00000,6,0.00000,0.00000,0.00000,0.00000,
0,screen,1424,23.39429,151643335501,0.41588,0.09763,22.39233,1.00195,46,1,0.42025,0.15899,1,0.40234,0.11035,0,,0.07666,0.12597,23.80753,1.00000,1,0.45763,0.14768,21.52837,0.95012,1,0,0.00000,6,0.00000,0.00000,0.00000,0.00000,
0,screen,1453,23.87085,151644914136,0.42207,0.15817,23.41064,0.46021,47,1,0.38915,0.19639,1,0.42188,0.13965,0,,0.08224,0.12750,23.92517,1.00000,1,0.46464,0.15243,22.34566,0.93762,1,0,0.00000,6,0.00000,0.00000,0.00000,0.00000,
0,screen,1503,24.69238,151647635600,0.48193,0.15994,23.88745,0.80493,48,1,0.50664,0.17426,1,0.46484,0.16895,0,,0.08486,0.12655,21.97843,1.00000,1,0.46663,0.15212,21.02135,0.93762,1,0,0.00000,6,0.00000,0.00000,0.00000,0.00000,
0,screen,1538,25.26709,151649539970,0.49300,0.18488,24.70850,0.55859,49,1,0.52550,0.28446,1,0.46016,0.16699,0,,0.08839,0.13076,23.07080,1.00000,1,0.47032,0.15848,22.02697,0.95128,1,0,0.00000,6,0.00000,0.00000,0.00000,0.00000,
0,screen,1562,25.66138,151650846282,0.50254,0.20395,25.28369,0.37769,50,1,0.46306,-0.13111,1,0.47500,0.17188,0,,0.10749,0.13361,23.59571,1.00000,1,0.49136,0.16940,22.07219,1.92869,1,0,0.00000,6,0.00000,0.00000,0.00000,0.00000,
0,screen,1589,26.10498,151652315609,0.50968,0.24615,25.82593,0.27905,51,1,0.51059,0.26277,1,0.47500,0.17188,0,,0.13357,0.13663,22.07743,1.00000,1,0.51953,0.18232,21.30388,11.27323,1,0,0.00000,6,0.00000,0.00000,0.00000,0.00000,
0,screen,1621,26.63062,151654057160,0.51615,0.40733,26.31860,0.31201,52,1,0.54297,0.38556,1,0.47500,0.17188,0,,0.13768,0.14911,23.64208,1.00000,1,0.52563,0.19761,22.65858,1.47096,1,0,0.00000,5,0.00000,0.00000,0.00000,0.00000,
0,screen,1638,26.90991,151654982489,0.53707,0.43407,26.64697,0.26294,53,1,0.53774,0.58950,1,0.47500,0.17188,0,,0.13438,0.15472,23.63589,1.00000,1,0.52270,0.20285,22.89190,0.93395,1,0,0.00000,5,0.00000,0.00000,0.00000,0.00000,
0,screen,1693,27.81348,151657975770,0.51732,0.55795,26.97559,0.83789,54,1,0.54673,0.57838,1,0.41016,0.29980,0,,0.10148,0.15893,23.46280,1.00000,1,0.48758,0.19165,23.29165,0.96409,1,0,0.00000,5,0.00000,0.00000,0.00000,0.00000,
0,screen,1754,28.81763,151661302498,0.51575,0.54369,27.83032,0.98730,55,1,0.48689,0.51587,1,0.51484,0.57910,0,,0.09763,0.15721,24.41447,1.00000,1,0.48688,0.19431,22.14431,0.93909,1,0,0.00000,4,0.00000,0.00000,0.00000,0.00000,
0,screen,1776,29.17700,151662493103,0.30564,0.21206,28.88135,0.29565,56,1,0.24549,0.26385,1,0.39219,0.39258,0,,0.05933,0.16294,23.21230,1.00000,1,0.44507,0.18288,20.88367,0.95437,1,0,0.00000,4,0.00000,0.00000,0.00000,0.00000,
0,screen,1804,29.63721,151664016987,0.26192,0.32642,29.19336,0.44385,57,1,0.33434,0.37224,1,0.37109,0.39258,0,,0.06272,0.16522,24.19487,1.00000,1,0.44887,0.18665,22.22445,0.88248,1,0,0.00000,4,0.00000,0.00000,0.00000,0.00000,
0,screen,1818,29.86719,151664778887,0.22529,0.40313,29.65356,0.21362,58,1,0.16431,0.40625,1,0.31250,0.35547,0,,0.05174,0.16691,23.18076,1.00000,1,0.43805,0.18821,21.75602,0.87267,1,0,0.00000,4,0.00000,0.00000,0.00000,0.00000,
0,screen,1902,31.24707,151669350486,0.08823,0.42754,29.88354,1.36353,59,1,0.05997,0.40787,1,0.25938,0.31055,0,,0.04431,0.17455,25.47367,1.00000,1,0.43264,0.19635,23.58467,0.87267,1,0,0.00000,4,0.00000,0.00000,0.00000,0.00000,
0,screen,1915,31.46069,151670058331,0.22901,0.34406,31.26367,0.19702,60,1,0.44919,0.25701,1,0.29219,0.27148,0,,0.05769,0.16773,25.36599,1.00000,1,0.44617,0.18880,23.46963,0.93255,1,0,0.00000,4,0.00000,0.00000,0.00000,0.00000,
0,screen,1972,32.39697,151673160203,0.41166,0.26802,31.52661,0.87036,61,1,0.24107,0.28871,1,0.42188,0.26563,0,,0.14442,0.14352,23.27523,1.00000,1,0.51628,0.18826,22.79364,1.01441,1,0,0.00000,4,0.00000,0.00000,0.00000,0.00000,
0,screen,1991,32.70923,151674194227,0.22005,0.38501,32.46289,0.24634,62,1,0.19869,0.41756,1,0.32188,0.32910,0,,0.13739,0.15978,23.93601,1.00000,1,0.50456,0.19801,22.68288,0.97096,1,0,0.00000,4,0.00000,0.00000,0.00000,0.00000,
0,screen,2021,33.20215,151675827653,0.23159,0.37411,32.72559,0.47656,63,1,0.27191,0.35755,1,0.26016,0.33984,0,,0.13562,0.15718,22.22885,1.00000,1,0.50371,0.19644,21.58537,0.96262,1,0,0.00000,4,0.00000,0.00000,0.00000,0.00000,
0,screen,2178,35.78125,151684371849,0.26811,0.35068,33.21875,2.56250,64,1,0.48031,0.08448,1,0.27578,0.25195,0,,0.15433,0.14146,23.54412,1.00000,1,0.52621,0.18761,21.78249,0.98346,1,0,0.00000,4,0.00000,0.00000,0.00000,0.00000,
0,screen,2232,36.66846,151687311016,0.43255,0.10421,35.84741,0.82104,65,1,0.44024,0.12798,1,0.41719,0.13574,0,,0.16850,0.13122,22.65084,1.00000,1,0.54098,0.18395,22.07361,0.93762,1,0,0.00000,3,0.00000,0.00000,0.00000,0.00000,
0,screen,2258,37.09570,151688726494,0.44863,0.14412,36.68506,0.41064,66,1,0.49726,0.31279,1,0.43437,0.16602,0,,0.17011,0.14032,24.19525,1.00000,1,0.54261,0.19438,24.01404,0.98346,1,0,0.00000,3,0.00000,0.00000,0.00000,0.00000,
0,screen,2333,38.32788,151692808042,0.46394,0.22074,37.16162,1.16626,67,1,0.43488,0.18266,1,0.47500,0.19043,0,,0.17167,0.13728,23.80417,1.00000,1,0.54603,0.19238,22.29241,0.98762,1,0,0.00000,3,0.00000,0.00000,0.00000,0.00000,
0,screen,2360,38.77148,151694277559,0.48308,0.21970,38.34424,0.42725,68,1,0.53270,0.28942,1,0.48047,0.18652,0,,0.18054,0.14258,24.84786,1.00000,1,0.55395,0.20094,24.48810,0.94655,1,0,0.00000,3,0.00000,0.00000,0.00000,0.00000,
0,screen,2396,39.36279,151696236877,0.50906,0.53564,38.83716,0.52563,69,1,0.50873,0.58803,1,0.50781,0.52148,0,,0.19261,0.14952,22.94322,1.00000,1,0.56966,0.21418,22.70735,0.96262,1,0,0.00000,3,0.00000,0.00000,0.00000,0.00000,
0,screen,2440,40.08545,151698631022,0.53102,0.58033,39.37939,0.70605,70,1,0.44021,0.49390,1,0.52188,0.57227,0,,0.20215,0.14726,20.75449,1.00000,1,0.58046,0.21490,20.07448,0.97512,1,0,0.00000,3,0.00000,0.00000,0.00000,0.00000,
0,screen,2474,40.64429,151700481827,0.33449,0.30943,40.15137,0.49292,71,1,0.19369,0.39648,1,0.43906,0.43359,0,,0.18584,0.14902,22.10587,1.00000,1,0.56356,0.21298,20.61784,0.93762,1,0,0.00000,3,0.00000,0.00000,0.00000,0.00000,
0,screen,2501,41.08789,151701951447,0.18456,0.37537,40.71021,0.37769,72,1,0.30037,0.35886,1,0.35938,0.38965,0,,0.18158,0.15437,22.23829,1.00000,1,0.56216,0.21412,20.60110,1.00012,1,0,0.00000,3,0.00000,0.00000,0.00000,0.00000,
0,screen,2526,41.49854,151703312369,0.75147,0.46623,41.15356,0.34497,73,1,0.81149,0.60712,1,0.33203,0.37305,0,,0.29354,0.15816,21.29266,1.00000,1,0.67717,0.25102,20.68403,0.98027,1,0,0.00000,3,0.00000,0.00000,0.00000,0.00000,
0,screen,2541,41.74487,151704128424,0.73464,0.55937,41.51489,0.22998,74,1,0.05928,0.44353,1,0.26953,0.35742,0,,0.28472,0.15477,20.99562,1.00000,1,0.66885,0.25088,19.57774,0.88112,1,0,0.00000,3,0.00000,0.00000,0.00000,0.00000,
0,screen,2615,42.96094,151708156569,0.10815,0.43206,41.81079,1.15015,75,1,0.10640,0.37103,1,0.10000,0.42383,0,,0.09354,0.17655,24.03277,1.00000,1,0.47686,0.20917,21.44123,0.84326,1,0,0.00000,3,0.00000,0.00000,0.00000,0.00000,
0,screen,2634,43.27271,151709189815,0.11796,0.36681,42.97729,0.29541,76,1,0.24340,0.40540,1,0.10234,0.42188,0,,0.10748,0.17801,24.39770,1.00000,1,0.49118,0.21568,22.94778,0.85307,1,0,0.00000,3,0.00000,0.00000,0.00000,0.00000,
0,screen,2671,43.88062,151711203559,0.21364,0.42985,43.33862,0.54199,77,1,0.37846,0.57492,1,0.30781,0.65527,0,,0.14681,0.18178,21.19906,1.00000,1,0.53292,0.23721,21.52292,0.78960,1,0,0.00000,3,0.00000,0.00000,0.00000,0.00000,
0,screen,2691,44.20947,151712292667,0.35106,0.67380,43.94653,0.26294,78,1,0.22029,0.51808,1,0.33125,0.68066,0,,0.16093,0.17605,22.50499,1.00000,1,0.54877,0.23613,21.01459,0.90903,1,0,0.00000,3,0.00000,0.00000,0.00000,0.00000,
0,screen,2740,45.01416,151714959080,0.19020,0.36781,44.27515,0.73901,79,1,0.26363,0.36923,1,0.32969,0.66406,0,,0.14934,0.16598,23.14109,1.00000,1,0.53479,0.21817,21.43398,0.87390,1,0,0.00000,3,0.00000,0.00000,0.00000,0.00000,
0,screen,2766,45.44141,151716374013,0.26544,0.35596,45.03052,0.41089,80,1,0.29707,0.90067,1,0.32969,0.66406,0,,0.16455,0.19199,24.16404,1.00000,1,0.55115,0.24999,23.94719,0.88043,1,0,0.00000,3,0.00000,0.00000,0.00000,0.00000,
0,screen,2789,45.81934,151717625889,0.32619,0.93097,45.50708,0.31226,81,1,0.32074,0.90900,1,0.36562,0.89258,0,,0.16788,0.19203,24.06507,1.00000,1,0.55662,0.25151,24.61692,0.87635,1,0,0.00000,3,0.00000,0.00000,0.00000,0.00000,
0,screen,2831,46.50928,151719911988,0.38773,0.92923,45.83716,0.67212,82,1,0.38339,0.87221,1,0.39141,0.96484,0,,0.17128,0.17971,24.75089,1.00000,1,0.55914,0.23893,24.59861,0.93027,1,0,0.00000,3,0.00000,0.00000,0.00000,0.00000,
0,screen,2854,46.88721,151721163817,0.31647,0.18114,46.57495,0.31226,83,1,0.25984,0.03124,1,0.41875,0.96680,0,,0.16639,0.16034,23.18975,1.00000,1,0.55184,0.21569,22.05612,1.61917,1,0,0.00000,2,0.00000,0.00000,0.00000,0.00000,
0,screen,2874,47.21582,151722252184,0.07949,-0.23363,47.00220,0.21362,84,1,0.09040,-0.00895,1,0.40938,0.94531,0,,0.14018,0.16713,22.51753,1.00000,1,0.52528,0.21413,22.22215,1.68174,1,0,0.00000,2,0.00000,0.00000,0.00000,0.00000,
0,screen,2897,47.59351,151723503792,0.29658,0.31193,47.33081,0.26270,85,1,0.32847,0.31045,1,0.34844,0.52539,0,,0.15050,0.17709,22.97711,1.00000,1,0.53373,0.22319,21.93035,0.93027,1,0,0.00000,2,0.00000,0.00000,0.00000,0.00000,
0,screen,2921,47.98779,151724810027,0.15304,0.34618,47.65942,0.32837,86,1,0.19756,0.38752,1,0.19219,0.31152,0,,0.14471,0.16615,23.39048,1.00000,1,0.52645,0.20960,22.01413,0.85306,1,0,0.00000,2,0.00000,0.00000,0.00000,0.00000,
0,screen,2936,48.23438,151725626779,0.24084,0.33137,48.00415,0.23022,87,1,0.26494,0.31745,1,0.23906,0.32129,0,,0.12294,0.17679,23.13004,1.00000,1,0.50587,0.21534,22.10478,0.89024,1,0,0.00000,2,0.00000,0.00000,0.00000,0.00000,
0,screen,2955,48.54663,151726660972,0.30713,0.30098,48.25073,0.29590,88,1,0.27785,0.14838,1,0.31719,0.60742,0,,0.14107,0.17568,22.48582,1.00000,1,0.52513,0.22217,21.38188,1.38901,1,0,0.00000,2,0.00000,0.00000,0.00000,0.00000,
0,screen,2984,49.02271,151728238718,0.31869,0.86255,48.76001,0.26270,89,1,0.35282,0.92185,1,0.37578,0.98438,0,,0.15549,0.21132,24.31763,1.00000,1,0.54661,0.27013,23.48546,0.84326,1,0,0.00000,2,0.00000,0.00000,0.00000,0.00000,
0,screen,3015,49.53223,151729926053,0.37946,0.91715,49.03931,0.49292,90,1,0.29952,0.69063,1,0.38984,0.95898,1,,0.16221,0.19123,24.62620,1.00000,1,0.54984,0.24992,23.14482,0.89351,1,0,0.00000,2,0.00000,0.00000,0.00000,0.00000,
0,screen,3039,49.92651,151731232360,0.29291,0.32384,49.59790,0.32861,91,1,0.37424,0.30715,1,0.43047,0.95898,0,,0.15581,0.17109,22.71164,1.00000,1,0.54131,0.22308,20.68141,0.83999,1,0,0.00000,2,0.00000,0.00000,0.00000,0.00000,
0,screen,3056,50.20801,151732165126,0.31401,0.32399,49.94287,0.26514,92,1,0.25398,0.33225,1,0.42969,0.95898,0,,0.13995,0.17411,22.45975,1.00000,1,0.52481,0.21969,20.91805,0.86940,1,0,0.00000,2,0.00000,0.00000,0.00000,0.00000,
0,screen,3133,51.47095,151736348920,0.28221,0.31827,50.22217,1.24878,93,1,0.30029,0.32253,1,0.28281,0.32031,0,,0.11124,0.16896,21.65208,1.00000,1,0.49179,0.19934,20.26919,0.92659,1,0,0.00000,1,0.00000,0.00000,0.00000,0.00000,
0,screen,3160,51.91431,151737818105,0.28468,0.30620,51.48706,0.42725,94,1,0.23294,0.32638,1,0.28281,0.32129,0,,0.11881,0.16655,21.67641,1.00000,1,0.49942,0.20123,20.95786,0.92659,1,0,0.00000,1,0.00000,0.00000,0.00000,0.00000,
0,screen,3193,52.45630,151739613613,0.28716,0.36350,51.93091,0.52539,95,1,0.29939,0.31324,1,0.28750,0.34570,0,,0.11561,0.16832,22.86820,1.00000,1,0.49647,0.20405,21.72270,0.90576,1,0,0.00000,1,0.00000,0.00000,0.00000,0.00000,
0,screen,3211,52.75220,151740593284,0.30369,0.37499,52.47290,0.27930,96,1,0.32174,0.39490,1,0.28750,0.38672,0,,0.11799,0.16920,23.33343,1.00000,1,0.49883,0.20606,22.26565,0.89473,1,0,0.00000,1,0.00000,0.00000,0.00000,0.00000,
0,screen,3238,53.19580,151742062931,0.27294,0.34835,52.76880,0.42700,97,1,0.27216,0.33359,1,0.28828,0.40332,0,,0.11380,0.16776,23.38702,1.00000,1,0.49526,0.20454,22.44693,0.88370,1,0,0.00000,1,0.00000,0.00000,0.00000,0.00000,
0,screen,3286,53.98438,151744675840,0.30379,0.35360,53.21216,0.77222,98,1,0.37251,0.34809,1,0.28828,0.35352,0,,0.10169,0.17225,23.42972,1.00000,1,0.48211,0.20406,22.82652,0.89351,1,0,0.00000,1,0.00000,0.00000,0.00000,0.00000,
0,screen,3307,54.32935,151745818738,0.30856,0.34049,54.00073,0.32861,99,1,0.33809,0.42342,1,0.28828,0.33691,0,,0.10185,0.17273,23.79102,1.00000,1,0.48270,0.20551,23.07327,0.88248,1,0,0.00000,1,0.00000,0.00000,0.00000,0.00000,
0,screen,3396,55.79126,151750661878,0.31907,0.33852,54.34570,1.44556,100,1,0.31855,0.38525,1,0.28984,0.36230,0,,0.10928,0.16945,23.76483,1.00000,1,0.49018,0.20490,23.51509,0.89351,1,0,0.00000,1,0.00000,0.00000,0.00000,0.00000,
0,screen,3424,56.25146,151752185768,0.33244,0.39150,55.80786,0.44360,101,1,0.35795,0.46334,1,0.28906,0.39844,0,,0.10848,0.17139,24.56139,1.00000,1,0.48923,0.20716,24.05063,0.90576,1,0,0.00000,1,0.00000,0.00000,0.00000,0.00000,
0,screen,3449,56.66211,151753546434,0.30344,0.39848,56.26782,0.39429,102,1,0.40558,0.32440,1,0.31250,0.31250,0,,0.11520,0.16651,22.96180,1.00000,1,0.49631,0.19979,22.03084,0.91556,1,0,0.00000,1,0.00000,0.00000,0.00000,0.00000,
0,screen,3511,57.68066,151756921185,0.44244,0.09847,56.72778,0.95288,103,1,0.41625,0.27779,1,0.42266,0.11328,0,,0.14686,0.15571,23.21073,1.00000,1,0.52621,0.19959,22.84694,0.98762,1,0,0.00000,0,0.00000,0.00000,0.00000,0.00000,
0,screen,3541,58.17603,151758561724,0.43897,0.24662,57.74634,0.42969,104,1,0.47914,0.21097,1,0.44297,0.19629,0,,0.14901,0.15490,23.20676,1.00000,1,0.53021,0.20119,22.34124,0.91704,1,0,0.00000,0,0.00000,0.00000,0.00000,0.00000,
0,screen,3587,58.92920,151761057395,0.48534,0.18371,58.18994,0.73926,105,1,0.51768,0.35619,1,0.47656,0.20313,0,,0.15222,0.16583,24.96640,1.00000,1,0.53141,0.21393,24.57277,0.98524,1,0,0.00000,0,0.00000,0.00000,0.00000,0.00000,
0,screen,3628,59.60278,151763288430,0.53706,0.56175,58.99487,0.60791,106,1,0.55513,0.60524,1,0.53125,0.59082,0,,0.16528,0.16813,22.93200,1.00000,1,0.54878,0.22196,23.08686,0.92659,1,0,0.00000,0,0.00000,0.00000,0.00000,0.00000,
0,screen,3656,60.06274,151764812401,0.52353,0.56892,59.61938,0.44336,107,1,0.49601,0.54606,1,0.53125,0.58203,0,,0.16446,0.16740,22.26105,1.00000,1,0.54731,0.22101,21.99695,0.95568,1,0,0.00000,0,0.00000,0.00000,0.00000,0.00000,
0,screen,3685,60.53931,151766391005,0.26082,0.35229,60.12842,0.41089,108,1,0.16503,0.36601,1,0.45703,0.47754,0,,0.14535,0.16431,22.31575,1.00000,1,0.52738,0.21401,21.16925,0.91679,1,0,0.00000,0,0.00000,0.00000,0.00000,0.00000,
0,screen,3701,60.80200,151767261688,0.12165,0.39433,60.55566,0.24634,109,1,0.07104,0.41920,1,0.27734,0.45313,0,,0.14038,0.16718,23.27225,1.00000,1,0.52284,0.21615,20.95611,0.88370,1,0,0.00000,0,0.00000,0.00000,0.00000,0.00000,
0,screen,3752,61.63989,151770037445,0.09832,0.45436,60.81860,0.82129,110,1,0.09487,0.46439,1,0.11719,0.43848,0,,0.13842,0.16958,23.63318,1.00000,1,0.52172,0.21893,21.37343,0.85633,1,0,0.00000,0,0.00000,0.00000,0.00000,0.00000,
0,screen,3786,62.19849,151771887680,0.38163,0.65483,61.70581,0.49268,111,1,0.43535,0.71304,1,0.31953,0.64160,0,,0.14264,0.17957,22.17325,1.00000,1,0.52832,0.23135,22.35616,0.95128,1,0,0.00000,0,0.00000,0.00000,0.00000,0.00000,
0,screen,3802,62.46143,151772758889,0.41473,0.65761,62.21484,0.24658,112,1,0.71885,0.54357,1,0.33437,0.66602,0,,0.16394,0.17343,22.14828,1.00000,1,0.54716,0.22703,19.56252,0.93762,1,0,0.00000,0,0.00000,0.00000,0.00000,0.00000,
0,screen,3818,62.72437,151773629433,0.58403,0.53000,62.52710,0.19727,113,1,0.30823,0.68162,1,0.34609,0.68164,0,,0.15092,0.17810,21.89813,1.00000,1,0.53392,0.23126,21.01434,0.94326,1,0,0.00000,0,0.00000,0.00000,0.00000,0.00000,
0,screen,3835,63.00366,151774554823,0.27414,0.56177,62.79077,0.21289,114,1,0.15814,0.36700,1,0.34688,0.68262,0,,0.14632,0.16438,20.97136,1.00000,1,0.52946,0.21771,21.08677,0.96441,1,0,0.00000,0,0.00000,0.00000,0.00000,0.00000,
0,screen,3857,63.36499,151775752325,0.16200,0.38376,63.06909,0.29590,115,1,0.21128,0.47064,1,0.34844,0.66113,0,,0.14892,0.16895,22.69926,1.00000,1,0.53258,0.22224,21.55240,0.73389,1,0,0.00000,0,0.00000,0.00000,0.00000,0.00000,
0,screen,3878,63.70996,151776894956,0.30077,0.43372,63.38135,0.32861,116,1,0.43584,0.68921,1,0.38672,0.78125,0,,0.16250,0.18883,23.98546,1.00000,1,0.54528,0.24565,23.52391,0.89620,1,0,0.00000,0,0.00000,0.00000,0.00000,0.00000,
0,screen,3921,64.41650,151779235361,0.40631,0.90373,63.77563,0.64087,117,1,0.41836,0.65069,1,0.42422,0.95117,0,,0.15998,0.18804,23.57851,1.00000,1,0.54625,0.24569,23.11283,1.42169,1,0,0.00000,0,0.00000,0.00000,0.00000,0.00000,
0,screen,3939,64.71216,151780214668,0.42946,0.17784,64.48218,0.22998,118,1,0.42851,0.35220,1,0.42656,0.95996,0,,0.15422,0.17076,22.12530,1.00000,1,0.53796,0.22328,20.55305,0.93395,1,0,0.00000,0,0.00000,0.00000,0.00000,0.00000,
0,screen,4111,67.53784,151789576246,0.46635,0.31044,64.72852,2.80933,119,1,0.48687,0.40361,1,0.45234,0.42773,0,,0.16398,0.17445,24.37534,1.00000,1,0.54907,0.23027,23.87833,0.92806,1,0,0.00000,0,0.00000,0.00000,0.00000,0.00000,
0,screen,4147,68.12939,151791536074,0.45667,0.48290,67.60352,0.52588,120,1,0.53588,0.19762,1,0.45625,0.50391,0,,0.17215,0.16056,22.09676,1.00000,1,0.55624,0.21878,20.33288,0.82572,1,0,0.00000,0,0.00000,0.00000,0.00000,0.00000,
0,screen,4185,68.75366,151793603628,0.44493,0.10480,68.19604,0.55762,121,1,0.39808,0.10882,1,0.42031,0.17871,0,,0.17157,0.15848,22.51859,1.00000,1,0.55486,0.21380,21.81860,0.89105,1,0,0.00000,0,0.00000,0.00000,0.00000,0.00000,
0,screen,4207,69.11499,151794800776,0.42304,0.13251,68.77002,0.34497,122,1,0.45508,0.49839,1,0.41797,0.12500,0,,0.17837,0.17331,25.19875,1.00000,1,0.56112,0.23088,24.94002,0.89473,1,0,0.00000,0,0.00000,0.00000,0.00000,0.00000,
0,screen,4227,69.44360,151795889428,0.46100,0.45827,69.18066,0.26294,123,1,0.46084,0.18061,1,0.42031,0.14551,0,,0.17337,0.16193,22.82289,1.00000,1,0.55600,0.21900,22.28473,0.89204,1,0,0.00000,0,0.00000,0.00000,0.00000,0.00000,
0,screen,4249,69.80493,151797086602,0.47539,0.21006,69.50928,0.29565,124,1,0.48176,0.20166,1,0.45781,0.18457,0,,0.17044,0.16106,21.80477,1.00000,1,0.55422,0.21770,20.68618,0.83346,1,0,0.00000,0,0.00000,0.00000,0.00000,0.00000,
0,screen,4297,70.59351,151799699195,0.49267,0.21213,69.82153,0.77197,125,1,0.49380,0.15960,1,0.47344,0.18457,0,,0.17676,0.16001,23.00789,1.00000,1,0.56060,0.21768,21.93459,0.95306,1,0,0.00000,0,0.00000,0.00000,0.00000,0.00000,
0,screen,4319,70.95508,151800897229,0.53912,0.59060,70.70850,0.24658,126,1,0.52638,0.53467,1,0.49453,0.37793,0,,0.17879,0.17417,24.44401,1.00000,1,0.56389,0.23263,24.47386,0.96907,1,0,0.00000,0,0.00000,0.00000,0.00000,0.00000,
0,screen,4383,72.00635,151804379903,0.52894,0.56075,70.97144,1.03491,127,1,0.47179,0.31416,1,0.50234,0.56543,0,,0.17264,0.16388,21.02199,1.00000,1,0.55728,0.22083,20.63248,0.89718,1,0,0.00000,0,0.00000,0.00000,0.00000,0.00000,
0,screen,4400,72.28564,151805304836,0.35654,0.34500,72.07202,0.21362,128,1,0.19800,0.38732,1,0.44141,0.45801,0,,0.16767,0.17066,21.46224,1.00000,1,0.55251,0.22861,20.75835,0.91091,1,0,0.00000,0,0.00000,0.00000,0.00000,0.00000,
0,screen,4420,72.61426,151806393542,0.14540,0.36465,72.35156,0.26270,129,1,0.05722,0.37259,1,0.35078,0.53613,0,,0.15612,0.16979,23.14923,1.00000,1,0.54145,0.22486,20.77208,0.94326,1,0,0.00000,0,0.00000,0.00000,0.00000,0.00000,
0,screen,4470,73.43579,151809114791,0.09435,0.44772,72.63062,0.80518,130,1,0.31389,0.56212,1,0.14063,0.46680,0,,0.17054,0.17699,24.31262,1.00000,1,0.55577,0.23572,23.19148,0.88370,1,0,0.00000,0,0.00000,0.00000,0.00000,0.00000,
0,screen,4495,73.84644,151810475695,0.35669,0.65009,73.50146,0.34497,131,1,0.38232,0.68396,1,0.28516,0.61523,0,,0.17063,0.18287,23.83830,1.00000,1,0.55812,0.24278,23.51344,0.93076,1,0,0.00000,0,0.00000,0.00000,0.00000,0.00000,
0,screen,4521,74.27368,151811890484,0.35656,0.64133,73.86279,0.41089,132,1,0.50747,0.65029,1,0.34453,0.67480,0,,0.18265,0.18320,23.83507,1.00000,1,0.57037,0.24625,23.32756,0.93027,1,0,0.00000,0,0.00000,0.00000,0.00000,0.00000,
0,screen,4543,74.63501,151813087548,0.80096,0.55919,74.34106,0.29395,133,1,0.89568,0.58148,1,0.34844,0.67773,0,,0.20362,0.17948,20.95555,1.00000,1,0.59152,0.24479,21.35198,1.09967,1,0,0.00000,0,0.00000,0.00000,0.00000,0.00000,
0,screen,4573,75.12793,151814721101,0.87975,0.61014,74.65137,0.47656,134,1,0.95944,0.70874,1,0.34844,0.67871,0,,0.21259,0.18380,20.33489,1.00000,1,0.60119,0.25131,20.78361,0.83449,1,0,0.00000,0,0.00000,0.00000,0.00000,0.00000,
0,screen,4580,75.24292,151815101563,0.75335,0.62002,75.14453,0.09839,135,1,0.47775,0.62269,1,0.34922,0.67871,0,,0.19260,0.18690,22.54105,1.00000,1,0.57955,0.25354,22.46304,0.87063,1,0,0.00000,0,0.00000,0.00000,0.00000,0.00000,
0,screen,4626,75.99878,151817605481,0.36056,0.66463,75.30859,0.69019,136,1,0.48723,0.60553,1,0.35313,0.68555,0,,0.20681,0.17882,21.87572,1.00000,1,0.59387,0.24889,21.54319,0.92954,1,0,0.00000,0,0.00000,0.00000,0.00000,0.00000,
0,screen,4645,76.31055,151818638999,0.69039,0.56804,76.06421,0.24634,137,1,0.62828,0.63313,1,0.35469,0.66113,0,,0.28387,0.16898,20.84266,1.00000,1,0.67242,0.25780,20.26509,0.89351,1,0,0.00000,0,0.00000,0.00000,0.00000,0.00000,
0,screen,4659,76.54053,151819400939,0.63144,0.56172,76.32715,0.21338,138,1,0.66544,0.18772,0,0.35469,0.66113,0,,0.34975,0.14617,18.59988,1.00000,0,0.73265,0.25436,20.71087,0.94522,0,161,0.00000,0,0.00000,0.00000,0.00000,0.00000,
0,screen,4692,77.08301,151821197300,0.72892,0.57020,76.80347,0.27954,139,1,0.75600,0.58805,1,0.38672,0.62207,0,,0.24858,0.20733,22.00792,1.00000,1,0.65053,0.28644,20.32862,0.86287,1,0,0.00000,1,0.00000,0.00000,0.00000,0.00000,
0,screen,4705,77.29639,151821904575,0.67624,0.75662,77.09937,0.19702,140,1,0.66237,0.98965,1,0.39141,0.61426,0,,0.24674,0.22056,23.10633,1.00000,1,0.64334,0.30726,21.56342,0.89743,1,0,0.00000,1,0.00000,0.00000,0.00000,0.00000,
0,screen,4734,77.77295,151823483270,0.60369,0.85085,77.31299,0.45996,141,1,0.45624,0.43495,1,0.46094,0.61230,0,,0.16197,0.21125,24.25873,1.00000,1,0.56011,0.28696,20.64559,0.89351,1,0,0.00000,1,0.00000,0.00000,0.00000,0.00000,
0,screen,4769,78.34790,151825388005,0.43392,0.42261,77.83862,0.50928,142,1,0.43113,0.43507,1,1.20859,0.22070,0,,0.18649,0.19928,23.32572,1.00000,1,0.58285,0.27728,20.65863,0.81333,1,0,0.00000,1,0.00000,0.00000,0.00000,0.00000,
0,screen,4825,79.26880,151828439002,0.97556,0.50963,78.41357,0.85522,143,1,0.97602,0.51958,1,1.57813,0.01270,0,,0.23000,0.19801,22.62267,1.00000,1,0.62621,0.28259,21.78169,0.83346,1,0,0.00000,1,0.00000,0.00000,0.00000,0.00000,