MEDIA_ID,MEDIA_NAME,CNT,TIME(2017/04/20 19:28:52.855),TIMETICK(f=3312841),FPOGX,FPOGY,FPOGS,FPOGD,FPOGID,FPOGV,BPOGX,BPOGY,BPOGV,CX,CY,CS,USER,LPCX,LPCY,LPD,LPS,LPV,RPCX,RPCY,RPD,RPS,RPV,BKID,BKDUR,BKPMIN,EEG_FR,EEG_EN,EEG_MED,EEG_EX,
0,scrcap,19,0.31226,2195450788360,0.73049,0.34047,0.00000,0.31226,1,1,0.71358,0.34302,1,0.52578,0.18066,0,,0.28028,0.38078,16.90158,0.92173,1,0.61735,0.40556,15.94959,0.92670,1,0,0.00000,8,0.00000,0.00000,0.00000,0.00000,
0,scrcap,39,0.64087,2195451876362,0.70330,0.30552,0.32861,0.31226,2,1,0.47441,0.14214,1,0.34609,0.28516,0,,0.27145,0.37617,17.31485,0.99086,1,0.60798,0.40056,16.55041,0.98743,1,0,0.00000,8,0.00000,0.00000,0.00000,0.00000,
0,scrcap,62,1.01855,2195453127955,0.23256,0.07609,0.70630,0.31226,3,1,0.18387,0.04151,1,0.19922,0.17969,0,,0.26309,0.37372,16.74132,0.95911,1,0.59915,0.39678,16.09263,0.95516,1,0,0.00000,8,0.00000,0.00000,0.00000,0.00000,
0,scrcap,85,1.39648,2195454379691,0.22416,0.06667,1.03491,0.36157,4,1,0.28461,0.04853,1,0.24688,0.03223,0,,0.26503,0.37205,17.74103,0.92512,1,0.60202,0.39462,16.58703,0.92950,1,0,0.00000,8,0.00000,0.00000,0.00000,0.00000,
0,scrcap,102,1.68091,2195455322032,0.19591,0.04741,1.41309,0.26782,5,1,0.16517,0.09966,1,0.24453,0.01953,0,,0.25599,0.37253,18.80833,0.92748,1,0.59210,0.39317,17.17248,0.93634,1,0,0.00000,8,0.00000,0.00000,0.00000,0.00000,
0,scrcap,122,2.00439,2195456394114,0.13782,0.06605,1.69409,0.31030,6,1,0.12828,0.07182,1,0.18594,0.03223,0,,0.24774,0.37231,19.77969,0.95350,1,0.58428,0.39227,17.77554,0.95403,1,0,0.00000,8,0.00000,0.00000,0.00000,0.00000,
0,scrcap,163,2.67773,2195458624828,0.09014,0.07708,2.02075,0.65698,7,1,0.12992,0.07476,1,0.05703,0.04785,0,,0.23993,0.37624,20.11631,0.98589,1,0.57727,0.39244,18.98516,0.98194,1,0,0.00000,8,0.00000,0.00000,0.00000,0.00000,
0,scrcap,179,2.94067,2195459495779,0.13991,0.16414,2.69434,0.24634,8,1,0.14093,0.18618,1,0.05703,0.04785,0,,0.23992,0.37427,20.02518,0.90679,1,0.57639,0.39070,18.88074,0.91566,1,0,0.00000,8,0.00000,0.00000,0.00000,0.00000,
0,scrcap,195,3.20361,2195460366964,0.19703,0.13535,2.95703,0.24658,9,1,0.19783,0.05659,1,0.15391,0.41113,0,,0.24506,0.37400,20.07329,0.97752,1,0.58195,0.38988,18.59092,0.98250,1,0,0.00000,8,0.00000,0.00000,0.00000,0.00000,
0,scrcap,213,3.49951,2195461347125,0.17954,0.07990,3.22021,0.27930,10,1,0.07429,0.15172,1,0.16172,0.44336,0,,0.23685,0.37496,19.82672,0.94359,1,0.57276,0.39066,18.21770,0.94412,1,0,0.00000,8,0.00000,0.00000,0.00000,0.00000,
0,scrcap,230,3.77856,2195462271370,0.16471,0.15082,3.56494,0.21362,11,1,0.29096,0.09835,1,0.16172,0.44336,0,,0.24117,0.37411,19.61794,0.94850,1,0.57758,0.38848,18.34434,0.95736,1,0,0.00000,8,0.00000,0.00000,0.00000,0.00000,
0,scrcap,262,4.30469,2195464014255,0.32832,0.08680,3.84424,0.46045,12,1,0.34494,0.09658,1,0.15234,0.46387,0,,0.24502,0.37292,19.80198,0.97693,1,0.58167,0.38845,19.03870,0.97746,1,0,0.00000,8,0.00000,0.00000,0.00000,0.00000,
0,scrcap,289,4.74780,2195465482710,0.35352,0.08211,4.32080,0.42700,13,1,0.38531,0.06009,1,0.11797,0.59570,0,,0.25133,0.37100,19.75126,0.96814,1,0.58806,0.38937,18.91884,0.97312,1,0,0.00000,8,0.00000,0.00000,0.00000,0.00000,
0,scrcap,307,5.04492,2195466466497,0.31775,0.09678,4.76563,0.27930,14,1,0.14377,0.46779,1,0.11797,0.59570,0,,0.24349,0.38483,19.44262,0.96359,1,0.57852,0.40110,19.13256,0.96857,1,0,0.00000,8,0.00000,0.00000,0.00000,0.00000,
0,scrcap,396,6.50562,2195471305690,0.11347,0.60092,5.10938,1.39624,15,1,0.17117,0.48652,1,0.16016,0.55078,0,,0.24138,0.38510,17.09030,0.95015,1,0.57791,0.39821,16.55092,0.94620,1,0,0.00000,8,0.00000,0.00000,0.00000,0.00000,
0,scrcap,420,6.90015,2195472612570,0.31571,0.09535,6.57153,0.32861,16,1,0.32219,0.05813,1,0.25703,0.24512,0,,0.24384,0.37421,17.92941,0.98582,1,0.57986,0.38851,15.45963,0.98186,1,0,0.00000,8,0.00000,0.00000,0.00000,0.00000,
0,scrcap,437,7.17920,2195473537334,0.27127,0.08355,6.91748,0.26172,17,1,0.11952,0.06960,1,0.10391,0.64453,0,,0.23520,0.37549,18.24388,0.93679,1,0.57061,0.38968,17.09797,0.93728,1,0,0.00000,8,0.00000,0.00000,0.00000,0.00000,
0,scrcap,455,7.47534,2195474517867,0.10372,0.19944,7.24780,0.22754,18,1,0.12128,0.64098,1,0.10078,0.65039,0,,0.23151,0.39322,18.30178,0.93679,1,0.56653,0.40521,18.21066,0.93728,1,0,0.00000,7,0.00000,0.00000,0.00000,0.00000,
0,scrcap,473,7.77100,2195475497413,0.18925,0.57409,7.54077,0.23022,19,1,0.64162,0.42155,1,0.08359,0.58887,0,,0.24478,0.38825,17.13154,0.96797,1,0.58083,0.40228,15.73517,0.96850,1,0,0.00000,7,0.00000,0.00000,0.00000,0.00000,
0,scrcap,498,8.18188,2195476858563,0.66994,0.39954,7.83643,0.34546,20,1,0.67090,0.37848,1,0.08359,0.58887,0,,0.27521,0.37856,16.62093,0.96800,1,0.61070,0.40255,15.62334,0.96853,1,0,0.00000,7,0.00000,0.00000,0.00000,0.00000,
0,scrcap,525,8.62500,2195478326864,0.70953,0.29900,8.19800,0.42700,21,1,0.66357,0.31195,1,0.08359,0.58887,0,,0.27211,0.37729,16.22240,0.93915,1,0.60788,0.39918,14.56680,0.93961,1,0,0.00000,7,0.00000,0.00000,0.00000,0.00000,
0,scrcap,540,8.87158,2195479143809,0.74598,0.33379,8.64160,0.22998,22,1,0.82646,0.31069,1,0.08359,0.58887,0,,0.27141,0.37881,16.28481,0.96019,1,0.60676,0.40024,14.75599,0.96066,1,0,0.00000,7,0.00000,0.00000,0.00000,0.00000,
0,scrcap,567,9.31519,2195480613149,0.78024,0.31602,8.88794,0.42725,23,1,0.65570,0.33234,1,0.08359,0.58887,0,,0.25742,0.38214,16.36675,0.97742,1,0.59415,0.40023,15.94025,0.97791,1,0,0.00000,7,0.00000,0.00000,0.00000,0.00000,
0,scrcap,600,9.85718,2195482408593,0.09756,0.59518,9.42969,0.42749,24,1,0.13902,0.49087,1,0.12734,0.49805,0,,0.22616,0.38743,17.40031,0.95022,1,0.56321,0.39553,16.66836,0.95520,1,0,0.00000,7,0.00000,0.00000,0.00000,0.00000,
0,scrcap,641,10.53052,2195484639923,0.31151,0.03996,9.92285,0.60767,25,1,0.31377,0.05863,1,0.29375,0.08105,0,,0.22327,0.37580,19.83826,0.95307,1,0.55849,0.38531,16.99773,0.96194,1,0,0.00000,6,0.00000,0.00000,0.00000,0.00000,
0,scrcap,680,11.17163,2195486763655,0.32531,0.04324,10.54736,0.62427,26,1,0.32557,0.08859,1,0.30703,0.07324,0,,0.21615,0.37753,20.35204,0.95918,1,0.55182,0.38669,18.96468,0.95968,1,0,0.00000,6,0.00000,0.00000,0.00000,0.00000,
0,scrcap,724,11.89429,2195489157540,0.12962,0.55301,11.28735,0.60693,27,1,0.27415,0.20590,1,0.16094,0.49121,0,,0.20729,0.38437,18.47285,0.93349,1,0.54229,0.38932,16.74412,0.93846,1,0,0.00000,6,0.00000,0.00000,0.00000,0.00000,
0,scrcap,756,12.42017,2195490899299,0.31631,0.04436,11.95996,0.46021,28,1,0.15327,0.09069,1,0.16250,0.54883,0,,0.19774,0.37957,17.96089,0.94123,1,0.53268,0.38295,16.12361,0.94176,1,0,0.00000,6,0.00000,0.00000,0.00000,0.00000,
0,scrcap,782,12.84717,2195492314434,0.12032,0.07605,12.48608,0.36108,29,1,0.08962,-0.01256,1,0.06328,0.09668,0,,0.18959,0.37709,19.94863,1.00370,1,0.52462,0.37884,17.47685,1.00423,1,0,0.00000,6,0.00000,0.00000,0.00000,0.00000,
0,scrcap,818,13.43872,2195494273655,0.09809,0.04540,12.86353,0.57520,30,1,0.19762,0.26071,1,0.07109,0.04980,0,,0.20388,0.38034,19.89819,0.95463,1,0.53810,0.38475,18.55493,0.95068,1,0,0.00000,6,0.00000,0.00000,0.00000,0.00000,
0,scrcap,837,13.75098,2195495308455,0.16398,0.51220,13.50415,0.24683,31,1,0.12669,0.51255,1,0.14922,0.49707,0,,0.19838,0.39368,19.35033,0.95911,1,0.53420,0.39807,19.29774,0.95964,1,0,0.00000,6,0.00000,0.00000,0.00000,0.00000,
0,scrcap,865,14.21069,2195496831405,0.10690,0.47853,13.76709,0.44360,32,1,0.21027,0.28129,1,0.14844,0.44727,0,,0.19474,0.38890,16.88816,0.96345,1,0.52991,0.39145,15.71862,0.95950,1,0,0.00000,6,0.00000,0.00000,0.00000,0.00000,
0,scrcap,899,14.76929,2195498681971,0.27947,0.06518,14.27637,0.49292,33,1,0.30047,-0.00961,1,0.14844,0.44824,0,,0.20265,0.38052,17.66412,1.00370,1,0.53810,0.38513,16.25183,1.00423,1,0,0.00000,6,0.00000,0.00000,0.00000,0.00000,
0,scrcap,938,15.40991,2195500804230,0.34729,0.04504,14.78589,0.62402,34,1,0.36672,0.02557,1,0.37109,0.07129,1,,0.21010,0.38112,19.54266,0.99037,1,0.54592,0.38674,18.19051,0.99089,1,0,0.00000,5,0.00000,0.00000,0.00000,0.00000,
0,scrcap,970,15.93579,2195502546041,0.34409,0.06829,15.42651,0.50928,35,1,0.34904,0.11977,1,0.36328,0.11035,0,,0.21024,0.37962,19.81549,0.94284,1,0.54590,0.38520,18.84441,0.94337,1,0,0.00000,5,0.00000,0.00000,0.00000,0.00000,
0,scrcap,994,16.33008,2195503852382,0.32760,0.22098,16.00146,0.32861,36,1,0.32615,0.13219,1,0.35391,0.18359,0,,0.21440,0.38177,18.54031,0.99037,1,0.54993,0.38777,16.60367,0.99534,1,0,0.00000,5,0.00000,0.00000,0.00000,0.00000,
0,scrcap,1013,16.64209,2195504886374,0.33763,0.17873,16.34644,0.29565,37,1,0.34569,0.22711,1,0.35313,0.20508,0,,0.21849,0.38396,17.41988,0.96804,1,0.55442,0.39124,15.83622,0.97301,1,0,0.00000,5,0.00000,0.00000,0.00000,0.00000,
0,scrcap,1050,17.25000,2195506900151,0.34090,0.27213,16.65845,0.59155,38,1,0.47572,0.25896,1,0.34375,0.26855,0,,0.22618,0.38093,17.28974,0.99530,1,0.56244,0.39192,15.28596,0.99583,1,0,0.00000,5,0.00000,0.00000,0.00000,0.00000,
0,scrcap,1082,17.77563,2195508641527,0.75023,0.29494,17.31567,0.45996,39,1,0.80602,0.26877,1,0.34375,0.26855,0,,0.25241,0.37561,15.33694,0.97252,1,0.58762,0.39354,13.69763,0.97749,1,0,0.00000,5,0.00000,0.00000,0.00000,0.00000,
0,scrcap,1105,18.15356,2195509893531,0.77783,0.27737,17.79224,0.36133,40,1,0.41954,0.14784,1,0.34375,0.26855,0,,0.23988,0.37199,15.96558,0.95628,1,0.57484,0.38851,14.29560,0.95681,1,0,0.00000,5,0.00000,0.00000,0.00000,0.00000,
0,scrcap,1133,18.61475,2195511421617,0.33893,0.13427,18.21924,0.39551,41,1,0.34106,0.22770,1,0.34375,0.26855,0,,0.22764,0.37397,17.24229,0.95183,1,0.56401,0.38612,15.09895,0.95236,1,0,0.00000,5,0.00000,0.00000,0.00000,0.00000,
0,scrcap,1166,19.15576,2195513213819,0.33744,0.21339,18.63013,0.52563,42,1,0.34725,0.29390,1,0.34375,0.26855,0,,0.22505,0.38197,17.77415,0.99037,1,0.56180,0.39312,16.99684,0.99089,1,0,0.00000,5,0.00000,0.00000,0.00000,0.00000,
0,scrcap,1186,19.48438,2195514302187,0.33136,0.28893,19.17212,0.31226,43,1,0.35135,0.30602,1,0.33672,0.32520,0,,0.22867,0.38301,17.32924,0.97689,1,0.56584,0.39638,16.61905,0.97294,1,0,0.00000,5,0.00000,0.00000,0.00000,0.00000,
0,scrcap,1216,19.97705,2195515934577,0.33436,0.27454,19.50073,0.47632,44,1,0.35292,0.07066,1,0.33516,0.33496,0,,0.22885,0.37608,16.15205,0.97693,1,0.56399,0.38960,15.14371,0.98190,1,0,0.00000,5,0.00000,0.00000,0.00000,0.00000,
0,scrcap,1248,20.50293,2195517676782,0.35085,0.10444,20.04272,0.46021,45,1,0.34978,0.14761,1,0.35781,0.12793,0,,0.23110,0.37508,18.14267,0.94290,1,0.56725,0.38950,15.72172,0.94787,1,0,0.00000,5,0.00000,0.00000,0.00000,0.00000,
0,scrcap,1273,20.91357,2195519036803,0.37025,0.10770,20.51929,0.39429,46,1,0.40010,0.08494,1,0.35781,0.15918,0,,0.23281,0.37631,17.86373,0.96804,1,0.56914,0.38964,17.02527,0.96857,1,0,0.00000,5,0.00000,0.00000,0.00000,0.00000,
0,scrcap,1289,21.17651,2195519907776,0.45176,0.12787,20.92993,0.24658,47,1,0.46365,0.17130,1,0.35781,0.15918,0,,0.23325,0.37820,17.93251,0.96468,1,0.56968,0.39168,16.46453,0.96125,1,0,0.00000,5,0.00000,0.00000,0.00000,0.00000,
0,scrcap,1323,21.73486,2195521757922,0.48273,0.15500,21.19287,0.54199,48,1,0.48839,0.19714,1,0.36016,0.12988,0,,0.23285,0.38150,16.98035,0.97703,1,0.56911,0.39464,15.47074,0.97756,1,0,0.00000,5,0.00000,0.00000,0.00000,0.00000,
0,scrcap,1372,22.54004,2195524425037,0.48102,0.10390,21.75146,0.78857,49,1,0.46658,0.05388,1,0.36875,0.11523,0,,0.23686,0.37590,17.28121,0.97255,1,0.57373,0.39047,16.05684,0.97305,1,0,0.00000,4,0.00000,0.00000,0.00000,0.00000,
0,scrcap,1401,23.01685,2195526004437,0.47026,0.06816,22.55640,0.46045,50,1,0.45568,0.05614,1,0.47500,0.12402,0,,0.23705,0.37791,17.62111,0.94739,1,0.57392,0.39230,15.98438,0.94792,1,0,0.00000,4,0.00000,0.00000,0.00000,0.00000,
0,scrcap,1424,23.39429,2195527255434,0.47877,0.09118,23.03296,0.36133,51,1,0.50880,0.10955,1,0.47500,0.12402,0,,0.23749,0.37977,17.92020,0.95648,1,0.57504,0.39434,16.57276,0.96145,1,0,0.00000,4,0.00000,0.00000,0.00000,0.00000,
0,scrcap,1442,23.69019,2195528235085,0.48233,0.15729,23.41089,0.27930,52,1,0.45123,0.37189,1,0.47422,0.12793,0,,0.23553,0.38718,17.58436,0.95183,1,0.57190,0.40219,15.88332,0.95236,1,0,0.00000,4,0.00000,0.00000,0.00000,0.00000,
0,scrcap,1481,24.33081,2195530357890,0.57167,0.59684,23.75562,0.57520,53,1,0.61760,0.61114,1,0.36641,0.45117,0,,0.24023,0.40081,16.72979,0.95901,1,0.57766,0.41405,14.34130,0.95506,1,0,0.00000,4,0.00000,0.00000,0.00000,0.00000,
0,scrcap,1506,24.74121,2195531717603,0.59179,0.59800,24.34717,0.39404,54,1,0.53567,0.59075,1,0.36641,0.45117,0,,0.23614,0.39887,15.55000,0.98134,1,0.57351,0.41138,13.80656,0.97739,1,0,0.00000,4,0.00000,0.00000,0.00000,0.00000,
0,scrcap,1532,25.16895,2195533134445,0.56985,0.58508,24.75806,0.41089,55,1,0.60944,0.57895,1,0.63906,0.73828,0,,0.24026,0.39803,15.39273,0.97252,1,0.57743,0.41197,14.15990,0.97301,1,0,0.00000,4,0.00000,0.00000,0.00000,0.00000,
0,scrcap,1550,25.46533,2195534116360,0.65274,0.62624,25.18506,0.28027,56,1,0.74129,0.65687,1,0.59688,0.68945,0,,0.24436,0.40015,16.47924,0.94297,1,0.58077,0.41324,15.14215,0.94350,1,0,0.00000,4,0.00000,0.00000,0.00000,0.00000,
0,scrcap,1569,25.77637,2195535146811,0.74828,0.64972,25.48511,0.29126,57,1,0.77841,0.68945,1,0.59688,0.68945,0,,0.24427,0.40015,16.33262,0.95015,1,0.58158,0.41336,14.91260,0.94620,1,0,0.00000,4,0.00000,0.00000,0.00000,0.00000,
0,scrcap,1583,26.00635,2195535908898,0.76655,0.54267,25.79297,0.21338,58,1,0.66991,0.31338,1,0.59688,0.68945,0,,0.24187,0.38793,16.26634,0.96797,1,0.57759,0.40215,14.33438,0.96402,1,0,0.00000,4,0.00000,0.00000,0.00000,0.00000,
0,scrcap,1623,26.66357,2195538085629,0.67650,0.31273,26.07202,0.59155,59,1,0.74874,0.28625,1,0.59688,0.68945,0,,0.24719,0.38694,15.30802,0.97245,1,0.58336,0.40228,13.37750,0.97298,1,0,0.00000,4,0.00000,0.00000,0.00000,0.00000,
0,scrcap,1638,26.90991,2195538901770,0.80674,0.27775,26.67993,0.22998,60,1,0.84110,0.27610,1,0.59688,0.68945,0,,0.25099,0.38726,15.63912,0.96800,1,0.58605,0.40419,14.77554,0.96853,1,0,0.00000,4,0.00000,0.00000,0.00000,0.00000,
0,scrcap,1658,27.23877,2195539991055,0.82202,0.24995,26.92627,0.31250,61,1,0.76218,-0.21827,0,0.59688,0.68945,0,,0.25060,0.38838,13.51832,0.97241,0,0.58757,0.39372,8.18777,0.97291,0,265,0.00000,4,0.00000,0.00000,0.00000,0.00000,
0,scrcap,1690,27.76440,2195541732428,0.83829,0.27496,27.50146,0.26294,62,1,0.60349,0.27500,1,0.59688,0.68945,0,,0.24554,0.38706,16.07894,0.97693,1,0.58213,0.40250,15.42673,0.98190,1,0,0.00000,5,0.00000,0.00000,0.00000,0.00000,
0,scrcap,1711,28.10938,2195542875558,0.61281,0.30378,27.83008,0.27930,63,1,0.45356,0.41500,1,0.56641,0.68945,0,,0.24022,0.38874,16.23983,0.93849,1,0.57681,0.40431,15.26978,0.94346,1,0,0.00000,5,0.00000,0.00000,0.00000,0.00000,
0,scrcap,1754,28.81567,2195545215249,0.14368,0.61045,28.17505,0.64063,64,1,0.12457,0.66940,1,0.06797,0.62305,0,,0.21976,0.39993,17.67566,0.93679,1,0.55713,0.40963,17.02777,0.93728,1,0,0.00000,5,0.00000,0.00000,0.00000,0.00000,
0,scrcap,1779,29.22656,2195546576329,0.07777,0.62975,28.83203,0.39453,65,1,0.04120,0.66221,1,0.04922,0.66211,0,,0.22131,0.40065,18.55412,0.93552,1,0.55856,0.41242,18.17263,0.93602,1,0,0.00000,5,0.00000,0.00000,0.00000,0.00000,
0,scrcap,1806,29.66992,2195548045655,0.14734,0.61763,29.24292,0.42700,66,1,0.17542,0.64701,1,0.04219,0.67969,0,,0.22715,0.40022,17.46831,0.93847,1,0.56477,0.41382,17.20483,0.94344,1,0,0.00000,5,0.00000,0.00000,0.00000,0.00000,
0,scrcap,1824,29.96680,2195549028540,0.10848,0.62627,29.68628,0.28052,67,1,0.06597,0.63898,1,0.04219,0.67969,0,,0.22440,0.40132,16.97432,0.98787,1,0.56202,0.41514,17.10998,0.98392,1,0,0.00000,5,0.00000,0.00000,0.00000,0.00000,
0,scrcap,1840,30.22852,2195549896096,0.08850,0.66797,29.98242,0.24609,68,1,0.08219,0.69859,1,0.04219,0.67969,0,,0.22486,0.40545,17.66275,0.96814,1,0.56280,0.41807,17.33851,0.97312,1,0,0.00000,5,0.00000,0.00000,0.00000,0.00000,
0,scrcap,1881,30.90210,2195552127346,0.08817,0.67805,30.24512,0.65698,69,1,0.09716,0.65548,1,0.08359,0.66113,0,,0.22357,0.40430,17.72176,0.92512,1,0.56150,0.41551,16.34921,0.92561,1,0,0.00000,5,0.00000,0.00000,0.00000,0.00000,
0,scrcap,1901,31.23071,2195553215898,0.09525,0.62788,30.91870,0.31201,70,1,0.10147,0.59678,1,0.08359,0.66113,0,,0.22772,0.40412,17.61940,0.95022,1,0.56599,0.41761,17.23494,0.95072,1,0,0.00000,5,0.00000,0.00000,0.00000,0.00000,
0,scrcap,1985,32.61084,2195557788040,0.10202,0.61689,31.24707,1.36377,71,1,0.16845,0.61661,1,0.10000,0.62402,0,,0.22686,0.40538,18.98434,0.96356,1,0.56517,0.41776,17.41321,0.96405,1,0,0.00000,4,0.00000,0.00000,0.00000,0.00000,
0,scrcap,2034,33.41553,2195560454218,0.17857,0.60579,32.62720,0.78833,72,1,0.16410,0.56453,1,0.17344,0.62402,1,,0.23074,0.40572,16.97173,0.97248,1,0.56951,0.41900,16.11285,0.97298,1,0,0.00000,4,0.00000,0.00000,0.00000,0.00000,
0,scrcap,2058,33.81030,2195561761478,0.17982,0.59040,33.43213,0.37817,73,1,0.24744,0.59020,1,0.17344,0.62402,0,,0.23285,0.40717,16.80720,0.96811,1,0.57206,0.42023,16.61241,0.96864,1,0,0.00000,4,0.00000,0.00000,0.00000,0.00000,
0,scrcap,2087,34.28638,2195563338998,0.58271,0.63722,33.87573,0.41064,74,1,0.74972,0.64847,1,0.17344,0.62402,0,,0.24702,0.40845,15.22279,0.97801,1,0.58514,0.42262,14.04708,0.97459,1,0,0.00000,4,0.00000,0.00000,0.00000,0.00000,
0,scrcap,2112,34.69727,2195564700006,0.74696,0.64307,34.35205,0.34521,75,1,0.80145,0.63288,1,0.10938,0.65430,0,,0.24917,0.40902,13.75561,0.93679,1,0.58719,0.42354,13.48837,0.93728,1,0,0.00000,4,0.00000,0.00000,0.00000,0.00000,
0,scrcap,2134,35.05859,2195565897311,0.75337,0.62573,34.71362,0.34497,76,1,0.74797,0.64312,1,0.10938,0.65430,0,,0.24663,0.40938,14.52586,0.95015,1,0.58508,0.42443,13.82592,0.95513,1,0,0.00000,4,0.00000,0.00000,0.00000,0.00000,
0,scrcap,2163,35.53516,2195567475733,0.72665,0.63920,35.07495,0.46021,77,1,0.55995,0.56595,1,0.10938,0.65430,0,,0.23940,0.40683,14.42208,0.96513,1,0.57912,0.41995,12.32091,0.97011,1,0,0.00000,4,0.00000,0.00000,0.00000,0.00000,
0,scrcap,2203,36.19214,2195569652773,0.07211,0.62662,35.60083,0.59131,78,1,0.09040,0.63521,1,0.05625,0.70605,0,,0.22077,0.40683,16.49041,0.95180,1,0.55968,0.41850,15.33707,0.94785,1,0,0.00000,4,0.00000,0.00000,0.00000,0.00000,
0,scrcap,2219,36.45508,2195570523124,0.10589,0.56420,36.20850,0.24658,79,1,0.13602,0.50595,1,0.05000,0.70703,0,,0.21990,0.40426,17.22083,0.93399,1,0.55829,0.41550,15.96199,0.93448,1,0,0.00000,4,0.00000,0.00000,0.00000,0.00000,
0,scrcap,2243,36.84937,2195571830039,0.08874,0.52221,36.47144,0.37793,80,1,0.10633,0.59381,1,0.09531,0.65527,0,,0.22297,0.40805,17.59011,0.96804,1,0.56163,0.41905,16.74315,0.97301,1,0,0.00000,4,0.00000,0.00000,0.00000,0.00000,
0,scrcap,2258,37.09595,2195572646213,0.15000,0.57588,36.86572,0.23022,81,1,0.32329,0.58471,1,0.09531,0.65527,0,,0.22914,0.40766,16.91924,0.95022,1,0.56825,0.42046,16.47111,0.95072,1,0,0.00000,4,0.00000,0.00000,0.00000,0.00000,
0,scrcap,2284,37.52271,2195574060557,0.54657,0.60905,37.16162,0.36108,82,1,0.65883,0.64396,1,0.46094,0.68164,0,,0.24306,0.40981,16.81275,0.97682,1,0.58134,0.42328,15.32705,0.97735,1,0,0.00000,4,0.00000,0.00000,0.00000,0.00000,
0,scrcap,2305,37.86792,2195575203666,0.67505,0.59313,37.53931,0.32861,83,1,0.71166,0.63789,1,0.64609,0.70898,0,,0.24476,0.41035,15.39334,0.97682,1,0.58313,0.42468,14.14498,0.97735,1,0,0.00000,4,0.00000,0.00000,0.00000,0.00000,
0,scrcap,2346,38.54150,2195577435683,0.66169,0.62658,37.88403,0.65747,84,1,0.56850,0.58458,1,0.65000,0.70117,0,,0.24082,0.40969,15.01804,0.97248,1,0.57972,0.42387,13.63117,0.96853,1,0,0.00000,4,0.00000,0.00000,0.00000,0.00000,
0,scrcap,2364,38.83716,2195578414789,0.60288,0.59625,38.55786,0.27930,85,1,0.68757,0.62323,1,0.63047,0.69141,0,,0.24690,0.41098,15.31754,0.94738,1,0.58561,0.42497,14.46904,0.94791,1,0,0.00000,4,0.00000,0.00000,0.00000,0.00000,
0,scrcap,2401,39.44507,2195580428769,0.85463,0.60141,38.90283,0.54224,86,1,0.69492,0.60958,1,0.84922,0.66895,0,,0.24744,0.41065,14.54468,0.96366,1,0.58697,0.42419,14.27798,0.96416,1,0,0.00000,4,0.00000,0.00000,0.00000,0.00000,
0,scrcap,2419,39.74072,2195581408344,0.55497,0.60275,39.51074,0.22998,87,1,0.74539,0.65715,1,0.75078,0.68750,0,,0.24897,0.41304,16.60551,0.95460,1,0.58713,0.42573,14.87303,0.95957,1,0,0.00000,4,0.00000,0.00000,0.00000,0.00000,
0,scrcap,2449,40.23340,2195583040604,0.77361,0.64358,39.80640,0.42700,88,1,0.74671,0.68363,1,0.74844,0.71875,0,,0.24490,0.41189,16.15604,0.92503,1,0.58335,0.42467,14.95132,0.92552,1,0,0.00000,4,0.00000,0.00000,0.00000,0.00000,
0,scrcap,2503,41.12061,2195585979919,0.73502,0.66220,40.25000,0.87061,89,1,0.57884,0.59698,1,0.75313,0.69922,0,,0.24121,0.41108,15.37910,0.93839,1,0.58014,0.42435,14.39063,0.94337,1,0,0.00000,4,0.00000,0.00000,0.00000,0.00000,
0,scrcap,2521,41.41626,2195586959484,0.23405,0.57901,41.18652,0.22974,90,1,0.11909,0.58550,1,0.22266,0.67773,0,,0.22327,0.41038,15.03350,0.95470,1,0.56173,0.42231,14.68141,0.95968,1,0,0.00000,4,0.00000,0.00000,0.00000,0.00000,
0,scrcap,2551,41.90942,2195588592554,0.10829,0.59094,41.43286,0.47656,91,1,0.15303,0.48090,1,0.11016,0.64551,0,,0.22350,0.40542,17.21794,0.92951,1,0.56165,0.41651,16.36670,0.93448,1,0,0.00000,4,0.00000,0.00000,0.00000,0.00000,
0,scrcap,2568,42.18872,2195589517991,0.19172,0.49376,41.92578,0.26294,92,1,0.50268,0.56998,1,0.12500,0.53320,0,,0.23805,0.40880,16.93802,0.94882,1,0.57580,0.42049,15.28846,0.94487,1,0,0.00000,4,0.00000,0.00000,0.00000,0.00000,
0,scrcap,2596,42.64844,2195591041487,0.58821,0.58675,42.25439,0.39404,93,1,0.51539,0.56901,1,0.53047,0.65332,0,,0.24069,0.40941,16.44630,0.97245,1,0.57918,0.42234,14.68484,0.96850,1,0,0.00000,4,0.00000,0.00000,0.00000,0.00000,
0,scrcap,2614,42.94434,2195592021316,0.56314,0.57845,42.66504,0.27930,94,1,0.75911,0.64033,1,0.52891,0.64746,0,,0.24686,0.41327,16.86942,0.95022,1,0.58412,0.42540,14.59659,0.95072,1,0,0.00000,4,0.00000,0.00000,0.00000,0.00000,
0,scrcap,2647,43.48633,2195593817040,0.74793,0.65664,43.01001,0.47632,95,1,0.69112,0.71467,1,0.33359,0.65527,0,,0.23973,0.40870,16.80188,0.92951,1,0.57754,0.41978,14.84715,0.93448,1,0,0.00000,4,0.00000,0.00000,0.00000,0.00000,
0,scrcap,2685,44.11060,2195595885190,0.39149,0.62349,43.60156,0.50903,96,1,0.35148,0.63970,1,0.22187,0.73535,0,,0.21435,0.40697,15.55534,0.95467,1,0.55412,0.41257,14.28172,0.95964,1,0,0.00000,4,0.00000,0.00000,0.00000,0.00000,
0,scrcap,2718,44.65308,2195597682037,0.35001,0.70708,44.12720,0.52588,97,1,0.35451,0.67895,1,0.37031,0.76270,0,,0.17875,0.40981,16.45314,0.99922,1,0.51805,0.40794,15.78556,0.99527,1,0,0.00000,4,0.00000,0.00000,0.00000,0.00000,
0,scrcap,2741,45.04712,2195598987579,0.34388,0.67408,44.66919,0.37793,98,1,0.18643,0.51090,1,0.37031,0.76270,0,,0.16388,0.40428,17.65061,0.95624,1,0.50221,0.39938,16.60951,0.95282,1,0,0.00000,4,0.00000,0.00000,0.00000,0.00000,
0,scrcap,2762,45.39233,2195600130868,0.22731,0.51307,45.11304,0.27930,99,1,0.36092,0.49397,1,0.37031,0.76270,0,,0.15813,0.40528,16.00730,0.96089,1,0.49582,0.39536,15.46182,0.96142,1,0,0.00000,4,0.00000,0.00000,0.00000,0.00000,
0,scrcap,2795,45.93433,2195601926359,0.36620,0.68553,45.50708,0.42725,100,1,0.33914,0.64959,1,0.35547,0.74512,0,,0.14148,0.42209,17.65557,0.95911,1,0.47996,0.40667,16.69849,0.95964,1,0,0.00000,4,0.00000,0.00000,0.00000,0.00000,
0,scrcap,2809,46.16431,2195602688485,0.23343,0.63015,45.95068,0.21362,101,1,0.14779,0.60657,1,0.31406,0.78125,3,,0.13355,0.42120,17.21946,0.93061,1,0.47128,0.40461,17.08796,0.93111,1,0,0.00000,4,0.00000,0.00000,0.00000,0.00000,
0,scrcap,2849,46.82153,2195604866280,0.18561,0.61103,46.18066,0.64087,102,1,0.16868,0.61582,1,0.16172,0.64551,0,,0.11695,0.42784,16.98626,0.97850,1,0.45327,0.40909,16.73523,0.97063,1,0,0.00000,4,0.00000,0.00000,0.00000,0.00000,
0,scrcap,2909,47.80713,2195608131372,0.26797,0.72866,47.13354,0.67358,103,1,0.23897,0.68431,1,0.23125,0.76953,0,,0.12477,0.43045,16.71002,0.96137,1,0.46188,0.41426,16.47151,0.94837,1,0,0.00000,4,0.00000,0.00000,0.00000,0.00000,
0,scrcap,2944,48.38281,2195610038356,0.16559,0.61868,47.87329,0.50952,104,1,0.19221,0.66362,1,0.16250,0.62988,0,,0.12529,0.42373,17.08394,0.89768,1,0.46232,0.40691,16.40380,0.89425,1,0,0.00000,4,0.00000,0.00000,0.00000,0.00000,
0,scrcap,2970,48.80933,2195611451406,0.14777,0.58223,48.39868,0.41064,105,1,0.11907,0.53959,1,0.15625,0.63086,0,,0.12637,0.42071,16.99974,0.94284,1,0.46314,0.40579,15.92288,0.94337,1,0,0.00000,4,0.00000,0.00000,0.00000,0.00000,
0,scrcap,3000,49.30200,2195613083638,0.12556,0.62268,48.82568,0.47632,106,1,0.21719,0.77208,1,0.10547,0.65527,0,,0.12457,0.43107,18.42799,0.94441,1,0.46075,0.41437,17.42355,0.94494,1,0,0.00000,4,0.00000,0.00000,0.00000,0.00000,
0,scrcap,3037,49.90991,2195615097404,0.15266,0.76543,49.36768,0.54224,107,1,0.20692,0.81222,1,0.17188,0.82324,0,,0.13046,0.43140,16.80607,0.95677,1,0.46788,0.41758,17.01940,0.94890,1,0,0.00000,4,0.00000,0.00000,0.00000,0.00000,
0,scrcap,3064,50.35352,2195616566840,0.23825,0.79762,49.92651,0.42700,108,1,0.27673,0.76430,1,0.17188,0.82324,0,,0.13875,0.43163,17.23722,0.96804,1,0.47651,0.41982,17.70527,0.97301,1,0,0.00000,4,0.00000,0.00000,0.00000,0.00000,
0,scrcap,3080,50.61646,2195617437964,0.27382,0.73540,50.36987,0.24658,109,1,0.13466,0.53060,1,0.17188,0.82324,0,,0.13546,0.42111,17.93331,0.94725,1,0.47162,0.40780,16.90842,0.94778,1,0,0.00000,4,0.00000,0.00000,0.00000,0.00000,
0,scrcap,3099,50.92847,2195618471443,0.16548,0.44341,50.68213,0.24634,110,1,0.13752,0.36440,1,0.17188,0.82324,0,,0.13735,0.41651,17.31809,0.96793,1,0.47390,0.40581,16.77814,0.96846,1,0,0.00000,4,0.00000,0.00000,0.00000,0.00000,
0,scrcap,3127,51.38843,2195619995710,0.17710,0.34683,50.94482,0.44360,111,1,0.15284,0.27396,1,0.18828,0.44434,0,,0.13692,0.41413,16.94182,0.95012,1,0.47389,0.40262,16.29365,0.95061,1,0,0.00000,4,0.00000,0.00000,0.00000,0.00000,
0,scrcap,3155,51.84888,2195621520315,0.17964,0.31388,51.40503,0.44385,112,1,0.20325,0.33192,1,0.11016,0.34863,0,,0.14007,0.40954,17.36613,0.93455,1,0.47694,0.39728,15.93666,0.93504,1,0,0.00000,4,0.00000,0.00000,0.00000,0.00000,
0,scrcap,3170,52.09497,2195622335891,0.10022,0.31167,51.86499,0.22998,113,1,0.05964,0.34488,1,0.11094,0.34863,0,,0.12895,0.38226,18.33801,0.94066,1,0.46245,0.36289,17.10123,0.94119,1,0,0.00000,4,0.00000,0.00000,0.00000,0.00000,
0,scrcap,3188,52.39087,2195623316111,0.10533,0.30642,52.11157,0.27930,114,1,0.18321,0.30943,1,0.11094,0.34863,0,,0.13376,0.37401,18.87951,0.99539,1,0.46526,0.35164,17.90731,0.99592,1,0,0.00000,3,0.00000,0.00000,0.00000,0.00000,
0,scrcap,3201,52.60425,2195624023129,0.21728,0.52570,52.40723,0.19702,115,1,0.24317,0.73758,1,0.11094,0.34863,0,,0.14184,0.39028,17.12496,0.97374,1,0.47310,0.36959,17.52522,0.97427,1,0,0.00000,3,0.00000,0.00000,0.00000,0.00000,
0,scrcap,3219,52.89990,2195625002628,0.32831,0.73995,52.67017,0.22974,116,1,0.38471,0.71070,1,0.41641,0.68945,0,,0.15101,0.40235,17.37963,0.95012,1,0.48601,0.38753,17.67196,0.95061,1,0,0.00000,3,0.00000,0.00000,0.00000,0.00000,
0,scrcap,3257,53.52441,2195627071223,0.41128,0.70203,52.91699,0.60742,117,1,0.34668,0.64525,1,0.40234,0.77148,0,,0.15940,0.40393,17.79269,0.96800,1,0.49533,0.39228,16.10371,0.97298,1,0,0.00000,3,0.00000,0.00000,0.00000,0.00000,
0,scrcap,3294,54.13208,2195629084988,0.14826,0.34646,53.59082,0.54126,118,1,0.16380,0.32006,1,0.33906,0.70410,0,,0.13779,0.39548,17.55074,0.94567,1,0.47148,0.37715,16.60555,0.94617,1,0,0.00000,3,0.00000,0.00000,0.00000,0.00000,
0,scrcap,3311,54.41138,2195630009627,0.11955,0.32404,54.14868,0.26270,119,1,0.07071,0.31106,1,0.22813,0.53223,0,,0.13491,0.39873,17.54457,0.95189,1,0.46895,0.38126,17.31274,0.95686,1,0,0.00000,3,0.00000,0.00000,0.00000,0.00000,
0,scrcap,3330,54.72363,2195631044054,0.10044,0.26575,54.42773,0.29590,120,1,0.12414,0.20770,1,0.11563,0.41992,0,,0.14378,0.39253,18.95407,0.96069,1,0.47759,0.37591,17.42287,0.95674,1,0,0.00000,3,0.00000,0.00000,0.00000,0.00000,
0,scrcap,3352,55.08521,2195632241931,0.15061,0.30442,54.74023,0.34497,121,1,0.16686,0.31504,1,0.16406,0.33008,0,,0.14733,0.39582,18.85119,0.98148,1,0.48120,0.37919,18.64219,0.98645,1,0,0.00000,3,0.00000,0.00000,0.00000,0.00000,
0,scrcap,3365,55.29858,2195632949216,0.20971,0.16765,55.10132,0.19727,122,1,0.26999,0.04741,1,0.16406,0.33008,0,,0.15183,0.38814,20.46056,0.96800,1,0.48504,0.37201,18.69180,0.96853,1,0,0.00000,3,0.00000,0.00000,0.00000,0.00000,
0,scrcap,3389,55.69287,2195634255175,0.28011,0.07247,55.31494,0.37793,123,1,0.30195,0.07341,1,0.16406,0.33008,0,,0.16055,0.38671,19.01785,0.94127,1,0.49361,0.37084,16.91986,0.94624,1,0,0.00000,3,0.00000,0.00000,0.00000,0.00000,
0,scrcap,3422,56.23511,2195636051345,0.30414,0.07730,55.70947,0.52563,124,1,0.21469,0.22835,1,0.16719,0.32129,0,,0.16182,0.38857,18.91678,0.94728,1,0.49464,0.37603,18.41109,0.94333,1,0,0.00000,3,0.00000,0.00000,0.00000,0.00000,
0,scrcap,3444,56.59741,2195637251590,0.14777,0.32280,56.30103,0.29639,125,1,0.05294,0.29964,1,0.16719,0.36816,3,,0.15578,0.39171,18.61779,0.97693,1,0.48903,0.37857,19.25926,0.98190,1,0,0.00000,3,0.00000,0.00000,0.00000,0.00000,
0,scrcap,3461,56.87573,2195638173755,0.10631,0.31705,56.61304,0.26270,126,1,0.19384,0.29691,1,0.16719,0.33105,0,,0.15959,0.39201,18.23368,0.96800,1,0.49355,0.37891,17.72472,0.97298,1,0,0.00000,3,0.00000,0.00000,0.00000,0.00000,
0,scrcap,3487,57.30298,2195639589371,0.18753,0.28278,56.89209,0.41089,127,1,0.31023,0.02644,1,0.16875,0.32617,0,,0.16388,0.38318,18.39027,1.00370,1,0.49654,0.37111,17.42474,1.00423,1,0,0.00000,2,0.00000,0.00000,0.00000,0.00000,
0,scrcap,3510,57.68066,2195640840707,0.34914,0.08554,57.36890,0.31177,128,1,0.37331,0.10261,1,0.38047,0.07129,0,,0.18040,0.37674,18.83912,0.93455,1,0.51413,0.36692,17.80918,0.93112,1,0,0.00000,2,0.00000,0.00000,0.00000,0.00000,
0,scrcap,3551,58.35449,2195643072606,0.35957,0.09738,57.69727,0.65723,129,1,0.35015,0.12556,1,0.34766,0.16211,0,,0.18072,0.37775,19.73500,0.97406,1,0.51422,0.36814,18.64466,0.97459,1,0,0.00000,2,0.00000,0.00000,0.00000,0.00000,
0,scrcap,3578,58.79785,2195644541341,0.36577,0.12257,58.37109,0.42676,130,1,0.46796,0.10413,1,0.35469,0.11523,0,,0.18306,0.37676,18.22108,0.98137,1,0.51690,0.36825,18.48053,0.98634,1,0,0.00000,2,0.00000,0.00000,0.00000,0.00000,
0,scrcap,3611,59.34009,2195646337701,0.45926,0.09607,58.81421,0.52588,131,1,0.47866,0.05556,1,0.45234,0.12500,0,,0.18482,0.37822,17.66038,0.99026,1,0.51926,0.37076,17.80778,0.99079,1,0,0.00000,2,0.00000,0.00000,0.00000,0.00000,
0,scrcap,3618,59.45508,2195646718630,0.53419,0.20806,59.35669,0.09839,132,1,0.61748,0.44907,1,0.45234,0.12500,0,,0.18962,0.38955,17.66339,0.98578,1,0.52312,0.38169,16.56377,0.98183,1,0,0.00000,2,0.00000,0.00000,0.00000,0.00000,
0,scrcap,3636,59.75073,2195647698550,0.57693,0.55018,59.52075,0.22998,133,1,0.30450,0.75804,1,0.45234,0.12598,0,,0.18122,0.40344,16.73858,0.97693,1,0.51456,0.39676,17.61436,0.98190,1,0,0.00000,2,0.00000,0.00000,0.00000,0.00000,
0,scrcap,3654,60.04663,2195648678205,0.19013,0.80221,59.81641,0.23022,134,1,0.11082,0.79720,1,0.39297,0.53516,0,,0.17815,0.40569,16.32314,0.95460,1,0.51264,0.39980,16.60289,0.95513,1,0,0.00000,2,0.00000,0.00000,0.00000,0.00000,
0,scrcap,3685,60.55566,2195650364653,0.09767,0.79862,60.06299,0.49268,135,1,0.28484,0.79280,1,0.39219,0.53320,0,,0.16961,0.40821,15.71317,0.95908,1,0.50453,0.39849,16.22143,0.96405,1,0,0.00000,2,0.00000,0.00000,0.00000,0.00000,
0,scrcap,3714,61.03223,2195651943440,0.28402,0.75131,60.62134,0.41089,136,1,0.32106,0.74491,1,0.32266,0.81348,0,,0.17561,0.40725,16.92130,0.97700,1,0.51046,0.39744,16.36917,0.97305,1,0,0.00000,2,0.00000,0.00000,0.00000,0.00000,
0,scrcap,3745,61.54126,2195653630369,0.31985,0.78567,61.04858,0.49268,137,1,0.20553,0.67217,1,0.33047,0.86816,0,,0.17505,0.40337,17.25189,0.94734,1,0.50957,0.39460,17.28760,0.94339,1,0,0.00000,2,0.00000,0.00000,0.00000,0.00000,
0,scrcap,3771,61.96851,2195655045807,0.11928,0.45851,61.60718,0.36133,138,1,0.14734,0.58239,1,0.33047,0.86816,0,,0.16491,0.40606,17.62436,0.97682,1,0.49908,0.39480,17.42783,0.97735,1,0,0.00000,2,0.00000,0.00000,0.00000,0.00000,
0,scrcap,3787,62.23145,2195655916340,0.16419,0.49050,61.98511,0.24634,139,1,0.16338,0.34945,1,0.33047,0.86816,0,,0.15863,0.39917,19.31269,0.93679,1,0.49258,0.38589,18.91719,0.93728,1,0,0.00000,2,0.00000,0.00000,0.00000,0.00000,
0,scrcap,3806,62.54370,2195656950586,0.21629,0.37342,62.29712,0.24658,140,1,0.23185,0.39773,1,0.33047,0.86816,0,,0.15668,0.40055,18.10857,0.90555,1,0.49153,0.38732,18.01955,0.90601,1,0,0.00000,2,0.00000,0.00000,0.00000,0.00000,
0,scrcap,3823,62.82275,2195657875749,0.25879,0.33867,62.56006,0.26270,141,1,0.58919,0.32572,1,0.32031,0.86328,0,,0.17068,0.39720,15.70696,0.93061,1,0.50549,0.38557,14.22689,0.92719,1,0,0.00000,2,0.00000,0.00000,0.00000,0.00000,
0,scrcap,3857,63.38159,2195659726720,0.68792,0.30978,62.88867,0.49292,142,1,0.75292,0.29488,1,0.32031,0.86328,0,,0.22560,0.38770,16.41677,0.97742,1,0.56287,0.39203,15.48720,0.97399,1,0,0.00000,2,0.00000,0.00000,0.00000,0.00000,
0,scrcap,3881,63.77563,2195661032423,0.82875,0.31979,63.44727,0.32837,143,1,0.65150,0.30736,1,0.32031,0.86328,0,,0.22911,0.38953,17.00340,0.95075,1,0.56633,0.39641,16.30712,0.95572,1,0,0.00000,2,0.00000,0.00000,0.00000,0.00000,
0,scrcap,3915,64.33423,2195662882970,0.64355,0.31841,63.84155,0.49268,144,1,0.67960,0.30186,1,0.32031,0.86328,0,,0.23079,0.39108,17.73712,0.97693,1,0.56852,0.40007,16.67485,0.98190,1,0,0.00000,2,0.00000,0.00000,0.00000,0.00000,
0,scrcap,3940,64.74512,2195664243609,0.65290,0.34144,64.35083,0.39429,145,1,0.33112,0.29927,1,0.32031,0.86328,0,,0.22361,0.38972,15.65245,0.95908,1,0.56151,0.39865,16.48168,0.95957,1,0,0.00000,2,0.00000,0.00000,0.00000,0.00000,
0,scrcap,3984,65.46777,2195666637917,0.18330,0.29829,64.81079,0.65698,146,1,0.25440,0.11509,1,0.32031,0.86328,0,,0.20413,0.38727,17.82853,0.96069,1,0.54092,0.39069,16.13357,0.96118,1,0,0.00000,2,0.00000,0.00000,0.00000,0.00000,
0,scrcap,4008,65.86230,2195667944829,0.25853,0.08875,65.53369,0.32861,147,1,0.25966,0.02181,1,0.32031,0.86328,0,,0.17886,0.38266,18.39358,0.98137,1,0.51530,0.37629,16.56765,0.98190,1,0,0.00000,2,0.00000,0.00000,0.00000,0.00000,
0,scrcap,4043,66.43701,2195669849208,0.32520,0.08273,65.87866,0.55835,148,1,0.33329,0.05266,1,0.33437,0.07617,0,,0.16771,0.37543,19.73045,0.98148,1,0.50265,0.36653,17.57180,0.97805,1,0,0.00000,2,0.00000,0.00000,0.00000,0.00000,
0,scrcap,4061,66.73291,2195670828891,0.34281,0.10400,66.45337,0.27954,149,1,0.32005,0.16046,1,0.33516,0.07813,0,,0.17528,0.37774,20.11213,0.95614,1,0.51058,0.37008,18.16749,0.95663,1,0,0.00000,2,0.00000,0.00000,0.00000,0.00000,
0,scrcap,4089,67.19312,2195672353385,0.32291,0.16041,66.74927,0.44385,150,1,0.30719,0.20928,1,0.34219,0.16602,0,,0.18194,0.37950,18.40567,0.98137,1,0.51815,0.37380,17.45076,0.98190,1,0,0.00000,2,0.00000,0.00000,0.00000,0.00000,
0,scrcap,4105,67.45581,2195673223758,0.33763,0.14111,67.20947,0.24634,151,1,0.37295,0.09567,1,0.34844,0.12500,0,,0.18798,0.37445,18.58282,0.96013,1,0.52337,0.37115,17.58192,0.95226,1,0,0.00000,2,0.00000,0.00000,0.00000,0.00000,
0,scrcap,4122,67.73511,2195674149390,0.35399,0.07330,67.47217,0.26294,152,1,0.37369,0.04880,1,0.34844,0.12305,0,,0.18982,0.37608,18.65018,1.00370,1,0.52512,0.37175,16.98977,1.00423,1,0,0.00000,2,0.00000,0.00000,0.00000,0.00000,
0,scrcap,4155,68.27734,2195675945259,0.40364,0.09018,67.75122,0.52612,153,1,0.44044,0.14760,1,0.34844,0.12305,0,,0.19846,0.37855,19.01107,0.95974,1,0.53507,0.37771,18.06210,0.95632,1,0,0.00000,2,0.00000,0.00000,0.00000,0.00000,
0,scrcap,4195,68.93408,2195678121674,0.46719,0.15686,68.29346,0.64063,154,1,0.35753,0.29427,1,0.43906,0.12402,0,,0.19706,0.38581,17.03269,0.94239,1,0.53336,0.38440,16.67774,0.93896,1,0,0.00000,2,0.00000,0.00000,0.00000,0.00000,
0,scrcap,4211,69.19727,2195678992911,0.31455,0.56032,69.00000,0.19727,155,1,0.29416,0.70018,1,0.35781,0.34570,0,,0.19420,0.40665,16.89871,0.98589,1,0.53120,0.40545,17.61153,0.98194,1,0,0.00000,2,0.00000,0.00000,0.00000,0.00000,
0,scrcap,4240,69.67358,2195680570931,0.32560,0.76103,69.26270,0.41089,156,1,0.37298,0.75891,1,0.28594,0.76660,0,,0.18603,0.41401,16.32968,0.95022,1,0.52374,0.40980,16.23526,0.95072,1,0,0.00000,2,0.00000,0.00000,0.00000,0.00000,
0,scrcap,4261,70.01880,2195681714515,0.32760,0.75933,69.69092,0.32788,157,1,0.29695,0.77620,1,0.32813,0.82813,0,,0.19059,0.41386,15.62334,0.95908,1,0.52864,0.41189,16.07607,0.96405,1,0,0.00000,2,0.00000,0.00000,0.00000,0.00000,
0,scrcap,4289,70.47852,2195683237782,0.29160,0.81334,70.03491,0.44360,158,1,0.29660,0.90488,1,0.32813,0.82813,0,,0.19307,0.41897,17.47104,0.96800,1,0.53135,0.41656,17.03389,0.96850,1,0,0.00000,2,0.00000,0.00000,0.00000,0.00000,
0,scrcap,4324,71.05347,2195685142818,0.27961,0.83047,70.49512,0.55835,159,1,0.32947,0.84984,1,0.32891,0.88770,0,,0.19466,0.42061,16.53324,0.94574,1,0.53336,0.41886,15.79707,0.95072,1,0,0.00000,2,0.00000,0.00000,0.00000,0.00000,
0,scrcap,4369,71.79297,2195687591980,0.29526,0.83004,71.07007,0.72290,160,1,0.30967,0.75401,1,0.32734,0.90625,0,,0.19956,0.41773,17.56395,0.95901,1,0.53826,0.41750,16.72300,0.95506,1,0,0.00000,2,0.00000,0.00000,0.00000,0.00000,
0,scrcap,4393,72.18726,2195688898400,0.31889,0.71623,71.80933,0.37793,161,1,0.31246,0.75874,1,0.34141,0.86816,0,,0.19975,0.42056,16.92349,0.98137,1,0.53846,0.42042,16.21513,0.98634,1,0,0.00000,2,0.00000,0.00000,0.00000,0.00000,
0,scrcap,4407,72.41699,2195689659834,0.19136,0.74765,72.20361,0.21338,162,1,0.07582,0.62819,1,0.34453,0.86426,0,,0.19141,0.41378,18.01164,0.95012,1,0.52933,0.41346,17.29632,0.94617,1,0,0.00000,2,0.00000,0.00000,0.00000,0.00000,
0,scrcap,4426,72.72925,2195690694066,0.13255,0.39258,72.48291,0.24634,163,1,0.16179,0.33390,1,0.34453,0.86426,0,,0.19443,0.39871,18.01677,0.95572,1,0.53219,0.39850,17.87096,0.95229,1,0,0.00000,2,0.00000,0.00000,0.00000,0.00000,
0,scrcap,4461,73.30444,2195692599390,0.17094,0.29809,72.74585,0.55859,164,1,0.16397,0.25540,1,0.34453,0.86426,0,,0.19357,0.39699,15.70393,0.96793,1,0.53186,0.39577,14.58922,0.96846,1,0,0.00000,2,0.00000,0.00000,0.00000,0.00000,
0,scrcap,4476,73.55078,2195693415839,0.19102,0.21233,73.32080,0.22998,165,1,0.23417,0.04433,1,0.34453,0.86426,0,,0.18992,0.39328,16.97791,0.96804,1,0.52752,0.39174,15.52818,0.96857,1,0,0.00000,2,0.00000,0.00000,0.00000,0.00000,
0,scrcap,4495,73.86304,2195694449871,0.21446,0.14181,73.56714,0.29590,166,1,0.17551,0.36153,1,0.34453,0.86426,0,,0.18772,0.40047,17.39451,0.93968,1,0.52491,0.39714,16.36808,0.93625,1,0,0.00000,2,0.00000,0.00000,0.00000,0.00000,
0,scrcap,4516,74.20801,2195695592671,0.18237,0.26254,73.92847,0.27954,167,1,0.33767,-0.46958,0,0.21250,0.55469,0,,0.18689,0.39885,15.67766,0.95918,0,0.52288,0.39143,16.99244,0.96416,0,267,0.00000,2,0.00000,0.00000,0.00000,0.00000,
0,scrcap,4623,75.96558,2195701415844,0.18519,0.29600,75.06226,0.90332,168,1,0.26466,0.12696,1,0.25078,0.59180,0,,0.20615,0.36678,16.99842,0.96359,1,0.53841,0.36467,15.42914,0.96857,1,0,0.00000,3,0.00000,0.00000,0.00000,0.00000,
0,scrcap,4653,76.45850,2195703048244,0.33828,0.05867,76.03149,0.42700,169,1,0.35892,0.07228,1,0.27109,0.13379,0,,0.21222,0.35598,17.78394,0.98578,1,0.54499,0.35253,16.40764,0.98183,1,0,0.00000,3,0.00000,0.00000,0.00000,0.00000,
0,scrcap,4689,77.05005,2195705007918,0.33351,0.08473,76.47510,0.57495,170,1,0.34727,0.11103,1,0.30156,0.07129,0,,0.22156,0.36813,19.85162,0.99026,1,0.55385,0.36837,18.74318,0.99079,1,0,0.00000,3,0.00000,0.00000,0.00000,0.00000,
0,scrcap,4719,77.54297,2195706640866,0.34083,0.17850,77.06641,0.47656,171,1,0.31741,0.28842,1,0.30859,0.09668,0,,0.22048,0.37351,18.61475,0.96366,1,0.55281,0.37329,18.13885,0.96416,1,0,0.00000,3,0.00000,0.00000,0.00000,0.00000,
0,scrcap,4740,77.88794,2195707783799,0.34355,0.28134,77.60840,0.27954,172,1,0.32777,0.13112,1,0.33203,0.23340,0,,0.22152,0.36883,19.28366,0.96537,1,0.55323,0.36967,17.75663,0.97423,1,0,0.00000,3,0.00000,0.00000,0.00000,0.00000,
0,scrcap,4770,78.38062,2195709416453,0.37110,0.09059,77.95337,0.42725,173,1,0.39762,0.10732,1,0.34141,0.12305,0,,0.22136,0.37000,18.49087,0.96506,1,0.55462,0.37049,16.92239,0.96559,1,0,0.00000,3,0.00000,0.00000,0.00000,0.00000,
0,scrcap,4783,78.59424,2195710123709,0.24480,0.21304,78.39722,0.19702,174,1,0.20042,0.30826,1,0.34141,0.12305,0,,0.21586,0.37744,18.56842,0.95463,1,0.54906,0.37716,17.41907,0.95068,1,0,0.00000,3,0.00000,0.00000,0.00000,0.00000,
0,scrcap,4865,79.94141,2195714586809,0.19191,0.34208,78.61084,1.33057,175,1,0.19956,0.30151,1,0.16250,0.33301,0,,0.20999,0.38616,17.99523,0.96793,1,0.54499,0.38559,17.15917,0.96843,1,0,0.00000,3,0.00000,0.00000,0.00000,0.00000,
0,scrcap,4887,80.30298,2195715784404,0.19898,0.33838,79.95776,0.34521,176,1,0.28473,0.14129,1,0.16328,0.34375,0,,0.21510,0.38169,18.14059,0.97693,1,0.54934,0.38029,17.10697,0.98190,1,0,0.00000,3,0.00000,0.00000,0.00000,0.00000,
0,scrcap,4923,80.89453,2195717744622,0.32767,0.04358,80.36865,0.52588,177,1,0.33823,0.02906,1,0.34297,0.08008,0,,0.21621,0.37861,18.90703,0.99922,1,0.54951,0.37606,16.89690,0.99527,1,0,0.00000,3,0.00000,0.00000,0.00000,0.00000,
0,scrcap,4954,81.40356,2195719431040,0.35430,0.06944,80.91089,0.49268,178,1,0.32569,0.12495,1,0.34375,0.10059,0,,0.21229,0.38104,18.83394,0.97252,1,0.54670,0.37801,17.51094,0.97301,1,0,0.00000,3,0.00000,0.00000,0.00000,0.00000,
0,scrcap,4978,81.79785,2195720736976,0.35925,0.07382,81.41992,0.37793,179,1,0.38017,0.04425,1,0.34688,0.12012,0,,0.21620,0.38034,18.24536,1.00370,1,0.55051,0.37779,17.31960,1.00423,1,0,0.00000,3,0.00000,0.00000,0.00000,0.00000,
0,scrcap,4993,82.04590,2195721558968,0.42389,0.15897,81.81445,0.23145,180,1,0.45528,0.24645,1,0.34688,0.12012,0,,0.21925,0.38287,18.15090,0.96170,1,0.55415,0.38087,17.37115,0.95383,1,0,0.00000,3,0.00000,0.00000,0.00000,0.00000,
0,scrcap,5021,82.50415,2195723076918,0.46723,0.19086,82.06055,0.44360,181,1,0.47098,0.08969,1,0.47109,0.17578,0,,0.22185,0.37955,16.80140,0.96058,1,0.55616,0.37810,16.02945,0.96111,1,0,0.00000,3,0.00000,0.00000,0.00000,0.00000,
0,scrcap,5065,83.22705,2195725471745,0.47987,0.07787,82.52075,0.70630,182,1,0.50931,0.21624,1,0.47109,0.12305,0,,0.21799,0.38542,18.01257,0.97794,1,0.55218,0.38353,16.99582,0.97399,1,0,0.00000,3,0.00000,0.00000,0.00000,0.00000,
0,scrcap,5084,83.53931,2195726505986,0.46307,0.29760,83.29272,0.24658,183,1,0.32097,0.57905,1,0.47031,0.12793,0,,0.20986,0.40100,17.52153,0.97248,1,0.54337,0.39721,17.20127,0.97301,1,0,0.00000,3,0.00000,0.00000,0.00000,0.00000,
0,scrcap,5103,83.85132,2195727539647,0.22632,0.73577,83.60522,0.24609,184,1,0.22487,0.77892,1,0.22344,0.73535,0,,0.20931,0.40833,16.06976,0.97693,1,0.54411,0.40619,16.13635,0.97746,1,0,0.00000,3,0.00000,0.00000,0.00000,0.00000,
0,scrcap,5118,84.09790,2195728356276,0.12394,0.76398,83.86792,0.22998,185,1,0.08303,0.80167,1,0.22266,0.73535,0,,0.20457,0.40857,17.02110,0.95509,1,0.53923,0.40564,16.74492,0.94722,1,0,0.00000,3,0.00000,0.00000,0.00000,0.00000,
0,scrcap,5136,84.39355,2195729336133,0.13664,0.78048,84.11426,0.27930,186,1,0.26345,0.76445,1,0.29375,0.82031,0,,0.21671,0.40982,15.85910,0.97689,1,0.55191,0.40847,15.76965,0.97294,1,0,0.00000,3,0.00000,0.00000,0.00000,0.00000,
0,scrcap,5166,84.88647,2195730968844,0.28606,0.77605,84.45923,0.42725,187,1,0.27136,0.83196,1,0.30391,0.87012,0,,0.21634,0.41299,16.02184,0.95901,1,0.55226,0.41136,15.67680,0.95950,1,0,0.00000,3,0.00000,0.00000,0.00000,0.00000,
0,scrcap,5226,85.87207,2195734234479,0.29186,0.84419,84.90308,0.96899,188,1,0.35219,0.79631,1,0.31563,0.90820,0,,0.21791,0.41378,15.96646,0.96359,1,0.55480,0.41194,15.39687,0.96857,1,0,0.00000,3,0.00000,0.00000,0.00000,0.00000,
0,scrcap,5261,86.44702,2195736139218,0.68170,0.28757,85.98706,0.45996,189,1,0.70886,0.31347,1,0.58359,0.58984,0,,0.24839,0.37953,15.36473,0.95617,1,0.58309,0.38427,14.77546,0.96115,1,0,0.00000,3,0.00000,0.00000,0.00000,0.00000,
0,scrcap,5277,86.70996,2195737009803,0.77892,0.30354,86.46362,0.24634,190,1,0.82620,0.34520,1,0.59531,0.55371,0,,0.25766,0.37807,15.89720,0.93601,1,0.59275,0.38444,14.87252,0.92814,1,0,0.00000,3,0.00000,0.00000,0.00000,0.00000,
0,scrcap,5304,87.15356,2195738479324,0.77782,0.29947,86.72632,0.42725,191,1,0.73959,0.26700,1,0.74453,0.38281,0,,0.25460,0.37630,16.19022,0.97245,1,0.58972,0.38204,15.75342,0.97294,1,0,0.00000,3,0.00000,0.00000,0.00000,0.00000,
0,scrcap,5338,87.71216,2195740330249,0.68791,0.26535,87.16992,0.54224,192,1,0.64272,0.24121,1,0.67344,0.32715,0,,0.25528,0.37603,17.50483,0.97703,1,0.59037,0.38234,17.25583,0.97756,1,0,0.00000,2,0.00000,0.00000,0.00000,0.00000,
0,scrcap,5353,87.95874,2195741146857,0.74603,0.28271,87.72852,0.23022,193,1,0.77160,0.29407,1,0.67031,0.32520,0,,0.26039,0.37447,17.88269,0.95908,1,0.59548,0.38262,17.02113,0.95957,1,0,0.00000,2,0.00000,0.00000,0.00000,0.00000,
0,scrcap,5386,88.50220,2195742947485,0.78062,0.29221,87.97510,0.52710,194,1,0.83445,0.31922,1,0.74531,0.33105,0,,0.26036,0.37574,17.89667,0.96013,1,0.59511,0.38329,16.79404,0.95226,1,0,0.00000,2,0.00000,0.00000,0.00000,0.00000,
0,scrcap,5414,88.96094,2195744466867,0.83176,0.30789,88.51709,0.44385,195,1,0.84031,0.25326,1,0.74531,0.33105,0,,0.25800,0.37636,17.96947,0.99676,1,0.59323,0.38312,16.72577,0.99725,1,0,0.00000,2,0.00000,0.00000,0.00000,0.00000,
0,scrcap,5435,89.30566,2195745609305,0.86533,0.31043,88.97705,0.32861,196,1,0.76228,0.31692,1,0.74531,0.33105,0,,0.25372,0.37675,17.84003,0.95614,1,0.58927,0.38360,17.50767,0.96111,1,0,0.00000,2,0.00000,0.00000,0.00000,0.00000,
0,scrcap,5454,89.61792,2195746643511,0.71494,0.32973,89.37158,0.24634,197,1,0.88246,0.33497,1,0.55547,0.52148,0,,0.25613,0.37732,18.20658,0.93836,1,0.59100,0.38344,16.51497,0.93885,1,0,0.00000,2,0.00000,0.00000,0.00000,0.00000,
0,scrcap,5478,90.01221,2195747949883,0.83320,0.30342,89.68530,0.32690,198,1,0.68036,0.30238,1,0.21875,0.79980,0,,0.24400,0.38078,16.72151,0.95964,1,0.57811,0.38461,15.53277,0.95621,1,0,0.00000,2,0.00000,0.00000,0.00000,0.00000,
0,scrcap,5512,90.57080,2195749800407,0.64532,0.30077,90.07788,0.49292,199,1,0.85429,0.29768,1,0.21875,0.79980,0,,0.24910,0.38321,16.17846,0.97234,1,0.58364,0.38847,14.69500,0.96839,1,0,0.00000,2,0.00000,0.00000,0.00000,0.00000,
0,scrcap,5540,91.03076,2195751323776,0.84970,0.31549,90.63647,0.39429,200,1,0.80631,0.31827,1,0.21875,0.79980,0,,0.24959,0.38332,17.54699,0.96072,1,0.58412,0.38826,15.97997,0.95677,1,0,0.00000,2,0.00000,0.00000,0.00000,0.00000,
0,scrcap,5578,91.65625,2195753395965,0.81737,0.31639,91.04712,0.60913,201,1,0.86076,0.33355,1,0.21875,0.79980,0,,0.25028,0.38480,17.92133,0.94288,1,0.58514,0.38904,17.47031,0.93892,1,0,0.00000,2,0.00000,0.00000,0.00000,0.00000,
0,scrcap,5612,92.21460,2195755245946,0.84539,0.33205,91.67285,0.54175,202,1,0.68905,0.45581,1,0.21875,0.80078,0,,0.24154,0.39176,17.64317,0.97255,1,0.57645,0.39427,17.67838,0.97308,1,0,0.00000,2,0.00000,0.00000,0.00000,0.00000,
0,scrcap,5635,92.59204,2195756496229,0.19142,0.82673,92.27930,0.31274,203,1,0.08795,0.82504,1,0.21953,0.80176,0,,0.22296,0.40614,17.59965,0.97703,1,0.55807,0.40731,18.14511,0.97756,1,0,0.00000,2,0.00000,0.00000,0.00000,0.00000,
0,scrcap,5654,92.90381,2195757528771,0.14674,0.79231,92.60767,0.29614,204,1,0.31950,0.76191,1,0.22422,0.80566,0,,0.22693,0.40627,16.01747,0.95078,1,0.56258,0.40742,16.24953,0.95964,1,0,0.00000,2,0.00000,0.00000,0.00000,0.00000,
0,scrcap,5685,93.41284,2195759215570,0.27639,0.77640,92.92017,0.49268,205,1,0.23605,0.84910,1,0.27578,0.84766,0,,0.22660,0.40757,16.21174,0.95911,1,0.56257,0.40889,16.14562,0.95961,1,0,0.00000,2,0.00000,0.00000,0.00000,0.00000,
0,scrcap,5713,93.87280,2195760739432,0.23433,0.79770,93.42920,0.44360,206,1,0.28936,0.75419,1,0.27578,0.84766,0,,0.22634,0.40830,16.82567,0.95908,1,0.56238,0.40981,16.22584,0.96405,1,0,0.00000,2,0.00000,0.00000,0.00000,0.00000,
0,scrcap,5732,94.18481,2195761773318,0.30523,0.80799,93.88916,0.29565,207,1,0.31752,0.79883,1,0.33203,0.85938,0,,0.22723,0.41026,17.00344,0.98592,1,0.56380,0.41219,16.40818,0.98645,1,0,0.00000,2,0.00000,0.00000,0.00000,0.00000,
0,scrcap,5736,94.25073,2195761991647,0.31120,0.75241,94.20142,0.04932,208,1,0.27459,0.64303,1,0.33203,0.85938,0,,0.22676,0.40518,17.30189,0.96366,1,0.56243,0.40665,16.71174,0.96416,1,0,0.00000,2,0.00000,0.00000,0.00000,0.00000,
0,scrcap,5758,94.61450,2195763196215,0.20368,0.37234,94.31641,0.29810,209,1,0.20522,0.29206,1,0.33203,0.85938,0,,0.22199,0.39348,17.47361,0.96345,1,0.55805,0.39478,16.38497,0.96395,1,0,0.00000,2,0.00000,0.00000,0.00000,0.00000,
0,scrcap,5809,95.45020,2195765964561,0.18529,0.30347,94.62988,0.82031,210,1,0.22828,0.31780,0,0.33203,0.85938,0,,0.22091,0.39565,14.97943,0.96814,0,0.55756,0.39646,13.43857,0.97312,0,268,0.00000,2,0.00000,0.00000,0.00000,0.00000,
0,scrcap,5846,96.05811,2195767978623,0.31402,0.83237,95.76221,0.29590,211,1,0.38807,0.90875,1,0.35469,0.93457,0,,0.22171,0.41686,17.27199,0.98134,1,0.55865,0.41502,15.96577,0.97739,1,0,0.00000,3,0.00000,0.00000,0.00000,0.00000,
0,scrcap,5874,96.51782,2195769501774,0.36054,0.87906,96.07422,0.44360,212,1,0.13305,0.66665,1,0.38906,0.95703,0,,0.21549,0.40746,17.47279,0.99037,1,0.55169,0.40469,17.32418,0.99090,1,0,0.00000,3,0.00000,0.00000,0.00000,0.00000,
0,scrcap,5902,96.97778,2195771025653,0.14875,0.59133,96.58350,0.39429,213,1,0.22762,0.57417,1,0.33125,0.95313,0,,0.21623,0.40676,17.80376,0.95908,1,0.55302,0.40305,17.11112,0.96405,1,0,0.00000,3,0.00000,0.00000,0.00000,0.00000,
0,scrcap,5920,97.27344,2195772005251,0.22366,0.51470,96.99438,0.27905,214,1,0.19044,0.31448,1,0.33125,0.95313,0,,0.21460,0.39516,18.14338,0.96013,1,0.55043,0.39348,17.60773,0.95226,1,0,0.00000,3,0.00000,0.00000,0.00000,0.00000,
0,scrcap,5965,98.01270,2195774454321,0.23742,0.33210,97.33936,0.67334,215,1,0.08356,0.34072,1,0.26797,0.63477,0,,0.21167,0.39643,17.76054,0.94575,1,0.54795,0.39417,16.74716,0.95072,1,0,0.00000,3,0.00000,0.00000,0.00000,0.00000,
0,scrcap,5986,98.35767,2195775597054,0.13937,0.31638,98.07861,0.27905,216,1,0.22509,0.31027,1,0.26641,0.46484,0,,0.21194,0.38229,17.61165,0.97703,1,0.54730,0.37663,16.37037,0.97756,1,0,0.00000,3,0.00000,0.00000,0.00000,0.00000,
0,scrcap,5999,98.57178,2195776305937,0.45544,0.30795,98.37427,0.19751,217,1,0.72594,0.28844,1,0.28516,0.48340,0,,0.23155,0.36766,17.93551,0.99094,1,0.56556,0.36573,16.20951,0.99144,1,0,0.00000,3,0.00000,0.00000,0.00000,0.00000,
0,scrcap,6052,99.44214,2195779189341,0.69105,0.27831,98.63721,0.80493,218,1,0.83079,0.25741,1,0.66094,0.31543,0,,0.27662,0.34308,17.56677,1.01921,1,0.60832,0.35842,16.86856,1.01974,1,0,0.00000,3,0.00000,0.00000,0.00000,0.00000,
0,scrcap,6101,100.24731,2195781856845,0.79400,0.28562,99.45850,0.78882,219,1,0.81423,0.29170,1,0.77500,0.32617,0,,0.27584,0.34744,18.53915,0.98592,1,0.60804,0.36185,17.48697,0.98197,1,0,0.00000,3,0.00000,0.00000,0.00000,0.00000,
0,scrcap,6125,100.64233,2195783165856,0.84211,0.31594,100.26367,0.37866,220,1,0.87847,0.30360,1,0.81016,0.32324,0,,0.27514,0.35163,18.50854,0.95467,1,0.60756,0.36612,17.00031,0.95072,1,0,0.00000,3,0.00000,0.00000,0.00000,0.00000,
0,scrcap,6151,101.06860,2195784577639,0.86641,0.33452,100.65771,0.41089,221,1,0.61340,0.38914,1,0.87734,0.32129,0,,0.26860,0.35832,14.25136,0.97241,1,0.60215,0.37142,16.05786,0.97739,1,0,0.00000,3,0.00000,0.00000,0.00000,0.00000,
0,scrcap,6165,101.29883,2195785340430,0.62121,0.33488,101.13428,0.16455,222,1,0.57664,0.33343,0,0.76094,0.32520,0,,0.26481,0.35894,15.68910,0.99026,0,0.59810,0.37292,16.15744,0.99079,0,269,0.00000,3,0.00000,0.00000,0.00000,0.00000,
0,scrcap,6199,101.86060,2195787201771,0.65706,0.30461,101.56152,0.29907,223,1,0.69992,0.30645,1,0.61641,0.34180,0,,0.26066,0.36556,15.93998,0.95918,1,0.59451,0.37750,14.87296,0.96416,1,0,0.00000,4,0.00000,0.00000,0.00000,0.00000,
0,scrcap,6250,102.69482,2195789965467,0.70033,0.28798,101.87354,0.82129,224,1,0.73349,0.27746,1,0.68203,0.33496,0,,0.26056,0.36642,16.93242,0.98130,1,0.59449,0.37913,16.10735,0.97735,1,0,0.00000,4,0.00000,0.00000,0.00000,0.00000,
0,scrcap,6268,102.99072,2195790945441,0.77297,0.29464,102.71143,0.27930,225,1,0.81497,0.25593,1,0.68203,0.33496,0,,0.26003,0.36979,18.05280,0.99676,1,0.59475,0.38167,16.66034,1.00173,1,0,0.00000,4,0.00000,0.00000,0.00000,0.00000,
0,scrcap,6322,103.91064,2195793992998,0.69615,0.27797,103.38525,0.52539,226,1,0.68937,-0.08239,0,0.68203,0.33496,0,,0.25404,0.36892,10.34391,0.98148,0,0.58861,0.38361,15.44846,0.98201,0,271,0.00000,5,0.00000,0.00000,0.00000,0.00000,
0,scrcap,6351,104.38721,2195795571658,0.59736,0.31251,104.17358,0.21362,227,1,0.24881,0.33191,1,0.68203,0.33496,0,,0.24312,0.37303,16.46006,0.94123,1,0.57707,0.38515,16.44124,0.94620,1,0,0.00000,6,0.00000,0.00000,0.00000,0.00000,
0,scrcap,6408,105.32349,2195798673780,0.24570,0.30174,104.45288,0.87061,228,1,0.28052,0.30909,1,0.23594,0.33691,0,,0.24034,0.37596,16.87882,0.96517,1,0.57556,0.38652,16.73216,0.96570,1,0,0.00000,6,0.00000,0.00000,0.00000,0.00000,
0,scrcap,6428,105.65210,2195799762175,0.77470,0.30645,105.38916,0.26294,229,1,0.85290,0.31383,1,0.27969,0.33691,0,,0.25941,0.37519,17.96804,0.99474,1,0.59367,0.38854,16.37731,0.99079,1,0,0.00000,6,0.00000,0.00000,0.00000,0.00000,
0,scrcap,6457,106.12866,2195801341054,0.84238,0.31940,105.66870,0.45996,230,1,0.82064,0.33262,1,0.84531,0.33691,0,,0.26301,0.36917,17.22814,0.95953,1,0.59779,0.38261,17.08151,0.95166,1,0,0.00000,6,0.00000,0.00000,0.00000,0.00000,
0,scrcap,6476,106.44067,2195802374585,0.84342,0.32483,106.14526,0.29541,231,1,0.87224,0.33531,1,0.84531,0.33887,0,,0.26994,0.36885,17.80612,0.95463,1,0.60421,0.38360,17.29428,0.95068,1,0,0.00000,6,0.00000,0.00000,0.00000,0.00000,
0,scrcap,6500,106.83496,2195803680945,0.85112,0.33412,106.45703,0.37793,232,1,0.60884,0.36276,1,0.87969,0.33887,0,,0.26114,0.36965,18.12935,0.95463,1,0.59540,0.38314,17.82056,0.95516,1,0,0.00000,6,0.00000,0.00000,0.00000,0.00000,
0,scrcap,6559,107.80444,2195806892358,0.64123,0.33133,106.90063,0.90381,233,1,0.69025,0.30655,1,0.62266,0.36426,0,,0.25871,0.37232,16.83642,1.00565,1,0.59266,0.38649,16.05191,1.00105,1,0,0.00000,5,0.00000,0.00000,0.00000,0.00000,
0,scrcap,6573,108.03516,2195807656761,0.81671,0.32353,107.82056,0.21460,234,1,0.89056,0.31372,1,0.62266,0.36426,0,,0.26749,0.37345,16.94378,0.96069,1,0.60125,0.38815,16.48599,0.95674,1,0,0.00000,5,0.00000,0.00000,0.00000,0.00000,
0,scrcap,6596,108.41211,2195808905897,0.85188,0.29600,108.05103,0.36108,235,1,0.80159,0.28594,1,0.62266,0.36426,0,,0.26880,0.37822,17.31159,0.95908,1,0.60393,0.39346,16.45205,0.96405,1,0,0.00000,5,0.00000,0.00000,0.00000,0.00000,
0,scrcap,6645,109.21729,2195811573151,0.79656,0.30742,108.42847,0.78882,236,1,0.75287,0.35307,0,0.62266,0.36426,0,,0.26957,0.39243,6.64091,0.95023,0,0.60313,0.40497,8.60945,0.95072,0,272,0.00000,5,0.00000,0.00000,0.00000,0.00000,
0,scrcap,6683,109.84131,2195813640432,0.72946,0.29193,109.47998,0.36133,237,1,0.66982,0.31403,1,0.62266,0.36426,0,,0.26566,0.37950,17.32146,0.97245,1,0.60056,0.39351,16.84837,0.96850,1,0,0.00000,6,0.00000,0.00000,0.00000,0.00000,
0,scrcap,6701,110.13696,2195814620232,0.73152,0.30069,109.85791,0.27905,238,1,0.85805,0.29289,1,0.62266,0.36426,0,,0.26961,0.38062,17.54486,0.97234,1,0.60502,0.39571,16.59856,0.96839,1,0,0.00000,6,0.00000,0.00000,0.00000,0.00000,
0,scrcap,6751,110.95850,2195817341733,0.80245,0.30292,110.15356,0.80493,239,1,0.69267,0.31407,1,0.62266,0.36426,0,,0.26451,0.38154,17.14641,0.95911,1,0.60047,0.39554,16.57671,0.95961,1,0,0.00000,6,0.00000,0.00000,0.00000,0.00000,
0,scrcap,6806,111.86230,2195820335666,0.64427,0.31273,111.02417,0.83813,240,1,0.70040,0.27302,1,0.63437,0.35938,0,,0.26381,0.38280,16.68414,0.98137,1,0.59999,0.39768,15.78589,0.98635,1,0,0.00000,6,0.00000,0.00000,0.00000,0.00000,
0,scrcap,6828,112.22363,2195821532495,0.67003,0.28966,111.87842,0.34521,241,1,0.41214,0.28198,1,0.60625,0.35449,0,,0.24882,0.38326,16.85785,0.97700,1,0.58503,0.39574,15.92823,0.97357,1,0,0.00000,6,0.00000,0.00000,0.00000,0.00000,
0,scrcap,6857,112.69995,2195823111038,0.15860,0.32789,112.28931,0.41064,242,1,0.25869,0.30594,1,0.14687,0.30957,0,,0.24458,0.38371,16.43629,0.96814,1,0.58038,0.39573,15.30590,0.97312,1,0,0.00000,6,0.00000,0.00000,0.00000,0.00000,
0,scrcap,6890,113.24219,2195824906809,0.23785,0.29420,112.71875,0.52344,243,1,0.15826,0.33466,1,0.14687,0.30957,0,,0.24042,0.38460,16.36898,0.95621,1,0.57646,0.39629,15.40468,0.95226,1,0,0.00000,6,0.00000,0.00000,0.00000,0.00000,
0,scrcap,6912,113.60645,2195826113920,0.20247,0.28869,113.25854,0.34790,244,1,0.24344,0.28843,1,0.14687,0.30957,0,,0.24474,0.38466,16.63264,0.99037,1,0.58186,0.39641,15.76786,0.98642,1,0,0.00000,6,0.00000,0.00000,0.00000,0.00000,
0,scrcap,6946,114.16235,2195827954995,0.24377,0.31642,113.62012,0.54224,245,1,0.16488,0.30110,1,0.14687,0.30957,0,,0.24493,0.38502,17.88236,0.96356,1,0.58200,0.39754,16.83587,0.96405,1,0,0.00000,6,0.00000,0.00000,0.00000,0.00000,
0,scrcap,6965,114.47437,2195828989214,0.22885,0.27690,114.17847,0.29590,246,1,0.24092,0.27241,1,0.14687,0.30957,0,,0.24756,0.38460,17.46281,0.98148,1,0.58382,0.39730,17.03405,0.98645,1,0,0.00000,6,0.00000,0.00000,0.00000,0.00000,
0,scrcap,6987,114.83545,2195830185596,0.25703,0.30138,114.49072,0.34473,247,1,0.27464,0.34738,1,0.14687,0.30957,0,,0.24771,0.38623,17.74633,0.94568,1,0.58486,0.39813,16.33465,0.94172,1,0,0.00000,6,0.00000,0.00000,0.00000,0.00000,
0,scrcap,7068,116.16626,2195834594121,0.25959,0.30218,114.85205,1.31421,248,1,0.27777,0.18082,1,0.18906,0.34082,0,,0.23389,0.38388,18.15185,0.95456,1,0.56965,0.39160,16.70381,0.95509,1,0,0.00000,6,0.00000,0.00000,0.00000,0.00000,
0,scrcap,7098,116.65918,2195836226924,0.27958,0.05450,116.23218,0.42700,249,1,0.30868,0.04379,1,0.33359,0.06445,0,,0.23541,0.38142,17.19785,0.95239,1,0.57151,0.39010,15.96664,0.96125,1,0,0.00000,6,0.00000,0.00000,0.00000,0.00000,
0,scrcap,7117,116.97144,2195837261105,0.31612,0.05890,116.67578,0.29565,250,1,0.34707,0.09875,1,0.30859,0.06738,0,,0.23165,0.38177,17.81403,0.95180,1,0.56830,0.38879,17.11928,0.94785,1,0,0.00000,6,0.00000,0.00000,0.00000,0.00000,
0,scrcap,7151,117.53003,2195839111753,0.35105,0.08843,116.98779,0.54224,251,1,0.33347,0.11101,1,0.33281,0.13770,0,,0.24119,0.38288,18.78635,0.96797,1,0.57721,0.39224,17.56774,0.96850,1,0,0.00000,6,0.00000,0.00000,0.00000,0.00000,
0,scrcap,7175,117.92432,2195840418067,0.34949,0.08321,117.54663,0.37769,252,1,0.34823,0.05761,1,0.33750,0.11816,0,,0.24013,0.38264,18.21280,0.97234,1,0.57678,0.39196,16.33607,0.96839,1,0,0.00000,6,0.00000,0.00000,0.00000,0.00000,
0,scrcap,7193,118.21997,2195841397400,0.40237,0.07089,117.94116,0.27881,253,1,0.47586,0.11590,1,0.33750,0.11621,0,,0.24625,0.38337,17.85612,0.98141,1,0.58298,0.39347,16.52283,0.98194,1,0,0.00000,6,0.00000,0.00000,0.00000,0.00000,
0,scrcap,7227,118.77856,2195843248114,0.47021,0.10218,118.23657,0.54199,254,1,0.47108,0.04392,1,0.43672,0.11328,0,,0.24561,0.38415,17.85446,0.99033,1,0.58244,0.39453,17.14922,0.99083,1,0,0.00000,6,0.00000,0.00000,0.00000,0.00000,
0,scrcap,7240,118.99243,2195843956265,0.44096,0.22636,118.79639,0.19604,255,1,0.42750,0.33127,1,0.43672,0.11328,0,,0.24408,0.39032,17.90403,0.93836,1,0.58088,0.39936,17.41482,0.93441,1,0,0.00000,6,0.00000,0.00000,0.00000,0.00000,
0,scrcap,7254,119.22217,2195844717683,0.38027,0.39576,119.00854,0.21362,256,1,0.25164,0.76663,1,0.43672,0.11328,0,,0.24055,0.40729,17.57034,0.96863,1,0.57534,0.41639,17.62396,0.96468,1,0,0.00000,6,0.00000,0.00000,0.00000,0.00000,
0,scrcap,7275,119.56714,2195845860376,0.19797,0.78842,119.28784,0.27930,257,1,0.10858,0.82602,1,0.30781,0.61523,0,,0.23732,0.41179,17.45851,0.92558,1,0.57385,0.42087,17.45873,0.93444,1,0,0.00000,6,0.00000,0.00000,0.00000,0.00000,
0,scrcap,7293,119.86279,2195846839743,0.15556,0.80951,119.58350,0.27930,258,1,0.35163,0.77702,1,0.32266,0.69531,0,,0.23709,0.41075,16.36406,0.97245,1,0.57362,0.41811,15.69397,0.97298,1,0,0.00000,6,0.00000,0.00000,0.00000,0.00000,
0,scrcap,7334,120.53638,2195849071259,0.34415,0.76904,119.92847,0.60791,259,1,0.31726,0.80354,1,0.33906,0.83203,0,,0.23724,0.41164,15.95238,0.94575,1,0.57475,0.41813,16.09109,0.94624,1,0,0.00000,6,0.00000,0.00000,0.00000,0.00000,
0,scrcap,7355,120.88135,2195850214423,0.29515,0.82609,120.55298,0.32837,260,1,0.30234,0.89255,1,0.33594,0.88574,0,,0.23306,0.41639,16.84784,0.95023,1,0.57114,0.42203,16.97400,0.95072,1,0,0.00000,6,0.00000,0.00000,0.00000,0.00000,
0,scrcap,7390,121.45630,2195852119282,0.29717,0.86922,120.89795,0.55835,261,1,0.28337,0.83916,1,0.33750,0.89648,0,,0.24179,0.41790,16.64001,0.97682,1,0.58002,0.42576,16.14312,0.97735,1,0,0.00000,6,0.00000,0.00000,0.00000,0.00000,
0,scrcap,7412,121.81787,2195853316607,0.29219,0.85275,121.47290,0.34497,262,1,0.26207,0.89447,1,0.33828,0.90430,0,,0.24424,0.41878,17.26743,0.98141,1,0.58250,0.42675,16.61154,0.98194,1,0,0.00000,6,0.00000,0.00000,0.00000,0.00000,
0,scrcap,7438,122.24512,2195854732103,0.31248,0.84888,121.83569,0.40942,263,1,0.31681,0.76054,1,0.34062,0.90625,0,,0.24891,0.41544,16.41245,0.97255,1,0.58777,0.42509,16.79960,0.97305,1,0,0.00000,6,0.00000,0.00000,0.00000,0.00000,
0,scrcap,7462,122.63940,2195856038217,0.32297,0.77769,122.26147,0.37793,264,1,0.26401,0.43185,1,0.34219,0.86816,0,,0.24559,0.40314,17.79847,0.97245,1,0.58256,0.41206,16.46802,0.96850,1,0,0.00000,6,0.00000,0.00000,0.00000,0.00000,
0,scrcap,7499,123.24707,2195858051414,0.24971,0.31699,122.70508,0.54199,265,1,0.24429,0.26494,1,0.34219,0.86523,0,,0.24203,0.39982,15.59375,0.99026,1,0.57970,0.40886,15.33297,0.99079,1,0,0.00000,6,0.00000,0.00000,0.00000,0.00000,
0,scrcap,7513,123.47729,2195858814149,0.19100,0.16533,123.26367,0.21362,266,1,0.15290,0.08603,1,0.34219,0.86523,0,,0.23532,0.39157,16.68765,0.96356,1,0.57207,0.39975,15.21628,0.96405,1,0,0.00000,6,0.00000,0.00000,0.00000,0.00000,
0,scrcap,7526,123.69067,2195859521090,0.21296,0.26194,123.49365,0.19702,267,1,0.23166,0.29006,1,0.34219,0.86523,0,,0.23519,0.39407,16.64738,0.97357,1,0.57252,0.40104,16.14167,0.97410,1,0,0.00000,6,0.00000,0.00000,0.00000,0.00000,
0,scrcap,7563,124.29858,2195861534894,0.25260,0.29908,123.70703,0.59155,268,1,0.27243,0.25926,1,0.24922,0.33398,0,,0.23382,0.39745,17.40061,0.99037,1,0.57022,0.40368,16.37197,0.98642,1,0,0.00000,6,0.00000,0.00000,0.00000,0.00000,
0,scrcap,7588,124.70923,2195862895545,0.25974,0.28110,124.31519,0.39404,269,1,0.29902,0.08540,1,0.25156,0.32617,0,,0.22717,0.38651,18.49380,0.96804,1,0.56262,0.39014,17.46815,0.97301,1,0,0.00000,6,0.00000,0.00000,0.00000,0.00000,
0,scrcap,7634,125.46509,2195865399240,0.33451,0.06831,124.77490,0.69019,270,1,0.36451,0.09297,1,0.37813,0.03906,0,,0.24434,0.38372,18.72118,0.95135,1,0.58041,0.39312,18.32592,0.94792,1,0,0.00000,6,0.00000,0.00000,0.00000,0.00000,
0,scrcap,7657,125.84302,2195866651455,0.37002,0.11611,125.48145,0.36157,271,1,0.36356,0.24166,1,0.36953,0.07227,0,,0.24744,0.38946,19.26122,0.93128,1,0.58356,0.39835,18.63863,0.94014,1,0,0.00000,6,0.00000,0.00000,0.00000,0.00000,
0,scrcap,7683,126.27002,2195868065995,0.34021,0.22213,125.85913,0.41089,272,1,0.32917,0.13372,1,0.35547,0.24316,0,,0.24054,0.38918,18.98606,0.97752,1,0.57601,0.39612,17.32436,0.98250,1,0,0.00000,6,0.00000,0.00000,0.00000,0.00000,
0,scrcap,7712,126.74634,2195869644060,0.33881,0.09285,126.33569,0.41064,273,1,0.34960,0.04563,1,0.35781,0.11621,0,,0.24267,0.38641,17.98980,0.99037,1,0.57849,0.39276,16.93140,0.99090,1,0,0.00000,6,0.00000,0.00000,0.00000,0.00000,
0,scrcap,7727,126.99292,2195870461276,0.41584,0.11209,126.76294,0.22998,274,1,0.44021,0.14628,1,0.35781,0.11621,0,,0.24563,0.38844,17.32874,0.95135,1,0.58235,0.39445,17.03963,0.95632,1,0,0.00000,6,0.00000,0.00000,0.00000,0.00000,
0,scrcap,7763,127.58447,2195872420386,0.46513,0.12240,127.00928,0.57520,275,1,0.49486,0.10535,1,0.44297,0.12207,0,,0.24730,0.38800,17.21253,0.95911,1,0.58433,0.39493,16.32746,0.95516,1,0,0.00000,6,0.00000,0.00000,0.00000,0.00000,
0,scrcap,7779,127.84717,2195873290608,0.45841,0.16994,127.60059,0.24658,276,1,0.38354,0.47218,1,0.45078,0.11816,0,,0.24466,0.40091,17.18651,0.98134,1,0.58034,0.40722,16.39865,0.98187,1,0,0.00000,6,0.00000,0.00000,0.00000,0.00000,
0,scrcap,7798,128.15942,2195874325305,0.35629,0.57542,127.91431,0.24512,277,1,0.28085,0.81433,1,0.44453,0.15234,0,,0.24144,0.41431,17.34415,0.94304,1,0.57744,0.42159,17.87041,0.95190,1,0,0.00000,6,0.00000,0.00000,0.00000,0.00000,
0,scrcap,7817,128.47144,2195875359041,0.17616,0.78523,128.22485,0.24658,278,1,0.09150,0.79542,1,0.26797,0.62500,0,,0.23482,0.41723,17.72751,0.98141,1,0.57156,0.42420,17.67010,0.97746,1,0,0.00000,6,0.00000,0.00000,0.00000,0.00000,
0,scrcap,7839,128.83276,2195876556286,0.11966,0.80848,128.48779,0.34497,279,1,0.31198,0.74433,1,0.26797,0.62500,0,,0.23270,0.41792,16.71541,0.97689,1,0.56941,0.42226,15.98916,0.98187,1,0,0.00000,6,0.00000,0.00000,0.00000,0.00000,
0,scrcap,7861,129.19434,2195877754292,0.32350,0.78449,128.89844,0.29590,280,1,0.32105,0.78765,1,0.30703,0.81934,0,,0.23880,0.41681,16.67883,0.96359,1,0.57627,0.42223,16.28948,0.96857,1,0,0.00000,6,0.00000,0.00000,0.00000,0.00000,
0,scrcap,7894,129.73657,2195879550277,0.31719,0.81455,129.21069,0.52588,281,1,0.28389,0.85790,1,0.33359,0.83301,0,,0.24020,0.42067,17.57730,0.96804,1,0.57786,0.42602,16.67234,0.97301,1,0,0.00000,6,0.00000,0.00000,0.00000,0.00000,
0,scrcap,7947,130.60718,2195882434222,0.30419,0.84854,129.75293,0.85425,282,1,0.31556,0.78746,1,0.33125,0.89453,0,,0.23928,0.42041,16.80437,0.96793,1,0.57708,0.42624,15.93154,0.96843,1,0,0.00000,6,0.00000,0.00000,0.00000,0.00000,
0,scrcap,7961,130.83716,2195883196706,0.31848,0.73354,130.62476,0.21240,283,1,0.20570,0.29691,1,0.34531,0.86328,0,,0.23433,0.40063,18.45489,0.97370,1,0.56994,0.40625,17.26511,0.98256,1,0,0.00000,6,0.00000,0.00000,0.00000,0.00000,
0,scrcap,8000,131.47803,2195885319763,0.21453,0.29886,130.90283,0.57520,284,1,0.15680,0.08883,1,0.34531,0.86328,0,,0.23144,0.39493,17.61196,0.95918,1,0.56758,0.40009,16.13161,0.96416,1,0,0.00000,6,0.00000,0.00000,0.00000,0.00000,
0,scrcap,8018,131.77344,2195886298151,0.17592,0.12896,131.54346,0.22998,285,1,0.24874,0.32577,1,0.33281,0.85840,0,,0.23220,0.39946,16.95534,0.96023,1,0.56876,0.40384,16.34757,0.96076,1,0,0.00000,6,0.00000,0.00000,0.00000,0.00000,
0,scrcap,8077,132.74292,2195889509427,0.24403,0.29755,131.83911,0.90381,286,1,0.08560,0.27478,1,0.25781,0.42480,0,,0.20067,0.38746,15.94539,0.98137,1,0.53390,0.38120,14.98652,0.98190,1,0,0.00000,6,0.00000,0.00000,0.00000,0.00000,
0,scrcap,8103,133.16992,2195890924309,0.13419,0.29783,132.80859,0.36133,287,1,0.25595,0.29768,1,0.25781,0.42480,0,,0.22608,0.37558,15.72017,0.99389,1,0.55905,0.37693,14.53062,0.99442,1,0,0.00000,6,0.00000,0.00000,0.00000,0.00000,
0,scrcap,8119,133.43286,2195891795362,0.49196,0.28303,133.23584,0.19702,288,1,0.70622,0.27272,1,0.25781,0.42480,0,,0.26596,0.36694,16.47226,0.99037,1,0.59809,0.37757,15.65652,0.99090,1,0,0.00000,6,0.00000,0.00000,0.00000,0.00000,
0,scrcap,8144,133.84375,2195893156386,0.75104,0.28699,133.49854,0.34521,289,1,0.86411,0.28981,1,0.25781,0.42480,0,,0.29163,0.35676,16.09016,1.00370,1,0.62188,0.37648,15.17842,1.00423,1,0,0.00000,6,0.00000,0.00000,0.00000,0.00000,
0,scrcap,8165,134.18872,2195894299574,0.85268,0.30758,133.85986,0.32886,290,1,0.89395,0.29663,1,0.25781,0.42480,0,,0.28536,0.35713,16.24011,0.98578,1,0.61626,0.37458,15.84907,0.98183,1,0,0.00000,6,0.00000,0.00000,0.00000,0.00000,
0,scrcap,8183,134.48438,2195895279130,0.84718,0.28100,134.20483,0.27954,291,1,0.72942,0.28478,1,0.25781,0.42480,0,,0.27796,0.35996,16.78623,0.99474,1,0.60958,0.37572,15.85068,0.99079,1,0,0.00000,5,0.00000,0.00000,0.00000,0.00000,
0,scrcap,8204,134.82935,2195896421459,0.71914,0.28258,134.50098,0.32837,292,1,0.63350,0.28731,1,0.25781,0.42480,0,,0.27844,0.36320,16.32063,0.98141,1,0.61086,0.37824,15.92251,0.97746,1,0,0.00000,5,0.00000,0.00000,0.00000,0.00000,
0,scrcap,8227,135.20728,2195897673976,0.64851,0.31071,134.84570,0.36157,293,1,0.64625,0.33894,1,0.25781,0.42480,0,,0.27895,0.36884,16.88952,0.96814,1,0.61184,0.38450,16.16998,0.97312,1,0,0.00000,5,0.00000,0.00000,0.00000,0.00000,
0,scrcap,8240,135.42065,2195898380664,0.45430,0.30280,135.22363,0.19702,294,1,0.18470,0.29018,1,0.25781,0.42480,0,,0.25825,0.36738,17.77872,0.99231,1,0.59081,0.38024,16.59503,0.99284,1,0,0.00000,5,0.00000,0.00000,0.00000,0.00000,
0,scrcap,8275,135.99561,2195900285478,0.25641,0.28423,135.48633,0.50928,295,1,0.26505,0.31713,1,0.25156,0.36426,1,,0.21088,0.38064,18.03379,0.96814,1,0.54321,0.38049,16.31495,0.97312,1,0,0.00000,5,0.00000,0.00000,0.00000,0.00000,
0,scrcap,8325,136.81714,2195903007030,0.26029,0.28854,136.01221,0.80493,296,1,0.24812,0.27911,0,0.25625,0.38965,0,,0.20727,0.38211,16.70728,1.01460,0,0.53936,0.37819,16.25466,1.01513,0,273,0.00000,5,0.00000,0.00000,0.00000,0.00000,
0,scrcap,8353,137.27710,2195904530809,0.26304,0.27768,137.08008,0.19702,297,1,0.27576,-0.04550,0,0.25625,0.38965,0,,0.22564,0.38050,14.51221,0.97234,0,0.55694,0.37817,14.51955,0.96839,0,0,0.00000,6,0.00000,0.00000,0.00000,0.00000,
0,scrcap,8374,137.62207,2195905673550,0.07691,1.60261,137.49097,0.13110,298,1,0.06865,1.59857,0,0.25625,0.38965,0,,0.23500,0.43212,7.82798,0.97234,0,0.55995,0.43222,8.31379,0.96839,0,0,0.00000,6,0.00000,0.00000,0.00000,0.00000,
0,scrcap,8473,139.24951,2195911065035,0.26144,0.29053,137.93433,1.31519,299,1,0.30847,0.06495,1,0.25391,0.34863,0,,0.22989,0.36680,16.80467,1.00370,1,0.55935,0.36463,15.55735,1.00423,1,0,0.00000,6,0.00000,0.00000,0.00000,0.00000,
0,scrcap,8503,139.74146,2195912694581,0.32485,0.03767,139.31445,0.42700,300,1,0.33906,0.05167,1,0.35313,0.10156,0,,0.22653,0.36528,17.38716,1.00370,1,0.55414,0.36514,16.35757,1.00423,1,0,0.00000,6,0.00000,0.00000,0.00000,0.00000,
0,scrcap,8533,140.23486,2195914329078,0.37087,0.06477,139.75781,0.47705,301,1,0.36086,0.08116,1,0.37344,0.07617,0,,0.22493,0.36876,18.05395,1.02438,1,0.55377,0.36720,16.88846,1.03007,1,0,0.00000,6,0.00000,0.00000,0.00000,0.00000,
0,scrcap,8549,140.49707,2195915198310,0.34542,0.14448,140.25098,0.24609,302,1,0.32248,0.22869,1,0.36875,0.16504,0,,0.22429,0.37284,17.98435,1.01908,1,0.55337,0.37184,17.54119,1.01961,1,0,0.00000,6,0.00000,0.00000,0.00000,0.00000,
0,scrcap,8564,140.74365,2195916014665,0.34795,0.14848,140.51367,0.22998,303,1,0.35950,0.07343,1,0.36406,0.11719,0,,0.22615,0.36825,17.61953,1.00705,1,0.55528,0.36693,16.56336,0.99797,1,0,0.00000,6,0.00000,0.00000,0.00000,0.00000,
0,scrcap,8588,141.13794,2195917320907,0.38178,0.09262,140.75977,0.37817,304,1,0.46828,0.10545,1,0.36406,0.11523,0,,0.23651,0.36722,17.98903,1.02946,1,0.56549,0.36977,16.80139,1.02486,1,0,0.00000,6,0.00000,0.00000,0.00000,0.00000,
0,scrcap,8613,141.54883,2195918682033,0.47991,0.12040,141.15430,0.39453,305,1,0.50904,0.09534,1,0.45625,0.11719,0,,0.24234,0.36638,17.54902,1.01921,1,0.57160,0.37036,16.96511,1.02490,1,0,0.00000,6,0.00000,0.00000,0.00000,0.00000,
0,scrcap,8647,142.10718,2195920531717,0.47652,0.11129,141.56494,0.54224,306,1,0.32069,0.26006,1,0.46406,0.11914,0,,0.23840,0.37268,18.31646,0.99037,1,0.56760,0.37698,17.76117,0.99090,1,0,0.00000,6,0.00000,0.00000,0.00000,0.00000,
0,scrcap,8671,142.50122,2195921837898,0.27114,0.35810,142.17285,0.32837,307,1,0.24435,0.74986,1,0.35547,0.36523,0,,0.23570,0.39120,16.38614,1.00370,1,0.56472,0.39584,17.21198,1.00423,1,0,0.00000,6,0.00000,0.00000,0.00000,0.00000,
0,scrcap,8692,142.84644,2195922981219,0.17344,0.79205,142.56714,0.27930,308,1,0.12368,0.78529,1,0.29531,0.68945,0,,0.23190,0.39814,16.16356,0.98148,1,0.56262,0.40056,16.63595,0.98645,1,0,0.00000,6,0.00000,0.00000,0.00000,0.00000,
0,scrcap,8710,143.14209,2195923960639,0.13653,0.76677,142.86328,0.27881,309,1,0.26737,0.72216,1,0.29453,0.68652,0,,0.23993,0.39618,15.39533,1.00370,1,0.57120,0.39917,15.57047,1.00423,1,0,0.00000,6,0.00000,0.00000,0.00000,0.00000,
0,scrcap,8718,143.27344,2195924395964,0.25838,0.65517,143.20776,0.06567,310,1,0.24957,0.53340,1,0.28594,0.67090,0,,0.23962,0.38707,15.52588,1.01464,1,0.57007,0.39020,14.46422,1.01517,1,0,0.00000,6,0.00000,0.00000,0.00000,0.00000,
0,scrcap,8761,143.97998,2195926736155,0.23603,0.30446,143.33911,0.64087,311,1,0.26458,0.32434,1,0.17734,0.32520,0,,0.22533,0.38713,17.98348,0.97689,1,0.55601,0.38578,17.43094,0.97294,1,0,0.00000,6,0.00000,0.00000,0.00000,0.00000,
0,scrcap,8774,144.19360,2195927444451,0.25021,0.50380,143.99634,0.19727,312,1,0.23848,0.69203,1,0.20781,0.38574,0,,0.22724,0.40187,16.90306,0.99037,1,0.55703,0.40011,17.48993,0.99090,1,0,0.00000,6,0.00000,0.00000,0.00000,0.00000,
0,scrcap,8800,144.62061,2195928858902,0.29001,0.79630,144.30859,0.31201,313,1,0.31678,0.77492,1,0.33359,0.80566,0,,0.22770,0.40655,16.20569,1.00575,1,0.55926,0.40543,16.66873,1.00115,1,0,0.00000,6,0.00000,0.00000,0.00000,0.00000,
0,scrcap,8839,145.26147,2195930981755,0.31551,0.76620,144.63721,0.62427,314,1,0.31160,0.79760,1,0.34531,0.84180,0,,0.23030,0.40938,15.82646,0.97693,1,0.56229,0.40838,16.39429,0.97746,1,0,0.00000,6,0.00000,0.00000,0.00000,0.00000,
0,scrcap,8864,145.67212,2195932342265,0.29603,0.84049,145.27783,0.39429,315,1,0.28112,0.86946,1,0.33828,0.91016,0,,0.23700,0.41086,16.04513,1.00124,1,0.56925,0.41267,16.63170,1.00173,1,0,0.00000,6,0.00000,0.00000,0.00000,0.00000,
0,scrcap,8902,146.29639,2195934410614,0.30488,0.83423,145.68848,0.60791,316,1,0.32505,0.64672,1,0.33516,0.86719,0,,0.23206,0.40630,16.04457,0.99037,1,0.56442,0.40579,16.14392,0.99534,1,0,0.00000,6,0.00000,0.00000,0.00000,0.00000,
0,scrcap,8939,146.90454,2195936424703,0.25946,0.31231,146.36279,0.54175,317,1,0.29520,0.31787,1,0.33516,0.86719,0,,0.23293,0.39430,16.78329,0.96797,1,0.56505,0.39484,17.23863,0.96850,1,0,0.00000,6,0.00000,0.00000,0.00000,0.00000,
0,scrcap,9022,148.26782,2195940941618,0.26542,0.30797,146.92065,1.34717,318,1,0.30754,0.44309,1,0.31797,0.78613,0,,0.21107,0.40296,16.83583,0.99037,1,0.54253,0.39730,16.16317,0.99090,1,0,0.00000,6,0.00000,0.00000,0.00000,0.00000,
0,scrcap,9048,148.69482,2195942356253,0.31685,0.67231,148.33350,0.36133,319,1,0.32926,0.86350,1,0.32578,0.83984,0,,0.22427,0.40982,15.95032,1.00370,1,0.55487,0.40524,15.91259,1.00423,1,0,0.00000,6,0.00000,0.00000,0.00000,0.00000,
0,scrcap,9080,149.22070,2195944097973,0.32418,0.89351,148.76099,0.45972,320,1,0.34036,0.89801,1,0.33125,0.95801,0,,0.27110,0.41965,16.47955,0.92294,1,0.60631,0.42869,16.02736,0.92732,1,0,0.00000,6,0.00000,0.00000,0.00000,0.00000,
0,scrcap,9088,149.35205,2195944533377,0.34638,0.74285,149.23706,0.11499,321,1,0.35360,0.32937,1,0.33125,0.95801,0,,0.26798,0.39650,17.55696,0.96349,1,0.60065,0.40437,17.26342,0.96846,1,0,0.00000,6,0.00000,0.00000,0.00000,0.00000,
0,scrcap,9120,149.87769,2195946274953,0.34436,0.32609,149.41797,0.45972,322,1,0.22395,0.27488,1,0.34922,0.95898,0,,0.24000,0.40149,16.88115,0.99478,1,0.57353,0.40179,16.42894,0.99527,1,0,0.00000,6,0.00000,0.00000,0.00000,0.00000,
0,scrcap,9139,150.18994,2195947309416,0.25962,0.32889,149.89404,0.29590,323,1,0.26292,0.38863,1,0.33828,0.95898,0,,0.24268,0.40443,16.57623,0.96356,1,0.57598,0.40509,15.92422,0.95961,1,0,0.00000,6,0.00000,0.00000,0.00000,0.00000,
0,scrcap,9156,150.46924,2195948234333,0.24132,0.36413,150.20630,0.26294,324,1,0.21457,0.31951,1,0.33828,0.95898,0,,0.23523,0.40259,17.72569,0.98582,1,0.56887,0.40179,16.47429,0.98635,1,0,0.00000,6,0.00000,0.00000,0.00000,0.00000,
0,scrcap,9172,150.73193,2195949104725,0.16110,0.32822,150.48584,0.24609,325,1,0.07564,0.33210,1,0.38203,0.81641,0,,0.22825,0.40556,17.35554,0.99026,1,0.56147,0.40288,16.77948,0.99079,1,0,0.00000,6,0.00000,0.00000,0.00000,0.00000,
0,scrcap,9187,150.97852,2195949921743,0.16493,0.33241,150.74854,0.22998,326,1,0.32274,0.32662,1,0.43437,0.54883,0,,0.22968,0.40442,17.37854,0.96804,1,0.56295,0.40200,16.49446,0.97301,1,0,0.00000,6,0.00000,0.00000,0.00000,0.00000,
0,scrcap,9203,151.24146,2195950792376,0.54007,0.34507,151.04468,0.19678,327,1,0.71443,0.33033,1,0.43437,0.54883,0,,0.24256,0.39842,17.66763,0.95463,1,0.57565,0.39736,16.88820,0.95516,1,0,0.00000,6,0.00000,0.00000,0.00000,0.00000,
0,scrcap,9228,151.65234,2195952154039,0.65019,0.35196,151.30688,0.34546,328,1,0.64058,0.46134,1,0.47266,0.55273,0,,0.26940,0.37993,16.57001,0.96800,1,0.60190,0.38901,15.70862,0.96853,1,0,0.00000,6,0.00000,0.00000,0.00000,0.00000,
0,scrcap,9253,152.06299,2195953513735,0.66730,0.44540,151.66870,0.39429,329,1,0.69491,0.48770,1,0.47266,0.55273,0,,0.28212,0.37113,15.41963,0.96804,1,0.61293,0.39073,14.33936,0.97301,1,0,0.00000,6,0.00000,0.00000,0.00000,0.00000,
0,scrcap,9272,152.37500,2195954548168,0.67736,0.44272,152.07910,0.29590,330,1,0.67499,0.34169,1,0.47266,0.55273,0,,0.35954,0.35572,15.35408,1.01404,1,0.68564,0.40282,12.98470,1.01974,1,0,0.00000,6,0.00000,0.00000,0.00000,0.00000,
0,scrcap,9306,152.93359,2195956398402,0.66470,0.30458,152.39160,0.54199,331,1,0.61651,0.26939,1,0.47266,0.55273,0,,0.33087,0.34892,16.60011,0.98773,1,0.68103,0.41453,14.89066,0.98378,0,0,0.00000,6,0.00000,0.00000,0.00000,0.00000,
0,scrcap,9338,153.45923,2195958139979,0.62981,0.29093,152.94995,0.50928,332,1,0.67848,0.25068,1,0.47266,0.55273,0,,0.27111,0.34284,17.28202,1.01404,1,0.59806,0.37984,16.23518,1.01457,1,0,0.00000,6,0.00000,0.00000,0.00000,0.00000,
0,scrcap,9362,153.85352,2195959446254,0.65825,0.29408,153.47559,0.37793,333,1,0.63853,0.30371,1,0.47266,0.55273,0,,0.28157,0.34776,16.79086,1.00508,1,0.60894,0.38861,16.34075,1.00113,1,0,0.00000,6,0.00000,0.00000,0.00000,0.00000,
0,scrcap,9422,154.83911,2195962711299,0.64087,0.28416,153.87012,0.96899,334,1,0.72473,0.27938,1,0.49297,0.46289,0,,0.32894,0.34460,17.09835,1.00370,1,0.65410,0.38775,16.28139,1.00423,1,0,0.00000,6,0.00000,0.00000,0.00000,0.00000,
0,scrcap,9460,155.46362,2195964779530,0.68098,0.28541,154.85571,0.60791,335,1,0.62915,0.27657,1,1.89219,0.55078,0,,0.25913,0.34365,17.07776,1.00370,1,0.58520,0.37172,15.47244,1.00423,1,0,0.00000,6,0.00000,0.00000,0.00000,0.00000,
0,scrcap,9488,155.92358,2195966303716,0.63559,0.27140,155.47998,0.44360,336,1,0.83039,0.26411,1,1.56250,0.12500,0,,0.24358,0.34520,16.67069,1.01025,1,0.57013,0.37138,14.72417,1.00630,1,0,0.00000,5,0.00000,0.00000,0.00000,0.00000,
0,scrcap,9511,156.30127,2195967555191,0.85717,0.29951,155.98926,0.31201,337,1,0.73449,0.34497,1,1.57891,0.02148,0,,0.25897,0.34670,16.84437,0.99543,1,0.58548,0.37608,16.07392,1.00113,1,0,0.00000,5,0.00000,0.00000,0.00000,0.00000,
0,scrcap,9560,157.10645,2195970222013,0.72154,0.30338,156.71240,0.39404,338,1,0.66261,0.33485,1,1.57891,0.02148,0,,0.27320,0.32798,16.26455,0.98585,1,0.60191,0.35912,15.77330,0.98635,1,0,0.00000,6,0.00000,0.00000,0.00000,0.00000,
0,scrcap,9573,157.31982,2195970929389,0.44508,0.33368,157.12280,0.19702,339,1,0.22918,0.38860,1,1.57891,0.02148,0,,0.26103,0.33547,17.03159,0.97870,1,0.59049,0.36515,15.54698,0.97923,1,0,0.00000,6,0.00000,0.00000,0.00000,0.00000,
0,scrcap,9599,157.74707,2195972344703,0.20449,0.31569,157.38574,0.36133,340,1,0.20704,0.27406,1,1.57891,0.02148,0,,0.25310,0.34165,15.23845,1.02942,1,0.58304,0.37040,14.62891,1.03512,1,0,0.00000,6,0.00000,0.00000,0.00000,0.00000,
0,scrcap,9612,157.96069,2195973052350,0.42778,0.27671,157.76367,0.19702,341,1,0.70056,0.27463,1,1.57891,0.02148,0,,0.26481,0.34723,15.43342,1.01908,1,0.59364,0.37770,13.45006,1.01961,1,0,0.00000,6,0.00000,0.00000,0.00000,0.00000,
0,scrcap,9647,158.53564,2195974956786,0.66205,0.35614,158.02637,0.50928,342,1,0.64784,0.37966,1,1.67578,-0.00195,0,,0.27025,0.35164,15.88321,1.02438,1,0.59905,0.38078,14.60073,1.03007,1,0,0.00000,6,0.00000,0.00000,0.00000,0.00000,
0,scrcap,9665,158.83130,2195975936494,0.68771,0.37781,158.55225,0.27905,343,1,0.71926,0.41999,1,1.53047,0.00488,0,,0.27152,0.35198,15.63152,0.99798,1,0.60128,0.37997,14.16958,0.98890,1,0,0.00000,6,0.00000,0.00000,0.00000,0.00000,
0,scrcap,9683,159.12695,2195976916273,0.68271,0.44588,158.84790,0.27905,344,1,0.65956,0.63930,1,1.54531,0.00391,1,,0.27031,0.36165,15.33979,0.98141,1,0.59842,0.38896,13.49023,0.98194,1,0,0.00000,6,0.00000,0.00000,0.00000,0.00000,