\relax 
\bibstyle{biblatex}
\bibdata{thesis-blx,thesis}
\citation{biblatex-control}
\@writefile{toc}{\boolfalse {citerequest}\boolfalse {citetracker}\boolfalse {pagetracker}\boolfalse {backtracker}\relax }
\@writefile{lof}{\boolfalse {citerequest}\boolfalse {citetracker}\boolfalse {pagetracker}\boolfalse {backtracker}\relax }
\@writefile{lot}{\boolfalse {citerequest}\boolfalse {citetracker}\boolfalse {pagetracker}\boolfalse {backtracker}\relax }
\citation{Bosch:2015:ADL:2678025.2701397}
\citation{Bosch:2015:ADL:2678025.2701397}
\citation{Lalle:2015:PUL:2678025.2701376}
\citation{Lalle:2015:PUL:2678025.2701376}
\citation{Lalle:2015:PUL:2678025.2701376}
\citation{JSSv028i05}
\@writefile{toc}{\defcounter {refsection}{0}\relax }\@writefile{toc}{\contentsline {section}{\numberline {1}Introduction}{2}}
\citation{Fitts_Law}
\citation{Byrne:1999:ETV:302979.303118}
\citation{hyrskykari}
\@writefile{toc}{\defcounter {refsection}{0}\relax }\@writefile{toc}{\contentsline {section}{\numberline {2}Related Work}{3}}
\newlabel{sec:related_work}{{2}{3}}
\@writefile{toc}{\defcounter {refsection}{0}\relax }\@writefile{toc}{\contentsline {section}{\numberline {3}Approach}{3}}
\newlabel{sec:approach}{{3}{3}}
\@writefile{toc}{\defcounter {refsection}{0}\relax }\@writefile{toc}{\contentsline {section}{\numberline {4}The Eye Tracking Experiment}{4}}
\newlabel{sec:experiment}{{4}{4}}
\@writefile{toc}{\defcounter {refsection}{0}\relax }\@writefile{toc}{\contentsline {section}{\numberline {5}Data Analysis}{4}}
\newlabel{sec:data_analysis}{{5}{4}}
\@writefile{lof}{\defcounter {refsection}{0}\relax }\@writefile{lof}{\contentsline {figure}{\numberline {1}{\ignorespaces Evidences of user confusion}}{5}}
\newlabel{fig:confusion_metrics}{{1}{5}}
\@writefile{toc}{\defcounter {refsection}{0}\relax }\@writefile{toc}{\contentsline {section}{Appendices}{5}}
\@writefile{toc}{\defcounter {refsection}{0}\relax }\@writefile{toc}{\contentsline {section}{\numberline {A}An appendix section}{5}}
\@writefile{toc}{\defcounter {refsection}{0}\relax }\@writefile{toc}{\contentsline {subsection}{\numberline {A.1}Previous Works}{5}}
\@writefile{toc}{\defcounter {refsection}{0}\relax }\@writefile{toc}{\contentsline {subsection}{\numberline {A.2}Timeline of This Project}{5}}
