\boolfalse {citerequest}\boolfalse {citetracker}\boolfalse {pagetracker}\boolfalse {backtracker}\relax 
\defcounter {refsection}{0}\relax 
\contentsline {section}{\numberline {1}Introduction}{2}
\defcounter {refsection}{0}\relax 
\contentsline {section}{\numberline {2}Related Work}{3}
\defcounter {refsection}{0}\relax 
\contentsline {section}{\numberline {3}Approach}{3}
\defcounter {refsection}{0}\relax 
\contentsline {section}{\numberline {4}The Eye Tracking Experiment}{4}
\defcounter {refsection}{0}\relax 
\contentsline {section}{\numberline {5}Data Analysis}{4}
\defcounter {refsection}{0}\relax 
\contentsline {section}{Appendices}{5}
\defcounter {refsection}{0}\relax 
\contentsline {section}{\numberline {A}An appendix section}{5}
\defcounter {refsection}{0}\relax 
\contentsline {subsection}{\numberline {A.1}Previous Works}{5}
\defcounter {refsection}{0}\relax 
\contentsline {subsection}{\numberline {A.2}Timeline of This Project}{5}
