Set,Elapse,Start_Time,End_Time,Confusion
3.3,00:06.8,00:00.00,00:06.8,False
3.3,00:39.5,00:06.8,00:46.3,True
3.3,00:00.5,00:46.3,00:46.8,False
3.3,00:01.0,00:46.8,00:47.7,False
3.3,00:11.8,00:47.7,00:59.5,False
3.3,00:00.3,00:59.5,00:59.8,False
3.3,00:01.2,00:59.8,01:01.0,False
3.3,00:03.5,01:01.0,01:04.5,False
3.3,00:00.3,01:04.5,01:04.8,False
3.3,00:00.8,01:04.8,01:05.5,False
3.3,00:06.2,01:05.5,01:11.7,False
3.3,00:00.3,01:11.7,01:12.0,False
3.3,00:00.5,01:12.0,01:12.5,False
3.3,00:02.6,01:12.5,01:15.0,False
3.3,00:00.3,01:15.0,01:15.4,False
3.3,00:01.3,01:15.4,01:16.7,False
3.3,00:06.2,01:16.7,01:22.9,False
3.3,00:00.3,01:22.9,01:23.2,False
3.3,00:00.6,01:23.2,01:23.7,False
3.3,00:02.0,01:23.7,01:25.7,False
3.3,00:00.4,01:25.7,01:26.1,False
3.3,00:01.0,01:26.1,01:27.1,False
3.3,00:12.7,01:27.1,01:39.8,False
3.3,00:00.2,01:39.8,01:40.0,False
3.3,00:00.6,01:40.0,01:40.7,False
3.3,00:01.7,01:40.7,01:42.4,False
3.3,00:00.3,01:42.4,01:42.7,False
3.3,00:01.4,01:42.7,01:44.1,False
3.3,00:07.2,01:44.1,01:51.3,False
3.3,00:00.3,01:51.3,01:51.6,False
3.3,00:00.6,01:51.6,01:52.2,False
3.3,00:02.5,01:52.2,01:54.7,False
3.3,00:00.3,01:54.7,01:55.0,False
3.3,00:00.4,01:55.0,01:55.4,False
3.3,00:01.7,01:55.4,01:57.0,False
3.3,00:00.3,01:57.0,01:57.3,False
3.3,00:00.6,01:57.3,01:57.9,False
3.4,00:11.7,00:00.00,00:11.7,False
3.4,00:04.3,00:11.7,00:16.0,False
3.4,00:00.4,00:16.0,00:16.4,False
3.4,00:00.9,00:16.4,00:17.3,False
3.4,00:05.7,00:17.3,00:23.0,False
3.4,00:00.3,00:23.0,00:23.3,False
3.4,00:01.0,00:23.3,00:24.4,False
3.4,00:32.6,00:24.4,00:57.0,False
3.4,00:00.3,00:57.0,00:57.3,False
3.4,00:00.6,00:57.3,00:58.0,False
3.4,00:54.5,00:58.0,01:52.5,True
3.4,00:00.3,01:52.5,01:52.8,True
3.4,00:01.0,01:52.8,01:53.8,True
3.4,00:02.8,01:53.8,01:56.7,True
3.4,00:00.4,01:56.7,01:57.1,True
3.4,00:01.2,01:57.1,01:58.3,True
3.4,00:08.2,01:58.3,02:06.5,True
3.4,00:00.4,02:06.5,02:06.9,True
3.4,00:00.9,02:06.9,02:07.9,True
3.4,00:04.2,02:07.9,02:12.1,True
3.4,00:00.4,02:12.1,02:12.5,True
3.4,00:01.0,02:12.5,02:13.5,True
3.4,00:08.1,02:13.5,02:21.6,True
3.4,00:00.3,02:21.6,02:21.9,True
3.4,00:00.9,02:21.9,02:22.8,True
3.4,00:03.2,02:22.8,02:26.0,True
3.4,00:00.4,02:26.0,02:26.4,True
3.4,00:00.8,02:26.4,02:27.2,True
3.4,00:38.3,02:27.2,03:05.5,True
3.4,00:00.3,03:05.5,03:05.8,True
3.4,00:00.6,03:05.8,03:06.5,True
3.4,00:12.2,03:06.5,03:18.7,True
3.4,00:00.4,03:18.7,03:19.0,True
3.4,00:01.0,03:19.0,03:20.0,True
3.4,00:21.2,03:20.0,03:41.2,True
3.4,00:00.4,03:41.2,03:41.6,False
3.4,00:01.8,03:41.6,03:43.4,False
3.4,00:15.0,03:43.4,03:58.4,False
3.4,00:00.3,03:58.4,03:58.8,False
3.4,00:01.1,03:58.8,03:59.8,False
3.4,00:03.0,03:59.8,04:02.8,False
3.4,00:00.3,04:02.8,04:03.2,False
3.4,00:01.0,04:03.2,04:04.2,False
3.4,00:07.2,04:04.2,04:11.4,False
3.4,00:00.3,04:11.4,04:11.7,False
3.4,00:00.9,04:11.7,04:12.6,False
3.4,00:06.4,04:12.6,04:19.0,False
3.4,00:00.4,04:19.0,04:19.4,False
3.4,00:02.4,04:19.4,04:21.8,False
3.4,00:09.4,04:21.8,04:31.2,False
3.4,00:00.3,04:31.2,04:31.5,False
3.4,00:00.7,04:31.5,04:32.2,False
3.4,00:17.0,04:32.2,04:49.1,False
3.4,00:00.4,04:49.1,04:49.5,False
3.4,00:00.8,04:49.5,04:50.3,False
3.4,00:01.9,04:50.3,04:52.3,False
3.4,00:00.4,04:52.3,04:52.6,False
3.4,00:00.7,04:52.6,04:53.4,False
3.4,00:05.4,04:53.4,04:58.8,False
3.4,00:00.4,04:58.8,04:59.2,False
3.4,00:01.0,04:59.2,05:00.2,False
3.4,00:18.5,05:00.2,05:18.7,False
3.4,00:00.4,05:18.7,05:19.1,False
3.4,00:00.8,05:19.1,05:19.9,False
3.4,00:10.8,05:19.9,05:30.7,False
3.4,00:00.4,05:30.7,05:31.1,False
3.6,00:11.0,00:00.00,00:11.0,True
3.6,00:27.9,00:11.0,00:38.9,True
3.6,00:00.4,00:38.9,00:39.3,True
3.6,00:00.8,00:39.3,00:40.1,True
3.6,00:17.7,00:40.1,00:57.7,True
3.6,00:00.4,00:57.7,00:58.1,False
3.6,00:00.7,00:58.1,00:58.8,False
3.6,00:02.6,00:58.8,01:01.4,False
3.6,00:00.3,01:01.4,01:01.7,False
3.6,00:00.5,01:01.7,01:02.2,False
3.6,00:12.0,01:02.2,01:14.2,False
3.6,00:00.3,01:14.2,01:14.5,False
3.6,00:00.8,01:14.5,01:15.4,False
3.6,00:17.5,01:15.4,01:32.9,False
3.6,00:00.3,01:32.9,01:33.2,False
3.6,00:01.0,01:33.2,01:34.2,False
3.7,00:07.3,00:00.00,00:07.3,False
3.7,00:20.7,00:07.3,00:28.0,False
3.7,00:00.3,00:28.0,00:28.3,False
3.7,00:01.1,00:28.3,00:29.4,False
3.7,00:32.6,00:29.4,01:02.0,True
3.7,00:00.4,01:02.0,01:02.4,True
3.7,00:00.6,01:02.4,01:03.0,True
3.7,00:03.9,01:03.0,01:06.9,True
3.7,00:00.3,01:06.9,01:07.2,False
3.7,00:00.9,01:07.2,01:08.1,False
3.7,00:30.0,01:08.1,01:38.1,False
3.7,00:00.3,01:38.1,01:38.4,False
4.4,00:04.9,00:00.00,00:04.9,False
4.4,00:02.9,00:04.9,00:07.8,False
4.4,00:00.3,00:07.8,00:08.1,False
4.4,00:00.9,00:08.1,00:09.0,False
4.4,00:20.6,00:09.0,00:29.6,False
4.4,00:00.2,00:29.6,00:29.8,False
4.4,00:00.8,00:29.8,00:30.6,False
4.4,00:03.6,00:30.6,00:34.2,False
4.4,00:00.2,00:34.2,00:34.4,False
4.4,00:01.4,00:34.4,00:35.8,False
4.4,00:08.8,00:35.8,00:44.6,False
4.4,00:05.2,00:44.6,00:49.8,False
4.4,00:00.2,00:49.8,00:50.1,False
4.4,00:01.5,00:50.1,00:51.6,False
4.4,00:04.9,00:51.6,00:56.4,False
4.4,00:00.2,00:56.4,00:56.7,False
4.4,00:02.2,00:56.7,00:58.8,False
4.4,00:04.1,00:58.8,01:03.0,False
4.4,00:00.3,01:03.0,01:03.2,False
4.4,00:00.9,01:03.2,01:04.2,False
4.4,00:05.9,01:04.2,01:10.1,False
4.4,00:00.2,01:10.1,01:10.3,False
4.4,00:01.1,01:10.3,01:11.4,False
4.4,00:11.4,01:11.4,01:22.8,False
4.4,00:00.3,01:22.8,01:23.1,False
4.4,00:00.7,01:23.1,01:23.8,False
4.4,00:03.2,01:23.8,01:27.1,False
4.4,00:00.2,01:27.1,01:27.3,False
4.4,00:00.9,01:27.3,01:28.3,True
4.4,00:29.4,01:28.3,01:57.7,True
4.4,00:00.2,01:57.7,01:57.9,True
4.4,00:00.8,01:57.9,01:58.6,True
4.4,00:45.1,01:58.6,02:43.8,True
4.4,00:00.2,02:43.8,02:44.0,True
4.4,00:00.8,02:44.0,02:44.8,True
4.4,00:03.9,02:44.8,02:48.7,True
4.4,00:00.3,02:48.7,02:49.0,True
4.4,00:00.7,02:49.0,02:49.7,True
4.4,00:06.4,02:49.7,02:56.1,True
4.4,00:00.3,02:56.1,02:56.3,True
4.4,00:01.0,02:56.3,02:57.3,True
4.4,00:06.4,02:57.3,03:03.7,True
4.4,00:00.3,03:03.7,03:04.0,True
4.4,00:02.1,03:04.0,03:06.2,True
4.4,00:21.7,03:06.2,03:27.9,True
4.4,00:00.2,03:27.9,03:28.1,True
4.4,00:01.4,03:28.1,03:29.5,True
4.4,00:03.2,03:29.5,03:32.7,True
4.4,00:00.3,03:32.7,03:33.0,True
4.4,00:00.8,03:33.0,03:33.7,True
4.4,00:04.2,03:33.7,03:38.0,True
4.4,00:00.3,03:38.0,03:38.3,True
4.4,00:01.2,03:38.3,03:39.5,True
4.4,00:05.5,03:39.5,03:45.1,True
4.4,00:00.3,03:45.1,03:45.3,True
4.4,00:01.1,03:45.3,03:46.4,True
4.4,00:39.9,03:46.4,04:26.3,True
4.4,00:00.2,04:26.3,04:26.5,True
4.4,00:01.0,04:26.5,04:27.6,True
4.4,00:01.3,04:27.6,04:28.9,True
4.4,00:00.2,04:28.9,04:29.1,True
4.4,00:00.9,04:29.1,04:30.0,True
4.4,00:06.8,04:30.0,04:36.8,True
4.4,00:00.2,04:36.8,04:37.0,False
4.4,00:01.1,04:37.0,04:38.1,False
4.4,00:05.1,04:38.1,04:43.2,False
4.4,00:00.3,04:43.2,04:43.5,False
4.4,00:01.6,04:43.5,04:45.1,False
4.4,00:02.6,04:45.1,04:47.8,False
4.4,00:00.3,04:47.8,04:48.0,False
4.4,00:00.8,04:48.0,04:48.8,False
4.4,00:05.3,04:48.8,04:54.1,False
4.4,00:00.3,04:54.1,04:54.4,False
4.4,00:00.9,04:54.4,04:55.3,False
4.4,00:14.0,04:55.3,05:09.3,False
4.4,00:00.3,05:09.3,05:09.6,False
4.4,00:01.8,05:09.6,05:11.4,False
4.4,00:01.5,05:11.4,05:12.9,False
4.4,00:00.3,05:12.9,05:13.2,False
4.4,00:01.4,05:13.2,05:14.6,False
4.4,00:16.8,05:14.6,05:31.4,False
4.4,00:00.3,05:31.4,05:31.7,False
4.4,00:01.3,05:31.7,05:33.0,False
4.4,00:21.5,05:33.0,05:54.5,True
4.4,00:00.1,05:54.5,05:54.6,True
4.4,00:00.9,05:54.6,05:55.5,True
4.4,00:13.3,05:55.5,06:08.9,True
4.4,00:00.2,06:08.9,06:09.1,True
4.4,00:01.2,06:09.1,06:10.3,True
4.4,00:05.6,06:10.3,06:15.9,True
4.4,00:00.2,06:15.9,06:16.1,True
4.4,00:00.9,06:16.1,06:17.0,True
4.4,00:11.5,06:17.0,06:28.4,True
4.4,00:00.2,06:28.4,06:28.7,False
4.4,00:02.4,06:28.7,06:31.1,False
4.4,00:03.7,06:31.1,06:34.8,False
4.4,00:00.3,06:34.8,06:35.0,False
4.6,00:14.3,00:00.00,00:14.3,False
4.6,00:08.5,00:14.3,00:22.8,False
4.6,00:01.0,00:22.8,00:23.8,False
4.6,00:02.0,00:23.8,00:25.8,False
4.6,00:07.2,00:25.8,00:33.0,True
4.6,00:00.6,00:33.0,00:33.6,True
4.6,00:03.8,00:33.6,00:37.4,True
4.6,00:06.4,00:37.4,00:43.8,True
4.6,00:08.0,00:43.8,00:51.8,True
4.6,00:20.9,00:51.8,01:12.7,True
4.6,00:00.3,01:12.7,01:13.0,True
4.6,00:01.4,01:13.0,01:14.5,True
4.6,00:19.8,01:14.5,01:34.2,False
4.6,00:12.6,01:34.2,01:46.8,False
4.6,00:00.3,01:46.8,01:47.1,False
4.6,00:01.0,01:47.1,01:48.1,False
5.6,00:06.6,00:00.00,00:06.6,False
5.6,00:10.9,00:06.6,00:17.5,False
5.6,00:00.3,00:17.5,00:17.8,False
5.6,00:00.9,00:17.8,00:18.7,False
5.6,01:02.4,00:18.7,01:21.1,True
5.6,00:00.9,01:21.1,01:22.0,False
5.6,00:02.0,01:22.0,01:24.0,False
5.6,00:33.1,01:24.0,01:57.1,False
5.6,00:00.2,01:57.1,01:57.4,False
5.6,00:00.8,01:57.4,01:58.1,False
5.6,00:09.8,01:58.1,02:07.9,False
5.6,00:00.3,02:07.9,02:08.2,False
5.6,00:00.5,02:08.2,02:08.7,False
5.6,00:06.6,02:08.7,02:15.3,False
5.6,00:00.2,02:15.3,02:15.5,False
6.4,00:09.0,00:00.00,00:09.0,False
6.4,00:06.6,00:09.0,00:15.6,False
6.4,00:00.4,00:15.6,00:16.0,False
6.4,00:00.7,00:16.0,00:16.7,False
6.4,00:03.4,00:16.7,00:20.1,False
6.4,00:00.3,00:20.1,00:20.4,False
6.4,00:01.1,00:20.4,00:21.4,False
6.4,00:12.4,00:21.4,00:33.8,False
6.4,00:00.3,00:33.8,00:34.1,False
6.4,00:00.5,00:34.1,00:34.6,False
6.4,00:02.4,00:34.6,00:37.0,False
6.4,00:00.3,00:37.0,00:37.3,False
6.4,00:00.8,00:37.3,00:38.2,False
6.4,00:11.0,00:38.2,00:49.1,False
6.4,00:00.3,00:49.1,00:49.5,False
6.4,00:01.0,00:49.5,00:50.5,False
6.4,00:09.3,00:50.5,00:59.8,False
6.4,00:00.3,00:59.8,01:00.1,False
6.4,00:01.1,01:00.1,01:01.2,False
6.4,00:15.3,01:01.2,01:16.5,False
6.4,00:00.4,01:16.5,01:16.9,False
6.4,00:00.8,01:16.9,01:17.7,False
6.4,00:04.4,01:17.7,01:22.1,False
6.4,00:00.5,01:22.1,01:22.6,False
6.4,00:00.6,01:22.6,01:23.1,False
6.4,00:09.7,01:23.1,01:32.8,False
6.4,00:00.4,01:32.8,01:33.2,False
6.4,00:00.9,01:33.2,01:34.1,False
6.4,00:34.8,01:34.1,02:08.9,True
6.4,00:00.3,02:08.9,02:09.3,True
6.4,00:00.9,02:09.3,02:10.1,True
6.4,00:11.2,02:10.1,02:21.3,True
6.4,00:00.3,02:21.3,02:21.6,True
6.4,00:00.7,02:21.6,02:22.3,True
6.4,00:18.6,02:22.3,02:40.9,True
6.4,00:00.3,02:40.9,02:41.1,True
6.4,00:00.8,02:41.1,02:41.9,True
6.4,00:10.7,02:41.9,02:52.6,True
6.4,00:00.3,02:52.6,02:53.0,True
6.4,00:00.6,02:53.0,02:53.6,True
6.4,00:02.9,02:53.6,02:56.5,True
6.4,00:00.4,02:56.5,02:56.8,True
6.4,00:00.9,02:56.8,02:57.8,True
6.4,00:14.6,02:57.8,03:12.4,True
6.4,00:00.3,03:12.4,03:12.6,True
6.4,00:00.9,03:12.6,03:13.5,True
6.4,00:04.1,03:13.5,03:17.6,True
6.4,00:00.3,03:17.6,03:17.9,False
6.4,00:01.1,03:17.9,03:19.0,False
6.4,00:13.1,03:19.0,03:32.1,False
6.4,00:00.3,03:32.1,03:32.3,False
6.4,00:00.8,03:32.3,03:33.1,False
6.4,00:13.7,03:33.1,03:46.8,False
6.4,00:00.4,03:46.8,03:47.2,False
6.4,00:00.6,03:47.2,03:47.8,False
6.4,00:16.1,03:47.8,04:03.9,False
6.4,00:00.3,04:03.9,04:04.2,False
6.4,00:00.7,04:04.2,04:04.9,False
6.4,00:28.4,04:04.9,04:33.3,False
6.4,00:00.3,04:33.3,04:33.7,False
6.4,00:00.9,04:33.7,04:34.6,False
6.4,00:12.3,04:34.6,04:46.9,False
6.4,00:00.3,04:46.9,04:47.2,False
6.4,00:00.8,04:47.2,04:48.0,False
6.4,00:04.1,04:48.0,04:52.2,False
6.4,00:00.3,04:52.2,04:52.5,False
6.4,00:00.8,04:52.5,04:53.3,False
6.4,00:31.4,04:53.3,05:24.7,True
6.4,00:00.3,05:24.7,05:24.9,True
6.4,00:00.8,05:24.9,05:25.7,True
6.4,00:11.9,05:25.7,05:37.6,True
6.4,00:00.3,05:37.6,05:37.8,False
6.4,00:01.8,05:37.8,05:39.6,False
6.4,00:12.6,05:39.6,05:52.1,False
6.4,00:00.3,05:52.1,05:52.4,False
6.4,00:00.8,05:52.4,05:53.3,False
6.4,00:05.5,05:53.3,05:58.7,False
6.4,00:00.3,05:58.7,05:59.1,False
6.4,00:02.5,05:59.1,06:01.6,False
6.4,00:10.4,06:01.6,06:11.9,False
6.4,00:00.3,06:11.9,06:12.2,False
6.4,00:01.3,06:12.2,06:13.5,False
6.4,00:21.9,06:13.5,06:35.4,True
6.4,00:00.3,06:35.4,06:35.6,True
6.4,00:01.0,06:35.6,06:36.6,True
6.4,00:05.7,06:36.6,06:42.3,True
6.4,00:00.3,06:42.3,06:42.6,True
6.4,00:00.6,06:42.6,06:43.2,True
6.4,00:12.0,06:43.2,06:55.3,True
6.4,00:00.2,06:55.3,06:55.5,True
6.4,00:00.8,06:55.5,06:56.3,True
6.4,00:06.2,06:56.3,07:02.5,True
6.4,00:00.3,07:02.5,07:02.8,True
6.4,00:00.8,07:02.8,07:03.6,True
6.4,00:07.0,07:03.6,07:10.6,True
6.4,00:00.3,07:10.6,07:10.9,True
7.4,00:08.3,00:00.00,00:08.3,False
7.4,00:05.5,00:08.3,00:13.8,False
7.4,00:00.2,00:13.8,00:14.1,False
7.4,00:01.4,00:14.1,00:15.4,False
7.4,00:11.3,00:15.4,00:26.7,False
7.4,00:00.2,00:26.7,00:27.0,False
7.4,00:10.9,00:27.0,00:37.9,False
7.4,00:53.0,00:37.9,01:30.8,False
7.4,00:01.8,01:30.8,01:32.6,False
7.4,00:00.2,01:32.6,01:32.8,False
7.4,00:12.6,01:32.8,01:45.4,False
7.4,00:02.3,01:45.4,01:47.6,False
7.4,00:00.2,01:47.6,01:47.9,False
7.4,00:03.6,01:47.9,01:51.5,False
7.4,00:01.8,01:51.5,01:53.3,False
7.4,00:00.2,01:53.3,01:53.5,False
7.4,00:00.9,01:53.5,01:54.4,False
7.4,01:37.9,01:54.4,03:32.3,False
7.4,00:01.6,03:32.3,03:33.9,False
7.6,00:53.0,00:00.00,00:53.0,False
7.6,00:16.9,00:53.0,01:09.9,False
7.6,00:00.2,01:09.9,01:10.0,False
7.6,00:01.3,01:10.0,01:11.4,False
7.6,01:26.3,01:11.4,02:37.7,True
7.6,00:02.5,02:37.7,02:40.2,True
7.6,00:00.2,02:40.2,02:40.4,True
7.6,00:20.4,02:40.4,03:00.8,True
7.6,00:02.0,03:00.8,03:02.7,True
7.6,00:00.2,03:02.7,03:02.9,True
7.6,00:29.6,03:02.9,03:32.5,True
7.6,00:00.2,03:32.5,03:32.7,True
7.6,00:08.1,03:32.7,03:40.9,True
7.6,00:00.2,03:40.9,03:41.0,True
7.6,00:12.7,03:41.0,03:53.8,True
7.6,00:06.9,03:53.8,04:00.7,True
7.6,00:00.2,04:00.7,04:00.9,True
7.6,00:01.7,04:00.9,04:02.6,True
7.6,00:05.5,04:02.6,04:08.0,True
8.4,00:07.0,00:00.00,00:07.0,False
8.4,00:07.8,00:07.0,00:14.7,False
8.4,00:00.2,00:14.7,00:15.0,False
8.4,00:05.6,00:15.0,00:20.5,False
8.4,00:03.7,00:20.5,00:24.3,False
8.4,00:00.3,00:24.3,00:24.6,False
8.4,00:02.5,00:24.6,00:27.0,False
8.4,00:07.8,00:27.0,00:34.8,False
8.4,00:00.2,00:34.8,00:35.0,False
8.4,00:22.3,00:35.0,00:57.4,False
8.4,00:48.1,00:57.4,01:45.4,False
8.4,00:00.2,01:45.4,01:45.7,False
8.4,00:45.5,01:45.7,02:31.1,True
8.4,00:50.6,02:31.1,03:21.7,False
8.4,00:00.2,03:21.7,03:21.9,False
8.4,00:01.6,03:21.9,03:23.5,False
8.4,00:00.8,03:23.5,03:24.3,False
8.4,00:10.8,03:24.3,03:35.1,False
8.4,00:02.8,03:35.1,03:37.9,False
8.4,00:00.2,03:37.9,03:38.1,False
8.4,00:02.5,03:38.1,03:40.7,False
8.4,00:06.4,03:40.7,03:47.1,False
8.4,00:00.2,03:47.1,03:47.3,False
8.4,00:01.7,03:47.3,03:49.0,False
8.4,00:00.2,03:49.0,03:49.2,False
8.4,00:14.4,03:49.2,04:03.6,False
8.4,00:04.3,04:03.6,04:08.0,False
8.4,00:02.9,04:08.0,04:10.8,False
8.4,00:00.2,04:10.8,04:11.0,False
8.4,00:17.6,04:11.0,04:28.6,False
8.4,00:01.3,04:28.6,04:29.9,False
8.4,00:00.2,04:29.9,04:30.1,False
8.4,00:02.3,04:30.1,04:32.4,False
8.4,00:01.1,04:32.4,04:33.5,False
8.4,00:00.2,04:33.5,04:33.7,False
8.4,00:03.1,04:33.7,04:36.8,False
8.4,00:03.7,04:36.8,04:40.5,False
8.4,00:01.4,04:40.5,04:41.9,False
8.4,00:00.2,04:41.9,04:42.0,False
8.4,00:01.1,04:42.0,04:43.2,False
8.4,00:02.0,04:43.2,04:45.2,False
8.4,00:00.2,04:45.2,04:45.4,False
8.6,00:16.7,00:00.00,00:16.7,False
8.6,00:06.8,00:16.7,00:23.5,False
8.6,00:00.2,00:23.5,00:23.7,False
8.6,00:00.8,00:23.7,00:24.5,False
8.6,00:17.4,00:24.5,00:41.8,False
8.6,00:00.5,00:41.8,00:42.4,False
8.6,00:14.5,00:42.4,00:56.9,True
8.6,00:02.8,00:56.9,00:59.6,True
8.6,00:00.2,00:59.6,00:59.9,True
8.6,00:03.6,00:59.9,01:03.5,True
8.6,00:00.2,01:03.5,01:03.7,True
8.6,00:03.6,01:03.7,01:07.3,True
8.6,00:05.4,01:07.3,01:12.6,True
8.6,00:00.3,01:12.6,01:12.9,True
8.6,00:09.1,01:12.9,01:22.0,True
8.6,00:02.3,01:22.0,01:24.2,True
8.6,00:00.3,01:24.2,01:24.5,True
8.6,00:38.6,01:24.5,02:03.0,True
8.6,00:00.2,02:03.0,02:03.2,True
8.6,00:01.9,02:03.2,02:05.2,True
8.6,00:06.2,02:05.2,02:11.4,True
8.6,00:00.3,02:11.4,02:11.7,True
8.6,00:06.6,02:11.7,02:18.3,True
8.6,00:03.9,02:18.3,02:22.1,True
8.6,00:00.3,02:22.1,02:22.4,True
8.6,00:00.8,02:22.4,02:23.2,True
8.6,00:05.9,02:23.2,02:29.1,True
8.6,00:00.6,02:29.1,02:29.7,False
8.6,00:00.2,02:29.7,02:29.9,False
9.4,00:15.1,00:00.00,00:15.1,False
9.4,00:00.6,00:15.1,00:15.7,False
9.4,00:00.9,00:15.7,00:16.6,False
9.4,00:17.0,00:16.6,00:33.6,False
9.4,00:22.6,00:33.6,00:56.2,False
9.4,00:00.3,00:56.2,00:56.5,False
9.4,00:00.7,00:56.5,00:57.2,False
9.4,00:26.6,00:57.2,01:23.8,False
9.4,00:00.4,01:23.8,01:24.2,False
9.4,00:01.0,01:24.2,01:25.2,False
9.4,01:40.0,01:25.2,03:05.2,True
9.4,00:02.2,03:05.2,03:07.5,True
9.4,00:00.2,03:07.5,03:07.7,True
9.4,00:01.0,03:07.7,03:08.7,True
9.4,00:12.6,03:08.7,03:21.2,True
9.4,00:00.2,03:21.2,03:21.5,True
9.4,00:01.5,03:21.5,03:22.9,True
9.4,00:09.1,03:22.9,03:32.0,True
9.4,00:03.8,03:32.0,03:35.9,True
9.4,00:00.2,03:35.9,03:36.1,True
9.4,00:00.7,03:36.1,03:36.8,True
9.4,00:03.9,03:36.8,03:40.7,True
9.4,00:00.2,03:40.7,03:41.0,True
9.4,00:03.2,03:41.0,03:44.2,True
9.4,00:12.8,03:44.2,03:57.0,True
9.4,00:00.3,03:57.0,03:57.3,True
9.4,00:00.7,03:57.3,03:57.9,True
9.4,00:15.6,03:57.9,04:13.5,True
9.4,00:00.3,04:13.5,04:13.8,True
9.4,00:00.6,04:13.8,04:14.4,True
9.4,00:08.0,04:14.4,04:22.3,True
9.4,00:00.3,04:22.3,04:22.6,True
9.4,00:00.7,04:22.6,04:23.3,True
9.4,00:12.0,04:23.3,04:35.3,True
9.4,00:00.2,04:35.3,04:35.5,True
9.4,00:10.8,04:35.5,04:46.2,True
9.4,00:00.2,04:46.2,04:46.4,True
9.4,00:00.6,04:46.4,04:47.1,True
9.4,00:04.8,04:47.1,04:51.9,True
9.4,00:04.5,04:51.9,04:56.4,True
9.4,00:00.3,04:56.4,04:56.7,True
9.4,00:01.6,04:56.7,04:58.3,True
9.4,00:06.5,04:58.3,05:04.8,True
9.4,00:00.2,05:04.8,05:05.0,True
9.4,00:01.8,05:05.0,05:06.8,True
9.4,00:05.5,05:06.8,05:12.3,True
9.4,00:00.2,05:12.3,05:12.5,True
9.4,00:00.6,05:12.5,05:13.1,True
9.4,00:04.7,05:13.1,05:17.8,True
9.4,00:24.7,05:17.8,05:42.5,True
9.4,00:01.7,05:42.5,05:44.1,True
9.4,00:00.2,05:44.1,05:44.3,True
9.4,00:07.2,05:44.3,05:51.5,True
9.4,00:15.9,05:51.5,06:07.4,True
9.4,00:10.4,06:07.4,06:17.8,True
9.4,00:06.6,06:17.8,06:24.4,True
9.4,00:00.2,06:24.4,06:24.6,True
9.4,00:00.5,06:24.6,06:25.1,True
9.4,00:12.5,06:25.1,06:37.7,True
9.4,00:00.2,06:37.7,06:37.9,True
9.4,00:00.5,06:37.9,06:38.4,True
9.4,00:06.9,06:38.4,06:45.3,True
9.4,00:00.3,06:45.3,06:45.6,True
9.4,00:21.9,06:45.6,07:07.5,True
9.4,00:02.8,07:07.5,07:10.3,False
9.4,00:00.2,07:10.3,07:10.5,False
9.4,00:03.1,07:10.5,07:13.7,False
9.4,00:05.6,07:13.7,07:19.3,False
9.4,00:00.2,07:19.3,07:19.5,False
9.4,00:01.2,07:19.5,07:20.6,False
9.4,00:09.5,07:20.6,07:30.1,False
9.4,00:00.4,07:30.1,07:30.6,False
9.4,00:00.6,07:30.6,07:31.1,False
9.4,00:04.1,07:31.1,07:35.2,False
9.4,00:00.2,07:35.2,07:35.4,False
9.4,00:00.8,07:35.4,07:36.1,False
9.4,00:00.5,07:36.1,07:36.6,False
9.4,00:00.3,07:36.6,07:36.9,False
9.4,00:24.1,07:36.9,08:01.1,False
9.4,00:06.8,08:01.1,08:07.9,False
9.4,00:00.4,08:07.9,08:08.3,False
9.4,00:00.5,08:08.3,08:08.8,False
9.4,00:08.7,08:08.8,08:17.5,False
9.4,00:01.8,08:17.5,08:19.4,False
9.4,00:00.2,08:19.4,08:19.6,False
9.4,00:00.5,08:19.6,08:20.0,False
9.4,00:02.8,08:20.0,08:22.9,False
9.4,00:12.5,08:22.9,08:35.4,False
9.4,00:00.2,08:35.4,08:35.6,False
9.4,00:00.5,08:35.6,08:36.1,False
9.4,00:08.0,08:36.1,08:44.2,False
9.4,00:04.3,08:44.2,08:48.4,False
9.4,00:00.3,08:48.4,08:48.7,False
10.4,00:07.4,00:00.00,00:07.4,False
10.4,00:07.2,00:07.4,00:14.6,False
10.4,00:00.5,00:14.6,00:15.1,False
10.4,00:13.0,00:15.1,00:28.1,False
10.4,00:12.9,00:28.1,00:41.0,False
10.4,00:00.3,00:41.0,00:41.3,False
10.4,00:15.2,00:41.3,00:56.5,False
10.4,00:11.0,00:56.5,01:07.5,False
10.4,00:00.2,01:07.5,01:07.7,False
10.4,00:11.6,01:07.7,01:19.3,False
10.4,00:00.3,01:19.3,01:19.6,False
10.4,00:18.6,01:19.6,01:38.2,True
10.4,00:02.9,01:38.2,01:41.1,True
10.4,00:00.2,01:41.1,01:41.4,False
10.4,00:18.7,01:41.4,02:00.0,False
10.4,00:02.6,02:00.0,02:02.6,False
10.4,00:00.2,02:02.6,02:02.8,False
10.4,00:00.9,02:02.8,02:03.7,False
10.4,00:03.6,02:03.7,02:07.3,False
10.4,00:00.3,02:07.3,02:07.6,False
10.4,00:34.8,02:07.6,02:42.4,False
10.4,00:02.3,02:42.4,02:44.7,False
10.4,00:00.2,02:44.7,02:44.9,False
10.4,00:00.5,02:44.9,02:45.5,False
10.4,00:01.9,02:45.5,02:47.4,False
10.4,00:00.2,02:47.4,02:47.6,False
10.4,00:13.7,02:47.6,03:01.3,False
10.4,00:00.2,03:01.3,03:01.5,False
